<?xml version="1.0" encoding="utf-8" standalone="no"?>
<!DOCTYPE svg PUBLIC "-//W3C//DTD SVG 1.1//EN"
  "http://www.w3.org/Graphics/SVG/1.1/DTD/svg11.dtd">
<!-- Created with matplotlib (http://matplotlib.org/) -->
<svg height="345.6pt" version="1.1" viewBox="0 0 460.8 345.6" width="460.8pt" xmlns="http://www.w3.org/2000/svg" xmlns:xlink="http://www.w3.org/1999/xlink">
 <defs>
  <style type="text/css">
*{stroke-linecap:butt;stroke-linejoin:round;}
  </style>
 </defs>
 <g id="figure_1">
  <g id="patch_1">
   <path d="M 0 345.6 
L 460.8 345.6 
L 460.8 0 
L 0 0 
z
" style="fill:#ffffff;"/>
  </g>
  <g id="axes_1">
   <g id="patch_2">
    <path d="M 57.6 307.584 
L 343.296 307.584 
L 343.296 41.472 
L 57.6 41.472 
z
" style="fill:#ffffff;"/>
   </g>
   <g id="QuadMesh_1">
    <path clip-path="url(#pf0626712be)" d="M 57.6 41.472 
L 64.244093 41.472 
L 64.244093 130.176 
L 57.6 130.176 
L 57.6 41.472 
" style="fill:#ed503e;"/>
    <path clip-path="url(#pf0626712be)" d="M 64.244093 41.472 
L 70.888186 41.472 
L 70.888186 130.176 
L 64.244093 130.176 
L 64.244093 41.472 
" style="fill:#ec4c3e;"/>
    <path clip-path="url(#pf0626712be)" d="M 70.888186 41.472 
L 77.532279 41.472 
L 77.532279 130.176 
L 70.888186 130.176 
L 70.888186 41.472 
" style="fill:#ea443e;"/>
    <path clip-path="url(#pf0626712be)" d="M 77.532279 41.472 
L 84.176372 41.472 
L 84.176372 130.176 
L 77.532279 130.176 
L 77.532279 41.472 
" style="fill:#f3714d;"/>
    <path clip-path="url(#pf0626712be)" d="M 84.176372 41.472 
L 90.820465 41.472 
L 90.820465 130.176 
L 84.176372 130.176 
L 84.176372 41.472 
" style="fill:#f3714d;"/>
    <path clip-path="url(#pf0626712be)" d="M 90.820465 41.472 
L 97.464558 41.472 
L 97.464558 130.176 
L 90.820465 130.176 
L 90.820465 41.472 
" style="fill:#f3714d;"/>
    <path clip-path="url(#pf0626712be)" d="M 97.464558 41.472 
L 104.108651 41.472 
L 104.108651 130.176 
L 97.464558 130.176 
L 97.464558 41.472 
" style="fill:#f3714d;"/>
    <path clip-path="url(#pf0626712be)" d="M 104.108651 41.472 
L 110.752744 41.472 
L 110.752744 130.176 
L 104.108651 130.176 
L 104.108651 41.472 
" style="fill:#f26f4c;"/>
    <path clip-path="url(#pf0626712be)" d="M 110.752744 41.472 
L 117.396837 41.472 
L 117.396837 130.176 
L 110.752744 130.176 
L 110.752744 41.472 
" style="fill:#f26f4c;"/>
    <path clip-path="url(#pf0626712be)" d="M 117.396837 41.472 
L 124.04093 41.472 
L 124.04093 130.176 
L 117.396837 130.176 
L 117.396837 41.472 
" style="fill:#f26f4c;"/>
    <path clip-path="url(#pf0626712be)" d="M 124.04093 41.472 
L 130.685023 41.472 
L 130.685023 130.176 
L 124.04093 130.176 
L 124.04093 41.472 
" style="fill:#f26f4c;"/>
    <path clip-path="url(#pf0626712be)" d="M 130.685023 41.472 
L 137.329116 41.472 
L 137.329116 130.176 
L 130.685023 130.176 
L 130.685023 41.472 
" style="fill:#ed4e3e;"/>
    <path clip-path="url(#pf0626712be)" d="M 137.329116 41.472 
L 143.973209 41.472 
L 143.973209 130.176 
L 137.329116 130.176 
L 137.329116 41.472 
" style="fill:#f26f4c;"/>
    <path clip-path="url(#pf0626712be)" d="M 143.973209 41.472 
L 150.617302 41.472 
L 150.617302 130.176 
L 143.973209 130.176 
L 143.973209 41.472 
" style="fill:#f26f4c;"/>
    <path clip-path="url(#pf0626712be)" d="M 150.617302 41.472 
L 157.261395 41.472 
L 157.261395 130.176 
L 150.617302 130.176 
L 150.617302 41.472 
" style="fill:#f26f4c;"/>
    <path clip-path="url(#pf0626712be)" d="M 157.261395 41.472 
L 163.905488 41.472 
L 163.905488 130.176 
L 157.261395 130.176 
L 157.261395 41.472 
" style="fill:#f26f4c;"/>
    <path clip-path="url(#pf0626712be)" d="M 163.905488 41.472 
L 170.549581 41.472 
L 170.549581 130.176 
L 163.905488 130.176 
L 163.905488 41.472 
" style="fill:#f26f4c;"/>
    <path clip-path="url(#pf0626712be)" d="M 170.549581 41.472 
L 177.193674 41.472 
L 177.193674 130.176 
L 170.549581 130.176 
L 170.549581 41.472 
" style="fill:#f26f4c;"/>
    <path clip-path="url(#pf0626712be)" d="M 177.193674 41.472 
L 183.837767 41.472 
L 183.837767 130.176 
L 177.193674 130.176 
L 177.193674 41.472 
" style="fill:#f26f4c;"/>
    <path clip-path="url(#pf0626712be)" d="M 183.837767 41.472 
L 190.48186 41.472 
L 190.48186 130.176 
L 183.837767 130.176 
L 183.837767 41.472 
" style="fill:#f26f4c;"/>
    <path clip-path="url(#pf0626712be)" d="M 190.48186 41.472 
L 197.125953 41.472 
L 197.125953 130.176 
L 190.48186 130.176 
L 190.48186 41.472 
" style="fill:#f26f4c;"/>
    <path clip-path="url(#pf0626712be)" d="M 197.125953 41.472 
L 203.770047 41.472 
L 203.770047 130.176 
L 197.125953 130.176 
L 197.125953 41.472 
" style="fill:#f26f4c;"/>
    <path clip-path="url(#pf0626712be)" d="M 203.770047 41.472 
L 210.41414 41.472 
L 210.41414 130.176 
L 203.770047 130.176 
L 203.770047 41.472 
" style="fill:#f26f4c;"/>
    <path clip-path="url(#pf0626712be)" d="M 210.41414 41.472 
L 217.058233 41.472 
L 217.058233 130.176 
L 210.41414 130.176 
L 210.41414 41.472 
" style="fill:#f26f4c;"/>
    <path clip-path="url(#pf0626712be)" d="M 217.058233 41.472 
L 223.702326 41.472 
L 223.702326 130.176 
L 217.058233 130.176 
L 217.058233 41.472 
" style="fill:#f26f4c;"/>
    <path clip-path="url(#pf0626712be)" d="M 223.702326 41.472 
L 230.346419 41.472 
L 230.346419 130.176 
L 223.702326 130.176 
L 223.702326 41.472 
" style="fill:#f26f4c;"/>
    <path clip-path="url(#pf0626712be)" d="M 230.346419 41.472 
L 236.990512 41.472 
L 236.990512 130.176 
L 230.346419 130.176 
L 230.346419 41.472 
" style="fill:#f26f4c;"/>
    <path clip-path="url(#pf0626712be)" d="M 236.990512 41.472 
L 243.634605 41.472 
L 243.634605 130.176 
L 236.990512 130.176 
L 236.990512 41.472 
" style="fill:#f26f4c;"/>
    <path clip-path="url(#pf0626712be)" d="M 243.634605 41.472 
L 250.278698 41.472 
L 250.278698 130.176 
L 243.634605 130.176 
L 243.634605 41.472 
" style="fill:#f26f4c;"/>
    <path clip-path="url(#pf0626712be)" d="M 250.278698 41.472 
L 256.922791 41.472 
L 256.922791 130.176 
L 250.278698 130.176 
L 250.278698 41.472 
" style="fill:#f26f4c;"/>
    <path clip-path="url(#pf0626712be)" d="M 256.922791 41.472 
L 263.566884 41.472 
L 263.566884 130.176 
L 256.922791 130.176 
L 256.922791 41.472 
" style="fill:#f26f4c;"/>
    <path clip-path="url(#pf0626712be)" d="M 263.566884 41.472 
L 270.210977 41.472 
L 270.210977 130.176 
L 263.566884 130.176 
L 263.566884 41.472 
" style="fill:#ed4e3e;"/>
    <path clip-path="url(#pf0626712be)" d="M 270.210977 41.472 
L 276.85507 41.472 
L 276.85507 130.176 
L 270.210977 130.176 
L 270.210977 41.472 
" style="fill:#f26f4c;"/>
    <path clip-path="url(#pf0626712be)" d="M 276.85507 41.472 
L 283.499163 41.472 
L 283.499163 130.176 
L 276.85507 130.176 
L 276.85507 41.472 
" style="fill:#f26f4c;"/>
    <path clip-path="url(#pf0626712be)" d="M 283.499163 41.472 
L 290.143256 41.472 
L 290.143256 130.176 
L 283.499163 130.176 
L 283.499163 41.472 
" style="fill:#f26f4c;"/>
    <path clip-path="url(#pf0626712be)" d="M 290.143256 41.472 
L 296.787349 41.472 
L 296.787349 130.176 
L 290.143256 130.176 
L 290.143256 41.472 
" style="fill:#f26f4c;"/>
    <path clip-path="url(#pf0626712be)" d="M 296.787349 41.472 
L 303.431442 41.472 
L 303.431442 130.176 
L 296.787349 130.176 
L 296.787349 41.472 
" style="fill:#f3714d;"/>
    <path clip-path="url(#pf0626712be)" d="M 303.431442 41.472 
L 310.075535 41.472 
L 310.075535 130.176 
L 303.431442 130.176 
L 303.431442 41.472 
" style="fill:#f3714d;"/>
    <path clip-path="url(#pf0626712be)" d="M 310.075535 41.472 
L 316.719628 41.472 
L 316.719628 130.176 
L 310.075535 130.176 
L 310.075535 41.472 
" style="fill:#f3714d;"/>
    <path clip-path="url(#pf0626712be)" d="M 316.719628 41.472 
L 323.363721 41.472 
L 323.363721 130.176 
L 316.719628 130.176 
L 316.719628 41.472 
" style="fill:#f3714d;"/>
    <path clip-path="url(#pf0626712be)" d="M 323.363721 41.472 
L 330.007814 41.472 
L 330.007814 130.176 
L 323.363721 130.176 
L 323.363721 41.472 
" style="fill:#f3714d;"/>
    <path clip-path="url(#pf0626712be)" d="M 330.007814 41.472 
L 336.651907 41.472 
L 336.651907 130.176 
L 330.007814 130.176 
L 330.007814 41.472 
" style="fill:#f3714d;"/>
    <path clip-path="url(#pf0626712be)" d="M 336.651907 41.472 
L 343.296 41.472 
L 343.296 130.176 
L 336.651907 130.176 
L 336.651907 41.472 
" style="fill:#f3714d;"/>
    <path clip-path="url(#pf0626712be)" d="M 57.6 130.176 
L 64.244093 130.176 
L 64.244093 218.88 
L 57.6 218.88 
L 57.6 130.176 
" style="fill:#f26d4b;"/>
    <path clip-path="url(#pf0626712be)" d="M 64.244093 130.176 
L 70.888186 130.176 
L 70.888186 218.88 
L 64.244093 218.88 
L 64.244093 130.176 
" style="fill:#f26948;"/>
    <path clip-path="url(#pf0626712be)" d="M 70.888186 130.176 
L 77.532279 130.176 
L 77.532279 218.88 
L 70.888186 218.88 
L 70.888186 130.176 
" style="fill:#f16244;"/>
    <path clip-path="url(#pf0626712be)" d="M 77.532279 130.176 
L 84.176372 130.176 
L 84.176372 218.88 
L 77.532279 218.88 
L 77.532279 130.176 
" style="fill:#f58a61;"/>
    <path clip-path="url(#pf0626712be)" d="M 84.176372 130.176 
L 90.820465 130.176 
L 90.820465 218.88 
L 84.176372 218.88 
L 84.176372 130.176 
" style="fill:#f58a61;"/>
    <path clip-path="url(#pf0626712be)" d="M 90.820465 130.176 
L 97.464558 130.176 
L 97.464558 218.88 
L 90.820465 218.88 
L 90.820465 130.176 
" style="fill:#f58a61;"/>
    <path clip-path="url(#pf0626712be)" d="M 97.464558 130.176 
L 104.108651 130.176 
L 104.108651 218.88 
L 97.464558 218.88 
L 97.464558 130.176 
" style="fill:#f58a61;"/>
    <path clip-path="url(#pf0626712be)" d="M 104.108651 130.176 
L 110.752744 130.176 
L 110.752744 218.88 
L 104.108651 218.88 
L 104.108651 130.176 
" style="fill:#f58a61;"/>
    <path clip-path="url(#pf0626712be)" d="M 110.752744 130.176 
L 117.396837 130.176 
L 117.396837 218.88 
L 110.752744 218.88 
L 110.752744 130.176 
" style="fill:#f58a61;"/>
    <path clip-path="url(#pf0626712be)" d="M 117.396837 130.176 
L 124.04093 130.176 
L 124.04093 218.88 
L 117.396837 218.88 
L 117.396837 130.176 
" style="fill:#f58a61;"/>
    <path clip-path="url(#pf0626712be)" d="M 124.04093 130.176 
L 130.685023 130.176 
L 130.685023 218.88 
L 124.04093 218.88 
L 124.04093 130.176 
" style="fill:#f58a61;"/>
    <path clip-path="url(#pf0626712be)" d="M 130.685023 130.176 
L 137.329116 130.176 
L 137.329116 218.88 
L 130.685023 218.88 
L 130.685023 130.176 
" style="fill:#f26948;"/>
    <path clip-path="url(#pf0626712be)" d="M 137.329116 130.176 
L 143.973209 130.176 
L 143.973209 218.88 
L 137.329116 218.88 
L 137.329116 130.176 
" style="fill:#f58a61;"/>
    <path clip-path="url(#pf0626712be)" d="M 143.973209 130.176 
L 150.617302 130.176 
L 150.617302 218.88 
L 143.973209 218.88 
L 143.973209 130.176 
" style="fill:#f58a61;"/>
    <path clip-path="url(#pf0626712be)" d="M 150.617302 130.176 
L 157.261395 130.176 
L 157.261395 218.88 
L 150.617302 218.88 
L 150.617302 130.176 
" style="fill:#f58a61;"/>
    <path clip-path="url(#pf0626712be)" d="M 157.261395 130.176 
L 163.905488 130.176 
L 163.905488 218.88 
L 157.261395 218.88 
L 157.261395 130.176 
" style="fill:#f58a61;"/>
    <path clip-path="url(#pf0626712be)" d="M 163.905488 130.176 
L 170.549581 130.176 
L 170.549581 218.88 
L 163.905488 218.88 
L 163.905488 130.176 
" style="fill:#f58a61;"/>
    <path clip-path="url(#pf0626712be)" d="M 170.549581 130.176 
L 177.193674 130.176 
L 177.193674 218.88 
L 170.549581 218.88 
L 170.549581 130.176 
" style="fill:#f58a61;"/>
    <path clip-path="url(#pf0626712be)" d="M 177.193674 130.176 
L 183.837767 130.176 
L 183.837767 218.88 
L 177.193674 218.88 
L 177.193674 130.176 
" style="fill:#f58a61;"/>
    <path clip-path="url(#pf0626712be)" d="M 183.837767 130.176 
L 190.48186 130.176 
L 190.48186 218.88 
L 183.837767 218.88 
L 183.837767 130.176 
" style="fill:#f58a61;"/>
    <path clip-path="url(#pf0626712be)" d="M 190.48186 130.176 
L 197.125953 130.176 
L 197.125953 218.88 
L 190.48186 218.88 
L 190.48186 130.176 
" style="fill:#f58a61;"/>
    <path clip-path="url(#pf0626712be)" d="M 197.125953 130.176 
L 203.770047 130.176 
L 203.770047 218.88 
L 197.125953 218.88 
L 197.125953 130.176 
" style="fill:#f58a61;"/>
    <path clip-path="url(#pf0626712be)" d="M 203.770047 130.176 
L 210.41414 130.176 
L 210.41414 218.88 
L 203.770047 218.88 
L 203.770047 130.176 
" style="fill:#f58a61;"/>
    <path clip-path="url(#pf0626712be)" d="M 210.41414 130.176 
L 217.058233 130.176 
L 217.058233 218.88 
L 210.41414 218.88 
L 210.41414 130.176 
" style="fill:#f58a61;"/>
    <path clip-path="url(#pf0626712be)" d="M 217.058233 130.176 
L 223.702326 130.176 
L 223.702326 218.88 
L 217.058233 218.88 
L 217.058233 130.176 
" style="fill:#f58a61;"/>
    <path clip-path="url(#pf0626712be)" d="M 223.702326 130.176 
L 230.346419 130.176 
L 230.346419 218.88 
L 223.702326 218.88 
L 223.702326 130.176 
" style="fill:#f58a61;"/>
    <path clip-path="url(#pf0626712be)" d="M 230.346419 130.176 
L 236.990512 130.176 
L 236.990512 218.88 
L 230.346419 218.88 
L 230.346419 130.176 
" style="fill:#f58a61;"/>
    <path clip-path="url(#pf0626712be)" d="M 236.990512 130.176 
L 243.634605 130.176 
L 243.634605 218.88 
L 236.990512 218.88 
L 236.990512 130.176 
" style="fill:#f58a61;"/>
    <path clip-path="url(#pf0626712be)" d="M 243.634605 130.176 
L 250.278698 130.176 
L 250.278698 218.88 
L 243.634605 218.88 
L 243.634605 130.176 
" style="fill:#f58a61;"/>
    <path clip-path="url(#pf0626712be)" d="M 250.278698 130.176 
L 256.922791 130.176 
L 256.922791 218.88 
L 250.278698 218.88 
L 250.278698 130.176 
" style="fill:#f58a61;"/>
    <path clip-path="url(#pf0626712be)" d="M 256.922791 130.176 
L 263.566884 130.176 
L 263.566884 218.88 
L 256.922791 218.88 
L 256.922791 130.176 
" style="fill:#f58a61;"/>
    <path clip-path="url(#pf0626712be)" d="M 263.566884 130.176 
L 270.210977 130.176 
L 270.210977 218.88 
L 263.566884 218.88 
L 263.566884 130.176 
" style="fill:#f26948;"/>
    <path clip-path="url(#pf0626712be)" d="M 270.210977 130.176 
L 276.85507 130.176 
L 276.85507 218.88 
L 270.210977 218.88 
L 270.210977 130.176 
" style="fill:#f58a61;"/>
    <path clip-path="url(#pf0626712be)" d="M 276.85507 130.176 
L 283.499163 130.176 
L 283.499163 218.88 
L 276.85507 218.88 
L 276.85507 130.176 
" style="fill:#f58a61;"/>
    <path clip-path="url(#pf0626712be)" d="M 283.499163 130.176 
L 290.143256 130.176 
L 290.143256 218.88 
L 283.499163 218.88 
L 283.499163 130.176 
" style="fill:#f58a61;"/>
    <path clip-path="url(#pf0626712be)" d="M 290.143256 130.176 
L 296.787349 130.176 
L 296.787349 218.88 
L 290.143256 218.88 
L 290.143256 130.176 
" style="fill:#f58a61;"/>
    <path clip-path="url(#pf0626712be)" d="M 296.787349 130.176 
L 303.431442 130.176 
L 303.431442 218.88 
L 296.787349 218.88 
L 296.787349 130.176 
" style="fill:#f58a61;"/>
    <path clip-path="url(#pf0626712be)" d="M 303.431442 130.176 
L 310.075535 130.176 
L 310.075535 218.88 
L 303.431442 218.88 
L 303.431442 130.176 
" style="fill:#f58a61;"/>
    <path clip-path="url(#pf0626712be)" d="M 310.075535 130.176 
L 316.719628 130.176 
L 316.719628 218.88 
L 310.075535 218.88 
L 310.075535 130.176 
" style="fill:#f58a61;"/>
    <path clip-path="url(#pf0626712be)" d="M 316.719628 130.176 
L 323.363721 130.176 
L 323.363721 218.88 
L 316.719628 218.88 
L 316.719628 130.176 
" style="fill:#f58a61;"/>
    <path clip-path="url(#pf0626712be)" d="M 323.363721 130.176 
L 330.007814 130.176 
L 330.007814 218.88 
L 323.363721 218.88 
L 323.363721 130.176 
" style="fill:#f58a61;"/>
    <path clip-path="url(#pf0626712be)" d="M 330.007814 130.176 
L 336.651907 130.176 
L 336.651907 218.88 
L 330.007814 218.88 
L 330.007814 130.176 
" style="fill:#f58a61;"/>
    <path clip-path="url(#pf0626712be)" d="M 336.651907 130.176 
L 343.296 130.176 
L 343.296 218.88 
L 336.651907 218.88 
L 336.651907 130.176 
" style="fill:#f58a61;"/>
    <path clip-path="url(#pf0626712be)" d="M 57.6 218.88 
L 64.244093 218.88 
L 64.244093 307.584 
L 57.6 307.584 
L 57.6 218.88 
" style="fill:#f37852;"/>
    <path clip-path="url(#pf0626712be)" d="M 64.244093 218.88 
L 70.888186 218.88 
L 70.888186 307.584 
L 64.244093 307.584 
L 64.244093 218.88 
" style="fill:#f37450;"/>
    <path clip-path="url(#pf0626712be)" d="M 70.888186 218.88 
L 77.532279 218.88 
L 77.532279 307.584 
L 70.888186 307.584 
L 70.888186 218.88 
" style="fill:#f26d4b;"/>
    <path clip-path="url(#pf0626712be)" d="M 77.532279 218.88 
L 84.176372 218.88 
L 84.176372 307.584 
L 77.532279 307.584 
L 77.532279 218.88 
" style="fill:#f5966c;"/>
    <path clip-path="url(#pf0626712be)" d="M 84.176372 218.88 
L 90.820465 218.88 
L 90.820465 307.584 
L 84.176372 307.584 
L 84.176372 218.88 
" style="fill:#f5966c;"/>
    <path clip-path="url(#pf0626712be)" d="M 90.820465 218.88 
L 97.464558 218.88 
L 97.464558 307.584 
L 90.820465 307.584 
L 90.820465 218.88 
" style="fill:#f5966c;"/>
    <path clip-path="url(#pf0626712be)" d="M 97.464558 218.88 
L 104.108651 218.88 
L 104.108651 307.584 
L 97.464558 307.584 
L 97.464558 218.88 
" style="fill:#f5966c;"/>
    <path clip-path="url(#pf0626712be)" d="M 104.108651 218.88 
L 110.752744 218.88 
L 110.752744 307.584 
L 104.108651 307.584 
L 104.108651 218.88 
" style="fill:#f5966c;"/>
    <path clip-path="url(#pf0626712be)" d="M 110.752744 218.88 
L 117.396837 218.88 
L 117.396837 307.584 
L 110.752744 307.584 
L 110.752744 218.88 
" style="fill:#f5966c;"/>
    <path clip-path="url(#pf0626712be)" d="M 117.396837 218.88 
L 124.04093 218.88 
L 124.04093 307.584 
L 117.396837 307.584 
L 117.396837 218.88 
" style="fill:#f5966c;"/>
    <path clip-path="url(#pf0626712be)" d="M 124.04093 218.88 
L 130.685023 218.88 
L 130.685023 307.584 
L 124.04093 307.584 
L 124.04093 218.88 
" style="fill:#f5966c;"/>
    <path clip-path="url(#pf0626712be)" d="M 130.685023 218.88 
L 137.329116 218.88 
L 137.329116 307.584 
L 130.685023 307.584 
L 130.685023 218.88 
" style="fill:#f37651;"/>
    <path clip-path="url(#pf0626712be)" d="M 137.329116 218.88 
L 143.973209 218.88 
L 143.973209 307.584 
L 137.329116 307.584 
L 137.329116 218.88 
" style="fill:#f5966c;"/>
    <path clip-path="url(#pf0626712be)" d="M 143.973209 218.88 
L 150.617302 218.88 
L 150.617302 307.584 
L 143.973209 307.584 
L 143.973209 218.88 
" style="fill:#f5966c;"/>
    <path clip-path="url(#pf0626712be)" d="M 150.617302 218.88 
L 157.261395 218.88 
L 157.261395 307.584 
L 150.617302 307.584 
L 150.617302 218.88 
" style="fill:#f5966c;"/>
    <path clip-path="url(#pf0626712be)" d="M 157.261395 218.88 
L 163.905488 218.88 
L 163.905488 307.584 
L 157.261395 307.584 
L 157.261395 218.88 
" style="fill:#f5966c;"/>
    <path clip-path="url(#pf0626712be)" d="M 163.905488 218.88 
L 170.549581 218.88 
L 170.549581 307.584 
L 163.905488 307.584 
L 163.905488 218.88 
" style="fill:#f5946b;"/>
    <path clip-path="url(#pf0626712be)" d="M 170.549581 218.88 
L 177.193674 218.88 
L 177.193674 307.584 
L 170.549581 307.584 
L 170.549581 218.88 
" style="fill:#f5946b;"/>
    <path clip-path="url(#pf0626712be)" d="M 177.193674 218.88 
L 183.837767 218.88 
L 183.837767 307.584 
L 177.193674 307.584 
L 177.193674 218.88 
" style="fill:#f5946b;"/>
    <path clip-path="url(#pf0626712be)" d="M 183.837767 218.88 
L 190.48186 218.88 
L 190.48186 307.584 
L 183.837767 307.584 
L 183.837767 218.88 
" style="fill:#f5946b;"/>
    <path clip-path="url(#pf0626712be)" d="M 190.48186 218.88 
L 197.125953 218.88 
L 197.125953 307.584 
L 190.48186 307.584 
L 190.48186 218.88 
" style="fill:#f5946b;"/>
    <path clip-path="url(#pf0626712be)" d="M 197.125953 218.88 
L 203.770047 218.88 
L 203.770047 307.584 
L 197.125953 307.584 
L 197.125953 218.88 
" style="fill:#f5946b;"/>
    <path clip-path="url(#pf0626712be)" d="M 203.770047 218.88 
L 210.41414 218.88 
L 210.41414 307.584 
L 203.770047 307.584 
L 203.770047 218.88 
" style="fill:#f5946b;"/>
    <path clip-path="url(#pf0626712be)" d="M 210.41414 218.88 
L 217.058233 218.88 
L 217.058233 307.584 
L 210.41414 307.584 
L 210.41414 218.88 
" style="fill:#f5946b;"/>
    <path clip-path="url(#pf0626712be)" d="M 217.058233 218.88 
L 223.702326 218.88 
L 223.702326 307.584 
L 217.058233 307.584 
L 217.058233 218.88 
" style="fill:#f5946b;"/>
    <path clip-path="url(#pf0626712be)" d="M 223.702326 218.88 
L 230.346419 218.88 
L 230.346419 307.584 
L 223.702326 307.584 
L 223.702326 218.88 
" style="fill:#f5946b;"/>
    <path clip-path="url(#pf0626712be)" d="M 230.346419 218.88 
L 236.990512 218.88 
L 236.990512 307.584 
L 230.346419 307.584 
L 230.346419 218.88 
" style="fill:#f5946b;"/>
    <path clip-path="url(#pf0626712be)" d="M 236.990512 218.88 
L 243.634605 218.88 
L 243.634605 307.584 
L 236.990512 307.584 
L 236.990512 218.88 
" style="fill:#f5946b;"/>
    <path clip-path="url(#pf0626712be)" d="M 243.634605 218.88 
L 250.278698 218.88 
L 250.278698 307.584 
L 243.634605 307.584 
L 243.634605 218.88 
" style="fill:#f5946b;"/>
    <path clip-path="url(#pf0626712be)" d="M 250.278698 218.88 
L 256.922791 218.88 
L 256.922791 307.584 
L 250.278698 307.584 
L 250.278698 218.88 
" style="fill:#f5946b;"/>
    <path clip-path="url(#pf0626712be)" d="M 256.922791 218.88 
L 263.566884 218.88 
L 263.566884 307.584 
L 256.922791 307.584 
L 256.922791 218.88 
" style="fill:#f5946b;"/>
    <path clip-path="url(#pf0626712be)" d="M 263.566884 218.88 
L 270.210977 218.88 
L 270.210977 307.584 
L 263.566884 307.584 
L 263.566884 218.88 
" style="fill:#f37651;"/>
    <path clip-path="url(#pf0626712be)" d="M 270.210977 218.88 
L 276.85507 218.88 
L 276.85507 307.584 
L 270.210977 307.584 
L 270.210977 218.88 
" style="fill:#f5946b;"/>
    <path clip-path="url(#pf0626712be)" d="M 276.85507 218.88 
L 283.499163 218.88 
L 283.499163 307.584 
L 276.85507 307.584 
L 276.85507 218.88 
" style="fill:#f5946b;"/>
    <path clip-path="url(#pf0626712be)" d="M 283.499163 218.88 
L 290.143256 218.88 
L 290.143256 307.584 
L 283.499163 307.584 
L 283.499163 218.88 
" style="fill:#f5966c;"/>
    <path clip-path="url(#pf0626712be)" d="M 290.143256 218.88 
L 296.787349 218.88 
L 296.787349 307.584 
L 290.143256 307.584 
L 290.143256 218.88 
" style="fill:#f5966c;"/>
    <path clip-path="url(#pf0626712be)" d="M 296.787349 218.88 
L 303.431442 218.88 
L 303.431442 307.584 
L 296.787349 307.584 
L 296.787349 218.88 
" style="fill:#f5966c;"/>
    <path clip-path="url(#pf0626712be)" d="M 303.431442 218.88 
L 310.075535 218.88 
L 310.075535 307.584 
L 303.431442 307.584 
L 303.431442 218.88 
" style="fill:#f5966c;"/>
    <path clip-path="url(#pf0626712be)" d="M 310.075535 218.88 
L 316.719628 218.88 
L 316.719628 307.584 
L 310.075535 307.584 
L 310.075535 218.88 
" style="fill:#f5966c;"/>
    <path clip-path="url(#pf0626712be)" d="M 316.719628 218.88 
L 323.363721 218.88 
L 323.363721 307.584 
L 316.719628 307.584 
L 316.719628 218.88 
" style="fill:#f5966c;"/>
    <path clip-path="url(#pf0626712be)" d="M 323.363721 218.88 
L 330.007814 218.88 
L 330.007814 307.584 
L 323.363721 307.584 
L 323.363721 218.88 
" style="fill:#f5966c;"/>
    <path clip-path="url(#pf0626712be)" d="M 330.007814 218.88 
L 336.651907 218.88 
L 336.651907 307.584 
L 330.007814 307.584 
L 330.007814 218.88 
" style="fill:#f5966c;"/>
    <path clip-path="url(#pf0626712be)" d="M 336.651907 218.88 
L 343.296 218.88 
L 343.296 307.584 
L 336.651907 307.584 
L 336.651907 218.88 
" style="fill:#f5966c;"/>
   </g>
   <g id="matplotlib.axis_1">
    <g id="xtick_1">
     <g id="line2d_1">
      <defs>
       <path d="M 0 0 
L 0 3.5 
" id="mc41d132aa2" style="stroke:#000000;stroke-width:0.8;"/>
      </defs>
      <g>
       <use style="stroke:#000000;stroke-width:0.8;" x="60.922047" xlink:href="#mc41d132aa2" y="307.584"/>
      </g>
     </g>
     <g id="text_1">
      <!-- 0 -->
      <defs>
       <path d="M 31.78125 66.40625 
Q 24.171875 66.40625 20.328125 58.90625 
Q 16.5 51.421875 16.5 36.375 
Q 16.5 21.390625 20.328125 13.890625 
Q 24.171875 6.390625 31.78125 6.390625 
Q 39.453125 6.390625 43.28125 13.890625 
Q 47.125 21.390625 47.125 36.375 
Q 47.125 51.421875 43.28125 58.90625 
Q 39.453125 66.40625 31.78125 66.40625 
z
M 31.78125 74.21875 
Q 44.046875 74.21875 50.515625 64.515625 
Q 56.984375 54.828125 56.984375 36.375 
Q 56.984375 17.96875 50.515625 8.265625 
Q 44.046875 -1.421875 31.78125 -1.421875 
Q 19.53125 -1.421875 13.0625 8.265625 
Q 6.59375 17.96875 6.59375 36.375 
Q 6.59375 54.828125 13.0625 64.515625 
Q 19.53125 74.21875 31.78125 74.21875 
z
" id="DejaVuSans-30"/>
      </defs>
      <g transform="translate(57.740797 322.182437)scale(0.1 -0.1)">
       <use xlink:href="#DejaVuSans-30"/>
      </g>
     </g>
    </g>
    <g id="xtick_2">
     <g id="line2d_2">
      <g>
       <use style="stroke:#000000;stroke-width:0.8;" x="74.210233" xlink:href="#mc41d132aa2" y="307.584"/>
      </g>
     </g>
     <g id="text_2">
      <!-- 2 -->
      <defs>
       <path d="M 19.1875 8.296875 
L 53.609375 8.296875 
L 53.609375 0 
L 7.328125 0 
L 7.328125 8.296875 
Q 12.9375 14.109375 22.625 23.890625 
Q 32.328125 33.6875 34.8125 36.53125 
Q 39.546875 41.84375 41.421875 45.53125 
Q 43.3125 49.21875 43.3125 52.78125 
Q 43.3125 58.59375 39.234375 62.25 
Q 35.15625 65.921875 28.609375 65.921875 
Q 23.96875 65.921875 18.8125 64.3125 
Q 13.671875 62.703125 7.8125 59.421875 
L 7.8125 69.390625 
Q 13.765625 71.78125 18.9375 73 
Q 24.125 74.21875 28.421875 74.21875 
Q 39.75 74.21875 46.484375 68.546875 
Q 53.21875 62.890625 53.21875 53.421875 
Q 53.21875 48.921875 51.53125 44.890625 
Q 49.859375 40.875 45.40625 35.40625 
Q 44.1875 33.984375 37.640625 27.21875 
Q 31.109375 20.453125 19.1875 8.296875 
z
" id="DejaVuSans-32"/>
      </defs>
      <g transform="translate(71.028983 322.182437)scale(0.1 -0.1)">
       <use xlink:href="#DejaVuSans-32"/>
      </g>
     </g>
    </g>
    <g id="xtick_3">
     <g id="line2d_3">
      <g>
       <use style="stroke:#000000;stroke-width:0.8;" x="87.498419" xlink:href="#mc41d132aa2" y="307.584"/>
      </g>
     </g>
     <g id="text_3">
      <!-- 4 -->
      <defs>
       <path d="M 37.796875 64.3125 
L 12.890625 25.390625 
L 37.796875 25.390625 
z
M 35.203125 72.90625 
L 47.609375 72.90625 
L 47.609375 25.390625 
L 58.015625 25.390625 
L 58.015625 17.1875 
L 47.609375 17.1875 
L 47.609375 0 
L 37.796875 0 
L 37.796875 17.1875 
L 4.890625 17.1875 
L 4.890625 26.703125 
z
" id="DejaVuSans-34"/>
      </defs>
      <g transform="translate(84.317169 322.182437)scale(0.1 -0.1)">
       <use xlink:href="#DejaVuSans-34"/>
      </g>
     </g>
    </g>
    <g id="xtick_4">
     <g id="line2d_4">
      <g>
       <use style="stroke:#000000;stroke-width:0.8;" x="100.786605" xlink:href="#mc41d132aa2" y="307.584"/>
      </g>
     </g>
     <g id="text_4">
      <!-- 6 -->
      <defs>
       <path d="M 33.015625 40.375 
Q 26.375 40.375 22.484375 35.828125 
Q 18.609375 31.296875 18.609375 23.390625 
Q 18.609375 15.53125 22.484375 10.953125 
Q 26.375 6.390625 33.015625 6.390625 
Q 39.65625 6.390625 43.53125 10.953125 
Q 47.40625 15.53125 47.40625 23.390625 
Q 47.40625 31.296875 43.53125 35.828125 
Q 39.65625 40.375 33.015625 40.375 
z
M 52.59375 71.296875 
L 52.59375 62.3125 
Q 48.875 64.0625 45.09375 64.984375 
Q 41.3125 65.921875 37.59375 65.921875 
Q 27.828125 65.921875 22.671875 59.328125 
Q 17.53125 52.734375 16.796875 39.40625 
Q 19.671875 43.65625 24.015625 45.921875 
Q 28.375 48.1875 33.59375 48.1875 
Q 44.578125 48.1875 50.953125 41.515625 
Q 57.328125 34.859375 57.328125 23.390625 
Q 57.328125 12.15625 50.6875 5.359375 
Q 44.046875 -1.421875 33.015625 -1.421875 
Q 20.359375 -1.421875 13.671875 8.265625 
Q 6.984375 17.96875 6.984375 36.375 
Q 6.984375 53.65625 15.1875 63.9375 
Q 23.390625 74.21875 37.203125 74.21875 
Q 40.921875 74.21875 44.703125 73.484375 
Q 48.484375 72.75 52.59375 71.296875 
z
" id="DejaVuSans-36"/>
      </defs>
      <g transform="translate(97.605355 322.182437)scale(0.1 -0.1)">
       <use xlink:href="#DejaVuSans-36"/>
      </g>
     </g>
    </g>
    <g id="xtick_5">
     <g id="line2d_5">
      <g>
       <use style="stroke:#000000;stroke-width:0.8;" x="114.074791" xlink:href="#mc41d132aa2" y="307.584"/>
      </g>
     </g>
     <g id="text_5">
      <!-- 8 -->
      <defs>
       <path d="M 31.78125 34.625 
Q 24.75 34.625 20.71875 30.859375 
Q 16.703125 27.09375 16.703125 20.515625 
Q 16.703125 13.921875 20.71875 10.15625 
Q 24.75 6.390625 31.78125 6.390625 
Q 38.8125 6.390625 42.859375 10.171875 
Q 46.921875 13.96875 46.921875 20.515625 
Q 46.921875 27.09375 42.890625 30.859375 
Q 38.875 34.625 31.78125 34.625 
z
M 21.921875 38.8125 
Q 15.578125 40.375 12.03125 44.71875 
Q 8.5 49.078125 8.5 55.328125 
Q 8.5 64.0625 14.71875 69.140625 
Q 20.953125 74.21875 31.78125 74.21875 
Q 42.671875 74.21875 48.875 69.140625 
Q 55.078125 64.0625 55.078125 55.328125 
Q 55.078125 49.078125 51.53125 44.71875 
Q 48 40.375 41.703125 38.8125 
Q 48.828125 37.15625 52.796875 32.3125 
Q 56.78125 27.484375 56.78125 20.515625 
Q 56.78125 9.90625 50.3125 4.234375 
Q 43.84375 -1.421875 31.78125 -1.421875 
Q 19.734375 -1.421875 13.25 4.234375 
Q 6.78125 9.90625 6.78125 20.515625 
Q 6.78125 27.484375 10.78125 32.3125 
Q 14.796875 37.15625 21.921875 38.8125 
z
M 18.3125 54.390625 
Q 18.3125 48.734375 21.84375 45.5625 
Q 25.390625 42.390625 31.78125 42.390625 
Q 38.140625 42.390625 41.71875 45.5625 
Q 45.3125 48.734375 45.3125 54.390625 
Q 45.3125 60.0625 41.71875 63.234375 
Q 38.140625 66.40625 31.78125 66.40625 
Q 25.390625 66.40625 21.84375 63.234375 
Q 18.3125 60.0625 18.3125 54.390625 
z
" id="DejaVuSans-38"/>
      </defs>
      <g transform="translate(110.893541 322.182437)scale(0.1 -0.1)">
       <use xlink:href="#DejaVuSans-38"/>
      </g>
     </g>
    </g>
    <g id="xtick_6">
     <g id="line2d_6">
      <g>
       <use style="stroke:#000000;stroke-width:0.8;" x="127.362977" xlink:href="#mc41d132aa2" y="307.584"/>
      </g>
     </g>
     <g id="text_6">
      <!-- 10 -->
      <defs>
       <path d="M 12.40625 8.296875 
L 28.515625 8.296875 
L 28.515625 63.921875 
L 10.984375 60.40625 
L 10.984375 69.390625 
L 28.421875 72.90625 
L 38.28125 72.90625 
L 38.28125 8.296875 
L 54.390625 8.296875 
L 54.390625 0 
L 12.40625 0 
z
" id="DejaVuSans-31"/>
      </defs>
      <g transform="translate(121.000477 322.182437)scale(0.1 -0.1)">
       <use xlink:href="#DejaVuSans-31"/>
       <use x="63.623047" xlink:href="#DejaVuSans-30"/>
      </g>
     </g>
    </g>
    <g id="xtick_7">
     <g id="line2d_7">
      <g>
       <use style="stroke:#000000;stroke-width:0.8;" x="140.651163" xlink:href="#mc41d132aa2" y="307.584"/>
      </g>
     </g>
     <g id="text_7">
      <!-- 12 -->
      <g transform="translate(134.288663 322.182437)scale(0.1 -0.1)">
       <use xlink:href="#DejaVuSans-31"/>
       <use x="63.623047" xlink:href="#DejaVuSans-32"/>
      </g>
     </g>
    </g>
    <g id="xtick_8">
     <g id="line2d_8">
      <g>
       <use style="stroke:#000000;stroke-width:0.8;" x="153.939349" xlink:href="#mc41d132aa2" y="307.584"/>
      </g>
     </g>
     <g id="text_8">
      <!-- 14 -->
      <g transform="translate(147.576849 322.182437)scale(0.1 -0.1)">
       <use xlink:href="#DejaVuSans-31"/>
       <use x="63.623047" xlink:href="#DejaVuSans-34"/>
      </g>
     </g>
    </g>
    <g id="xtick_9">
     <g id="line2d_9">
      <g>
       <use style="stroke:#000000;stroke-width:0.8;" x="167.227535" xlink:href="#mc41d132aa2" y="307.584"/>
      </g>
     </g>
     <g id="text_9">
      <!-- 16 -->
      <g transform="translate(160.865035 322.182437)scale(0.1 -0.1)">
       <use xlink:href="#DejaVuSans-31"/>
       <use x="63.623047" xlink:href="#DejaVuSans-36"/>
      </g>
     </g>
    </g>
    <g id="xtick_10">
     <g id="line2d_10">
      <g>
       <use style="stroke:#000000;stroke-width:0.8;" x="180.515721" xlink:href="#mc41d132aa2" y="307.584"/>
      </g>
     </g>
     <g id="text_10">
      <!-- 18 -->
      <g transform="translate(174.153221 322.182437)scale(0.1 -0.1)">
       <use xlink:href="#DejaVuSans-31"/>
       <use x="63.623047" xlink:href="#DejaVuSans-38"/>
      </g>
     </g>
    </g>
    <g id="xtick_11">
     <g id="line2d_11">
      <g>
       <use style="stroke:#000000;stroke-width:0.8;" x="193.803907" xlink:href="#mc41d132aa2" y="307.584"/>
      </g>
     </g>
     <g id="text_11">
      <!-- 20 -->
      <g transform="translate(187.441407 322.182437)scale(0.1 -0.1)">
       <use xlink:href="#DejaVuSans-32"/>
       <use x="63.623047" xlink:href="#DejaVuSans-30"/>
      </g>
     </g>
    </g>
    <g id="xtick_12">
     <g id="line2d_12">
      <g>
       <use style="stroke:#000000;stroke-width:0.8;" x="207.092093" xlink:href="#mc41d132aa2" y="307.584"/>
      </g>
     </g>
     <g id="text_12">
      <!-- 22 -->
      <g transform="translate(200.729593 322.182437)scale(0.1 -0.1)">
       <use xlink:href="#DejaVuSans-32"/>
       <use x="63.623047" xlink:href="#DejaVuSans-32"/>
      </g>
     </g>
    </g>
    <g id="xtick_13">
     <g id="line2d_13">
      <g>
       <use style="stroke:#000000;stroke-width:0.8;" x="220.380279" xlink:href="#mc41d132aa2" y="307.584"/>
      </g>
     </g>
     <g id="text_13">
      <!-- 24 -->
      <g transform="translate(214.017779 322.182437)scale(0.1 -0.1)">
       <use xlink:href="#DejaVuSans-32"/>
       <use x="63.623047" xlink:href="#DejaVuSans-34"/>
      </g>
     </g>
    </g>
    <g id="xtick_14">
     <g id="line2d_14">
      <g>
       <use style="stroke:#000000;stroke-width:0.8;" x="233.668465" xlink:href="#mc41d132aa2" y="307.584"/>
      </g>
     </g>
     <g id="text_14">
      <!-- 26 -->
      <g transform="translate(227.305965 322.182437)scale(0.1 -0.1)">
       <use xlink:href="#DejaVuSans-32"/>
       <use x="63.623047" xlink:href="#DejaVuSans-36"/>
      </g>
     </g>
    </g>
    <g id="xtick_15">
     <g id="line2d_15">
      <g>
       <use style="stroke:#000000;stroke-width:0.8;" x="246.956651" xlink:href="#mc41d132aa2" y="307.584"/>
      </g>
     </g>
     <g id="text_15">
      <!-- 28 -->
      <g transform="translate(240.594151 322.182437)scale(0.1 -0.1)">
       <use xlink:href="#DejaVuSans-32"/>
       <use x="63.623047" xlink:href="#DejaVuSans-38"/>
      </g>
     </g>
    </g>
    <g id="xtick_16">
     <g id="line2d_16">
      <g>
       <use style="stroke:#000000;stroke-width:0.8;" x="260.244837" xlink:href="#mc41d132aa2" y="307.584"/>
      </g>
     </g>
     <g id="text_16">
      <!-- 30 -->
      <defs>
       <path d="M 40.578125 39.3125 
Q 47.65625 37.796875 51.625 33 
Q 55.609375 28.21875 55.609375 21.1875 
Q 55.609375 10.40625 48.1875 4.484375 
Q 40.765625 -1.421875 27.09375 -1.421875 
Q 22.515625 -1.421875 17.65625 -0.515625 
Q 12.796875 0.390625 7.625 2.203125 
L 7.625 11.71875 
Q 11.71875 9.328125 16.59375 8.109375 
Q 21.484375 6.890625 26.8125 6.890625 
Q 36.078125 6.890625 40.9375 10.546875 
Q 45.796875 14.203125 45.796875 21.1875 
Q 45.796875 27.640625 41.28125 31.265625 
Q 36.765625 34.90625 28.71875 34.90625 
L 20.21875 34.90625 
L 20.21875 43.015625 
L 29.109375 43.015625 
Q 36.375 43.015625 40.234375 45.921875 
Q 44.09375 48.828125 44.09375 54.296875 
Q 44.09375 59.90625 40.109375 62.90625 
Q 36.140625 65.921875 28.71875 65.921875 
Q 24.65625 65.921875 20.015625 65.03125 
Q 15.375 64.15625 9.8125 62.3125 
L 9.8125 71.09375 
Q 15.4375 72.65625 20.34375 73.4375 
Q 25.25 74.21875 29.59375 74.21875 
Q 40.828125 74.21875 47.359375 69.109375 
Q 53.90625 64.015625 53.90625 55.328125 
Q 53.90625 49.265625 50.4375 45.09375 
Q 46.96875 40.921875 40.578125 39.3125 
z
" id="DejaVuSans-33"/>
      </defs>
      <g transform="translate(253.882337 322.182437)scale(0.1 -0.1)">
       <use xlink:href="#DejaVuSans-33"/>
       <use x="63.623047" xlink:href="#DejaVuSans-30"/>
      </g>
     </g>
    </g>
    <g id="xtick_17">
     <g id="line2d_17">
      <g>
       <use style="stroke:#000000;stroke-width:0.8;" x="273.533023" xlink:href="#mc41d132aa2" y="307.584"/>
      </g>
     </g>
     <g id="text_17">
      <!-- 32 -->
      <g transform="translate(267.170523 322.182437)scale(0.1 -0.1)">
       <use xlink:href="#DejaVuSans-33"/>
       <use x="63.623047" xlink:href="#DejaVuSans-32"/>
      </g>
     </g>
    </g>
    <g id="xtick_18">
     <g id="line2d_18">
      <g>
       <use style="stroke:#000000;stroke-width:0.8;" x="286.821209" xlink:href="#mc41d132aa2" y="307.584"/>
      </g>
     </g>
     <g id="text_18">
      <!-- 34 -->
      <g transform="translate(280.458709 322.182437)scale(0.1 -0.1)">
       <use xlink:href="#DejaVuSans-33"/>
       <use x="63.623047" xlink:href="#DejaVuSans-34"/>
      </g>
     </g>
    </g>
    <g id="xtick_19">
     <g id="line2d_19">
      <g>
       <use style="stroke:#000000;stroke-width:0.8;" x="300.109395" xlink:href="#mc41d132aa2" y="307.584"/>
      </g>
     </g>
     <g id="text_19">
      <!-- 36 -->
      <g transform="translate(293.746895 322.182437)scale(0.1 -0.1)">
       <use xlink:href="#DejaVuSans-33"/>
       <use x="63.623047" xlink:href="#DejaVuSans-36"/>
      </g>
     </g>
    </g>
    <g id="xtick_20">
     <g id="line2d_20">
      <g>
       <use style="stroke:#000000;stroke-width:0.8;" x="313.397581" xlink:href="#mc41d132aa2" y="307.584"/>
      </g>
     </g>
     <g id="text_20">
      <!-- 38 -->
      <g transform="translate(307.035081 322.182437)scale(0.1 -0.1)">
       <use xlink:href="#DejaVuSans-33"/>
       <use x="63.623047" xlink:href="#DejaVuSans-38"/>
      </g>
     </g>
    </g>
    <g id="xtick_21">
     <g id="line2d_21">
      <g>
       <use style="stroke:#000000;stroke-width:0.8;" x="326.685767" xlink:href="#mc41d132aa2" y="307.584"/>
      </g>
     </g>
     <g id="text_21">
      <!-- 40 -->
      <g transform="translate(320.323267 322.182437)scale(0.1 -0.1)">
       <use xlink:href="#DejaVuSans-34"/>
       <use x="63.623047" xlink:href="#DejaVuSans-30"/>
      </g>
     </g>
    </g>
    <g id="xtick_22">
     <g id="line2d_22">
      <g>
       <use style="stroke:#000000;stroke-width:0.8;" x="339.973953" xlink:href="#mc41d132aa2" y="307.584"/>
      </g>
     </g>
     <g id="text_22">
      <!-- 42 -->
      <g transform="translate(333.611453 322.182437)scale(0.1 -0.1)">
       <use xlink:href="#DejaVuSans-34"/>
       <use x="63.623047" xlink:href="#DejaVuSans-32"/>
      </g>
     </g>
    </g>
    <g id="text_23">
     <!-- outliers -->
     <defs>
      <path d="M 30.609375 48.390625 
Q 23.390625 48.390625 19.1875 42.75 
Q 14.984375 37.109375 14.984375 27.296875 
Q 14.984375 17.484375 19.15625 11.84375 
Q 23.34375 6.203125 30.609375 6.203125 
Q 37.796875 6.203125 41.984375 11.859375 
Q 46.1875 17.53125 46.1875 27.296875 
Q 46.1875 37.015625 41.984375 42.703125 
Q 37.796875 48.390625 30.609375 48.390625 
z
M 30.609375 56 
Q 42.328125 56 49.015625 48.375 
Q 55.71875 40.765625 55.71875 27.296875 
Q 55.71875 13.875 49.015625 6.21875 
Q 42.328125 -1.421875 30.609375 -1.421875 
Q 18.84375 -1.421875 12.171875 6.21875 
Q 5.515625 13.875 5.515625 27.296875 
Q 5.515625 40.765625 12.171875 48.375 
Q 18.84375 56 30.609375 56 
z
" id="DejaVuSans-6f"/>
      <path d="M 8.5 21.578125 
L 8.5 54.6875 
L 17.484375 54.6875 
L 17.484375 21.921875 
Q 17.484375 14.15625 20.5 10.265625 
Q 23.53125 6.390625 29.59375 6.390625 
Q 36.859375 6.390625 41.078125 11.03125 
Q 45.3125 15.671875 45.3125 23.6875 
L 45.3125 54.6875 
L 54.296875 54.6875 
L 54.296875 0 
L 45.3125 0 
L 45.3125 8.40625 
Q 42.046875 3.421875 37.71875 1 
Q 33.40625 -1.421875 27.6875 -1.421875 
Q 18.265625 -1.421875 13.375 4.4375 
Q 8.5 10.296875 8.5 21.578125 
z
M 31.109375 56 
z
" id="DejaVuSans-75"/>
      <path d="M 18.3125 70.21875 
L 18.3125 54.6875 
L 36.8125 54.6875 
L 36.8125 47.703125 
L 18.3125 47.703125 
L 18.3125 18.015625 
Q 18.3125 11.328125 20.140625 9.421875 
Q 21.96875 7.515625 27.59375 7.515625 
L 36.8125 7.515625 
L 36.8125 0 
L 27.59375 0 
Q 17.1875 0 13.234375 3.875 
Q 9.28125 7.765625 9.28125 18.015625 
L 9.28125 47.703125 
L 2.6875 47.703125 
L 2.6875 54.6875 
L 9.28125 54.6875 
L 9.28125 70.21875 
z
" id="DejaVuSans-74"/>
      <path d="M 9.421875 75.984375 
L 18.40625 75.984375 
L 18.40625 0 
L 9.421875 0 
z
" id="DejaVuSans-6c"/>
      <path d="M 9.421875 54.6875 
L 18.40625 54.6875 
L 18.40625 0 
L 9.421875 0 
z
M 9.421875 75.984375 
L 18.40625 75.984375 
L 18.40625 64.59375 
L 9.421875 64.59375 
z
" id="DejaVuSans-69"/>
      <path d="M 56.203125 29.59375 
L 56.203125 25.203125 
L 14.890625 25.203125 
Q 15.484375 15.921875 20.484375 11.0625 
Q 25.484375 6.203125 34.421875 6.203125 
Q 39.59375 6.203125 44.453125 7.46875 
Q 49.3125 8.734375 54.109375 11.28125 
L 54.109375 2.78125 
Q 49.265625 0.734375 44.1875 -0.34375 
Q 39.109375 -1.421875 33.890625 -1.421875 
Q 20.796875 -1.421875 13.15625 6.1875 
Q 5.515625 13.8125 5.515625 26.8125 
Q 5.515625 40.234375 12.765625 48.109375 
Q 20.015625 56 32.328125 56 
Q 43.359375 56 49.78125 48.890625 
Q 56.203125 41.796875 56.203125 29.59375 
z
M 47.21875 32.234375 
Q 47.125 39.59375 43.09375 43.984375 
Q 39.0625 48.390625 32.421875 48.390625 
Q 24.90625 48.390625 20.390625 44.140625 
Q 15.875 39.890625 15.1875 32.171875 
z
" id="DejaVuSans-65"/>
      <path d="M 41.109375 46.296875 
Q 39.59375 47.171875 37.8125 47.578125 
Q 36.03125 48 33.890625 48 
Q 26.265625 48 22.1875 43.046875 
Q 18.109375 38.09375 18.109375 28.8125 
L 18.109375 0 
L 9.078125 0 
L 9.078125 54.6875 
L 18.109375 54.6875 
L 18.109375 46.1875 
Q 20.953125 51.171875 25.484375 53.578125 
Q 30.03125 56 36.53125 56 
Q 37.453125 56 38.578125 55.875 
Q 39.703125 55.765625 41.0625 55.515625 
z
" id="DejaVuSans-72"/>
      <path d="M 44.28125 53.078125 
L 44.28125 44.578125 
Q 40.484375 46.53125 36.375 47.5 
Q 32.28125 48.484375 27.875 48.484375 
Q 21.1875 48.484375 17.84375 46.4375 
Q 14.5 44.390625 14.5 40.28125 
Q 14.5 37.15625 16.890625 35.375 
Q 19.28125 33.59375 26.515625 31.984375 
L 29.59375 31.296875 
Q 39.15625 29.25 43.1875 25.515625 
Q 47.21875 21.78125 47.21875 15.09375 
Q 47.21875 7.46875 41.1875 3.015625 
Q 35.15625 -1.421875 24.609375 -1.421875 
Q 20.21875 -1.421875 15.453125 -0.5625 
Q 10.6875 0.296875 5.421875 2 
L 5.421875 11.28125 
Q 10.40625 8.6875 15.234375 7.390625 
Q 20.0625 6.109375 24.8125 6.109375 
Q 31.15625 6.109375 34.5625 8.28125 
Q 37.984375 10.453125 37.984375 14.40625 
Q 37.984375 18.0625 35.515625 20.015625 
Q 33.0625 21.96875 24.703125 23.78125 
L 21.578125 24.515625 
Q 13.234375 26.265625 9.515625 29.90625 
Q 5.8125 33.546875 5.8125 39.890625 
Q 5.8125 47.609375 11.28125 51.796875 
Q 16.75 56 26.8125 56 
Q 31.78125 56 36.171875 55.265625 
Q 40.578125 54.546875 44.28125 53.078125 
z
" id="DejaVuSans-73"/>
     </defs>
     <g transform="translate(181.744875 335.860562)scale(0.1 -0.1)">
      <use xlink:href="#DejaVuSans-6f"/>
      <use x="61.181641" xlink:href="#DejaVuSans-75"/>
      <use x="124.560547" xlink:href="#DejaVuSans-74"/>
      <use x="163.769531" xlink:href="#DejaVuSans-6c"/>
      <use x="191.552734" xlink:href="#DejaVuSans-69"/>
      <use x="219.335938" xlink:href="#DejaVuSans-65"/>
      <use x="280.859375" xlink:href="#DejaVuSans-72"/>
      <use x="321.972656" xlink:href="#DejaVuSans-73"/>
     </g>
    </g>
   </g>
   <g id="matplotlib.axis_2">
    <g id="ytick_1">
     <g id="line2d_23">
      <defs>
       <path d="M 0 0 
L -3.5 0 
" id="m7ea359dde3" style="stroke:#000000;stroke-width:0.8;"/>
      </defs>
      <g>
       <use style="stroke:#000000;stroke-width:0.8;" x="57.6" xlink:href="#m7ea359dde3" y="85.824"/>
      </g>
     </g>
     <g id="text_24">
      <!-- 10 -->
      <g transform="translate(48.520313 94.749781)rotate(-90)scale(0.1 -0.1)">
       <use xlink:href="#DejaVuSans-31"/>
       <use x="63.623047" xlink:href="#DejaVuSans-30"/>
      </g>
     </g>
    </g>
    <g id="ytick_2">
     <g id="line2d_24">
      <g>
       <use style="stroke:#000000;stroke-width:0.8;" x="57.6" xlink:href="#m7ea359dde3" y="174.528"/>
      </g>
     </g>
     <g id="text_25">
      <!-- 12 -->
      <g transform="translate(48.520313 183.453781)rotate(-90)scale(0.1 -0.1)">
       <use xlink:href="#DejaVuSans-31"/>
       <use x="63.623047" xlink:href="#DejaVuSans-32"/>
      </g>
     </g>
    </g>
    <g id="ytick_3">
     <g id="line2d_25">
      <g>
       <use style="stroke:#000000;stroke-width:0.8;" x="57.6" xlink:href="#m7ea359dde3" y="263.232"/>
      </g>
     </g>
     <g id="text_26">
      <!-- 13 -->
      <g transform="translate(48.520313 272.157781)rotate(-90)scale(0.1 -0.1)">
       <use xlink:href="#DejaVuSans-31"/>
       <use x="63.623047" xlink:href="#DejaVuSans-33"/>
      </g>
     </g>
    </g>
    <g id="text_27">
     <!-- sensors -->
     <defs>
      <path d="M 54.890625 33.015625 
L 54.890625 0 
L 45.90625 0 
L 45.90625 32.71875 
Q 45.90625 40.484375 42.875 44.328125 
Q 39.84375 48.1875 33.796875 48.1875 
Q 26.515625 48.1875 22.3125 43.546875 
Q 18.109375 38.921875 18.109375 30.90625 
L 18.109375 0 
L 9.078125 0 
L 9.078125 54.6875 
L 18.109375 54.6875 
L 18.109375 46.1875 
Q 21.34375 51.125 25.703125 53.5625 
Q 30.078125 56 35.796875 56 
Q 45.21875 56 50.046875 50.171875 
Q 54.890625 44.34375 54.890625 33.015625 
z
" id="DejaVuSans-6e"/>
     </defs>
     <g transform="translate(34.842187 193.702219)rotate(-90)scale(0.1 -0.1)">
      <use xlink:href="#DejaVuSans-73"/>
      <use x="52.099609" xlink:href="#DejaVuSans-65"/>
      <use x="113.623047" xlink:href="#DejaVuSans-6e"/>
      <use x="177.001953" xlink:href="#DejaVuSans-73"/>
      <use x="229.101562" xlink:href="#DejaVuSans-6f"/>
      <use x="290.283203" xlink:href="#DejaVuSans-72"/>
      <use x="331.396484" xlink:href="#DejaVuSans-73"/>
     </g>
    </g>
   </g>
   <g id="text_28">
    <!-- Angle difference between source 11 and neighbours [10, 12, 13] -->
    <defs>
     <path d="M 34.1875 63.1875 
L 20.796875 26.90625 
L 47.609375 26.90625 
z
M 28.609375 72.90625 
L 39.796875 72.90625 
L 67.578125 0 
L 57.328125 0 
L 50.6875 18.703125 
L 17.828125 18.703125 
L 11.1875 0 
L 0.78125 0 
z
" id="DejaVuSans-41"/>
     <path d="M 45.40625 27.984375 
Q 45.40625 37.75 41.375 43.109375 
Q 37.359375 48.484375 30.078125 48.484375 
Q 22.859375 48.484375 18.828125 43.109375 
Q 14.796875 37.75 14.796875 27.984375 
Q 14.796875 18.265625 18.828125 12.890625 
Q 22.859375 7.515625 30.078125 7.515625 
Q 37.359375 7.515625 41.375 12.890625 
Q 45.40625 18.265625 45.40625 27.984375 
z
M 54.390625 6.78125 
Q 54.390625 -7.171875 48.1875 -13.984375 
Q 42 -20.796875 29.203125 -20.796875 
Q 24.46875 -20.796875 20.265625 -20.09375 
Q 16.0625 -19.390625 12.109375 -17.921875 
L 12.109375 -9.1875 
Q 16.0625 -11.328125 19.921875 -12.34375 
Q 23.78125 -13.375 27.78125 -13.375 
Q 36.625 -13.375 41.015625 -8.765625 
Q 45.40625 -4.15625 45.40625 5.171875 
L 45.40625 9.625 
Q 42.625 4.78125 38.28125 2.390625 
Q 33.9375 0 27.875 0 
Q 17.828125 0 11.671875 7.65625 
Q 5.515625 15.328125 5.515625 27.984375 
Q 5.515625 40.671875 11.671875 48.328125 
Q 17.828125 56 27.875 56 
Q 33.9375 56 38.28125 53.609375 
Q 42.625 51.21875 45.40625 46.390625 
L 45.40625 54.6875 
L 54.390625 54.6875 
z
" id="DejaVuSans-67"/>
     <path id="DejaVuSans-20"/>
     <path d="M 45.40625 46.390625 
L 45.40625 75.984375 
L 54.390625 75.984375 
L 54.390625 0 
L 45.40625 0 
L 45.40625 8.203125 
Q 42.578125 3.328125 38.25 0.953125 
Q 33.9375 -1.421875 27.875 -1.421875 
Q 17.96875 -1.421875 11.734375 6.484375 
Q 5.515625 14.40625 5.515625 27.296875 
Q 5.515625 40.1875 11.734375 48.09375 
Q 17.96875 56 27.875 56 
Q 33.9375 56 38.25 53.625 
Q 42.578125 51.265625 45.40625 46.390625 
z
M 14.796875 27.296875 
Q 14.796875 17.390625 18.875 11.75 
Q 22.953125 6.109375 30.078125 6.109375 
Q 37.203125 6.109375 41.296875 11.75 
Q 45.40625 17.390625 45.40625 27.296875 
Q 45.40625 37.203125 41.296875 42.84375 
Q 37.203125 48.484375 30.078125 48.484375 
Q 22.953125 48.484375 18.875 42.84375 
Q 14.796875 37.203125 14.796875 27.296875 
z
" id="DejaVuSans-64"/>
     <path d="M 37.109375 75.984375 
L 37.109375 68.5 
L 28.515625 68.5 
Q 23.6875 68.5 21.796875 66.546875 
Q 19.921875 64.59375 19.921875 59.515625 
L 19.921875 54.6875 
L 34.71875 54.6875 
L 34.71875 47.703125 
L 19.921875 47.703125 
L 19.921875 0 
L 10.890625 0 
L 10.890625 47.703125 
L 2.296875 47.703125 
L 2.296875 54.6875 
L 10.890625 54.6875 
L 10.890625 58.5 
Q 10.890625 67.625 15.140625 71.796875 
Q 19.390625 75.984375 28.609375 75.984375 
z
" id="DejaVuSans-66"/>
     <path d="M 48.78125 52.59375 
L 48.78125 44.1875 
Q 44.96875 46.296875 41.140625 47.34375 
Q 37.3125 48.390625 33.40625 48.390625 
Q 24.65625 48.390625 19.8125 42.84375 
Q 14.984375 37.3125 14.984375 27.296875 
Q 14.984375 17.28125 19.8125 11.734375 
Q 24.65625 6.203125 33.40625 6.203125 
Q 37.3125 6.203125 41.140625 7.25 
Q 44.96875 8.296875 48.78125 10.40625 
L 48.78125 2.09375 
Q 45.015625 0.34375 40.984375 -0.53125 
Q 36.96875 -1.421875 32.421875 -1.421875 
Q 20.0625 -1.421875 12.78125 6.34375 
Q 5.515625 14.109375 5.515625 27.296875 
Q 5.515625 40.671875 12.859375 48.328125 
Q 20.21875 56 33.015625 56 
Q 37.15625 56 41.109375 55.140625 
Q 45.0625 54.296875 48.78125 52.59375 
z
" id="DejaVuSans-63"/>
     <path d="M 48.6875 27.296875 
Q 48.6875 37.203125 44.609375 42.84375 
Q 40.53125 48.484375 33.40625 48.484375 
Q 26.265625 48.484375 22.1875 42.84375 
Q 18.109375 37.203125 18.109375 27.296875 
Q 18.109375 17.390625 22.1875 11.75 
Q 26.265625 6.109375 33.40625 6.109375 
Q 40.53125 6.109375 44.609375 11.75 
Q 48.6875 17.390625 48.6875 27.296875 
z
M 18.109375 46.390625 
Q 20.953125 51.265625 25.265625 53.625 
Q 29.59375 56 35.59375 56 
Q 45.5625 56 51.78125 48.09375 
Q 58.015625 40.1875 58.015625 27.296875 
Q 58.015625 14.40625 51.78125 6.484375 
Q 45.5625 -1.421875 35.59375 -1.421875 
Q 29.59375 -1.421875 25.265625 0.953125 
Q 20.953125 3.328125 18.109375 8.203125 
L 18.109375 0 
L 9.078125 0 
L 9.078125 75.984375 
L 18.109375 75.984375 
z
" id="DejaVuSans-62"/>
     <path d="M 4.203125 54.6875 
L 13.1875 54.6875 
L 24.421875 12.015625 
L 35.59375 54.6875 
L 46.1875 54.6875 
L 57.421875 12.015625 
L 68.609375 54.6875 
L 77.59375 54.6875 
L 63.28125 0 
L 52.6875 0 
L 40.921875 44.828125 
L 29.109375 0 
L 18.5 0 
z
" id="DejaVuSans-77"/>
     <path d="M 34.28125 27.484375 
Q 23.390625 27.484375 19.1875 25 
Q 14.984375 22.515625 14.984375 16.5 
Q 14.984375 11.71875 18.140625 8.90625 
Q 21.296875 6.109375 26.703125 6.109375 
Q 34.1875 6.109375 38.703125 11.40625 
Q 43.21875 16.703125 43.21875 25.484375 
L 43.21875 27.484375 
z
M 52.203125 31.203125 
L 52.203125 0 
L 43.21875 0 
L 43.21875 8.296875 
Q 40.140625 3.328125 35.546875 0.953125 
Q 30.953125 -1.421875 24.3125 -1.421875 
Q 15.921875 -1.421875 10.953125 3.296875 
Q 6 8.015625 6 15.921875 
Q 6 25.140625 12.171875 29.828125 
Q 18.359375 34.515625 30.609375 34.515625 
L 43.21875 34.515625 
L 43.21875 35.40625 
Q 43.21875 41.609375 39.140625 45 
Q 35.0625 48.390625 27.6875 48.390625 
Q 23 48.390625 18.546875 47.265625 
Q 14.109375 46.140625 10.015625 43.890625 
L 10.015625 52.203125 
Q 14.9375 54.109375 19.578125 55.046875 
Q 24.21875 56 28.609375 56 
Q 40.484375 56 46.34375 49.84375 
Q 52.203125 43.703125 52.203125 31.203125 
z
" id="DejaVuSans-61"/>
     <path d="M 54.890625 33.015625 
L 54.890625 0 
L 45.90625 0 
L 45.90625 32.71875 
Q 45.90625 40.484375 42.875 44.328125 
Q 39.84375 48.1875 33.796875 48.1875 
Q 26.515625 48.1875 22.3125 43.546875 
Q 18.109375 38.921875 18.109375 30.90625 
L 18.109375 0 
L 9.078125 0 
L 9.078125 75.984375 
L 18.109375 75.984375 
L 18.109375 46.1875 
Q 21.34375 51.125 25.703125 53.5625 
Q 30.078125 56 35.796875 56 
Q 45.21875 56 50.046875 50.171875 
Q 54.890625 44.34375 54.890625 33.015625 
z
" id="DejaVuSans-68"/>
     <path d="M 8.59375 75.984375 
L 29.296875 75.984375 
L 29.296875 69 
L 17.578125 69 
L 17.578125 -6.203125 
L 29.296875 -6.203125 
L 29.296875 -13.1875 
L 8.59375 -13.1875 
z
" id="DejaVuSans-5b"/>
     <path d="M 11.71875 12.40625 
L 22.015625 12.40625 
L 22.015625 4 
L 14.015625 -11.625 
L 7.71875 -11.625 
L 11.71875 4 
z
" id="DejaVuSans-2c"/>
     <path d="M 30.421875 75.984375 
L 30.421875 -13.1875 
L 9.71875 -13.1875 
L 9.71875 -6.203125 
L 21.390625 -6.203125 
L 21.390625 69 
L 9.71875 69 
L 9.71875 75.984375 
z
" id="DejaVuSans-5d"/>
    </defs>
    <g transform="translate(5.896125 35.472)scale(0.12 -0.12)">
     <use xlink:href="#DejaVuSans-41"/>
     <use x="68.408203" xlink:href="#DejaVuSans-6e"/>
     <use x="131.787109" xlink:href="#DejaVuSans-67"/>
     <use x="195.263672" xlink:href="#DejaVuSans-6c"/>
     <use x="223.046875" xlink:href="#DejaVuSans-65"/>
     <use x="284.570312" xlink:href="#DejaVuSans-20"/>
     <use x="316.357422" xlink:href="#DejaVuSans-64"/>
     <use x="379.833984" xlink:href="#DejaVuSans-69"/>
     <use x="407.617188" xlink:href="#DejaVuSans-66"/>
     <use x="442.822266" xlink:href="#DejaVuSans-66"/>
     <use x="478.027344" xlink:href="#DejaVuSans-65"/>
     <use x="539.550781" xlink:href="#DejaVuSans-72"/>
     <use x="580.632812" xlink:href="#DejaVuSans-65"/>
     <use x="642.15625" xlink:href="#DejaVuSans-6e"/>
     <use x="705.535156" xlink:href="#DejaVuSans-63"/>
     <use x="760.515625" xlink:href="#DejaVuSans-65"/>
     <use x="822.039062" xlink:href="#DejaVuSans-20"/>
     <use x="853.826172" xlink:href="#DejaVuSans-62"/>
     <use x="917.302734" xlink:href="#DejaVuSans-65"/>
     <use x="978.826172" xlink:href="#DejaVuSans-74"/>
     <use x="1018.035156" xlink:href="#DejaVuSans-77"/>
     <use x="1099.822266" xlink:href="#DejaVuSans-65"/>
     <use x="1161.345703" xlink:href="#DejaVuSans-65"/>
     <use x="1222.869141" xlink:href="#DejaVuSans-6e"/>
     <use x="1286.248047" xlink:href="#DejaVuSans-20"/>
     <use x="1318.035156" xlink:href="#DejaVuSans-73"/>
     <use x="1370.134766" xlink:href="#DejaVuSans-6f"/>
     <use x="1431.316406" xlink:href="#DejaVuSans-75"/>
     <use x="1494.695312" xlink:href="#DejaVuSans-72"/>
     <use x="1535.777344" xlink:href="#DejaVuSans-63"/>
     <use x="1590.757812" xlink:href="#DejaVuSans-65"/>
     <use x="1652.28125" xlink:href="#DejaVuSans-20"/>
     <use x="1684.068359" xlink:href="#DejaVuSans-31"/>
     <use x="1747.691406" xlink:href="#DejaVuSans-31"/>
     <use x="1811.314453" xlink:href="#DejaVuSans-20"/>
     <use x="1843.101562" xlink:href="#DejaVuSans-61"/>
     <use x="1904.380859" xlink:href="#DejaVuSans-6e"/>
     <use x="1967.759766" xlink:href="#DejaVuSans-64"/>
     <use x="2031.236328" xlink:href="#DejaVuSans-20"/>
     <use x="2063.023438" xlink:href="#DejaVuSans-6e"/>
     <use x="2126.402344" xlink:href="#DejaVuSans-65"/>
     <use x="2187.925781" xlink:href="#DejaVuSans-69"/>
     <use x="2215.708984" xlink:href="#DejaVuSans-67"/>
     <use x="2279.185547" xlink:href="#DejaVuSans-68"/>
     <use x="2342.564453" xlink:href="#DejaVuSans-62"/>
     <use x="2406.041016" xlink:href="#DejaVuSans-6f"/>
     <use x="2467.222656" xlink:href="#DejaVuSans-75"/>
     <use x="2530.601562" xlink:href="#DejaVuSans-72"/>
     <use x="2571.714844" xlink:href="#DejaVuSans-73"/>
     <use x="2623.814453" xlink:href="#DejaVuSans-20"/>
     <use x="2655.601562" xlink:href="#DejaVuSans-5b"/>
     <use x="2694.615234" xlink:href="#DejaVuSans-31"/>
     <use x="2758.238281" xlink:href="#DejaVuSans-30"/>
     <use x="2821.861328" xlink:href="#DejaVuSans-2c"/>
     <use x="2853.648438" xlink:href="#DejaVuSans-20"/>
     <use x="2885.435547" xlink:href="#DejaVuSans-31"/>
     <use x="2949.058594" xlink:href="#DejaVuSans-32"/>
     <use x="3012.681641" xlink:href="#DejaVuSans-2c"/>
     <use x="3044.46875" xlink:href="#DejaVuSans-20"/>
     <use x="3076.255859" xlink:href="#DejaVuSans-31"/>
     <use x="3139.878906" xlink:href="#DejaVuSans-33"/>
     <use x="3203.501953" xlink:href="#DejaVuSans-5d"/>
    </g>
   </g>
  </g>
  <g id="axes_2">
   <g id="patch_3">
    <path clip-path="url(#p61483099b2)" d="M 361.152 307.584 
L 361.152 306.5445 
L 361.152 42.5115 
L 361.152 41.472 
L 374.4576 41.472 
L 374.4576 42.5115 
L 374.4576 306.5445 
L 374.4576 307.584 
z
" style="fill:#ffffff;stroke:#ffffff;stroke-linejoin:miter;stroke-width:0.01;"/>
   </g>
   <image height="265.68" id="image0bead800e7" transform="scale(1 -1)translate(0 -265.68)" width="12.96" x="361.44" xlink:href="data:image/png;base64,
iVBORw0KGgoAAAANSUhEUgAAABIAAAFxCAYAAAB+2fgXAAAABHNCSVQICAgIfAhkiAAAAd5JREFUeJztnMFtBDEMA609p4n03+elBO1jEAwIqgBih5RkH2JkPj+/3wPUHULlnHNnGKkHUTngF905sWhPrkccmq6zH8hsI1pTW4WCF1vj34Wi0ZiPAk9aCq0n7S5UtLWKtpdv1WJfJPwJ0fjXEqJxHiEyXWxvqp39QsiYGiSUfBxxi40pY2cLhxYSMg6trCGTPQq+RPj2UfCq1aEpT1pIyIcWvWohIeGq1Q1tPVqr+2iv+yBvNNJTw4Rs8es8Ena2cdXKhIJTM3pECQ1kthBNmJqts42pJXvEsGEeCeMXpvalUkNkpFe/2M4eDA2RkQ4t41HR9gJnDRp/pUeQ0ED3Y/JPPlD8wpMWQwtODRvaerQV+YwR29m21Aa6shlT49CC46eEhGjt7P8SIlctJcR5hOgYjyMhWm5qJzk1mxAFJ/SoaGuRaNCTmKK9EdI9rrB5BB5HFBrlkRBN2JDUi/Fgj87DaAnRwH1kQzvQLcKIxq3aXI+S489Fy01NN2uY2cLFRo0I2dm5aO3srTiPhL+OuJ0dmxo1/Uq0xr8KBcfvSy24IW1oySdt41+raHv50O7MBxHq0O7li1+JpmtIW2rCk5ZaI9mdHYzWod2EfP8aPHgfUQ2pRGtDrkKxi+0P774uodQGxB4AAAAASUVORK5CYII=" y="-41.76"/>
   <g id="matplotlib.axis_3"/>
   <g id="matplotlib.axis_4">
    <g id="ytick_4">
     <g id="line2d_26">
      <defs>
       <path d="M 0 0 
L 3.5 0 
" id="m1a2630c9da" style="stroke:#000000;stroke-width:0.8;"/>
      </defs>
      <g>
       <use style="stroke:#000000;stroke-width:0.8;" x="374.4576" xlink:href="#m1a2630c9da" y="307.584"/>
      </g>
     </g>
     <g id="text_29">
      <!-- 0 -->
      <g transform="translate(381.4576 311.383219)scale(0.1 -0.1)">
       <use xlink:href="#DejaVuSans-30"/>
      </g>
     </g>
    </g>
    <g id="ytick_5">
     <g id="line2d_27">
      <g>
       <use style="stroke:#000000;stroke-width:0.8;" x="374.4576" xlink:href="#m1a2630c9da" y="263.232"/>
      </g>
     </g>
     <g id="text_30">
      <!-- 15 -->
      <defs>
       <path d="M 10.796875 72.90625 
L 49.515625 72.90625 
L 49.515625 64.59375 
L 19.828125 64.59375 
L 19.828125 46.734375 
Q 21.96875 47.46875 24.109375 47.828125 
Q 26.265625 48.1875 28.421875 48.1875 
Q 40.625 48.1875 47.75 41.5 
Q 54.890625 34.8125 54.890625 23.390625 
Q 54.890625 11.625 47.5625 5.09375 
Q 40.234375 -1.421875 26.90625 -1.421875 
Q 22.3125 -1.421875 17.546875 -0.640625 
Q 12.796875 0.140625 7.71875 1.703125 
L 7.71875 11.625 
Q 12.109375 9.234375 16.796875 8.0625 
Q 21.484375 6.890625 26.703125 6.890625 
Q 35.15625 6.890625 40.078125 11.328125 
Q 45.015625 15.765625 45.015625 23.390625 
Q 45.015625 31 40.078125 35.4375 
Q 35.15625 39.890625 26.703125 39.890625 
Q 22.75 39.890625 18.8125 39.015625 
Q 14.890625 38.140625 10.796875 36.28125 
z
" id="DejaVuSans-35"/>
      </defs>
      <g transform="translate(381.4576 267.031219)scale(0.1 -0.1)">
       <use xlink:href="#DejaVuSans-31"/>
       <use x="63.623047" xlink:href="#DejaVuSans-35"/>
      </g>
     </g>
    </g>
    <g id="ytick_6">
     <g id="line2d_28">
      <g>
       <use style="stroke:#000000;stroke-width:0.8;" x="374.4576" xlink:href="#m1a2630c9da" y="218.88"/>
      </g>
     </g>
     <g id="text_31">
      <!-- 30 -->
      <g transform="translate(381.4576 222.679219)scale(0.1 -0.1)">
       <use xlink:href="#DejaVuSans-33"/>
       <use x="63.623047" xlink:href="#DejaVuSans-30"/>
      </g>
     </g>
    </g>
    <g id="ytick_7">
     <g id="line2d_29">
      <g>
       <use style="stroke:#000000;stroke-width:0.8;" x="374.4576" xlink:href="#m1a2630c9da" y="174.528"/>
      </g>
     </g>
     <g id="text_32">
      <!-- 45 -->
      <g transform="translate(381.4576 178.327219)scale(0.1 -0.1)">
       <use xlink:href="#DejaVuSans-34"/>
       <use x="63.623047" xlink:href="#DejaVuSans-35"/>
      </g>
     </g>
    </g>
    <g id="ytick_8">
     <g id="line2d_30">
      <g>
       <use style="stroke:#000000;stroke-width:0.8;" x="374.4576" xlink:href="#m1a2630c9da" y="130.176"/>
      </g>
     </g>
     <g id="text_33">
      <!-- 60 -->
      <g transform="translate(381.4576 133.975219)scale(0.1 -0.1)">
       <use xlink:href="#DejaVuSans-36"/>
       <use x="63.623047" xlink:href="#DejaVuSans-30"/>
      </g>
     </g>
    </g>
    <g id="ytick_9">
     <g id="line2d_31">
      <g>
       <use style="stroke:#000000;stroke-width:0.8;" x="374.4576" xlink:href="#m1a2630c9da" y="85.824"/>
      </g>
     </g>
     <g id="text_34">
      <!-- 75 -->
      <defs>
       <path d="M 8.203125 72.90625 
L 55.078125 72.90625 
L 55.078125 68.703125 
L 28.609375 0 
L 18.3125 0 
L 43.21875 64.59375 
L 8.203125 64.59375 
z
" id="DejaVuSans-37"/>
      </defs>
      <g transform="translate(381.4576 89.623219)scale(0.1 -0.1)">
       <use xlink:href="#DejaVuSans-37"/>
       <use x="63.623047" xlink:href="#DejaVuSans-35"/>
      </g>
     </g>
    </g>
    <g id="ytick_10">
     <g id="line2d_32">
      <g>
       <use style="stroke:#000000;stroke-width:0.8;" x="374.4576" xlink:href="#m1a2630c9da" y="41.472"/>
      </g>
     </g>
     <g id="text_35">
      <!-- 90 -->
      <defs>
       <path d="M 10.984375 1.515625 
L 10.984375 10.5 
Q 14.703125 8.734375 18.5 7.8125 
Q 22.3125 6.890625 25.984375 6.890625 
Q 35.75 6.890625 40.890625 13.453125 
Q 46.046875 20.015625 46.78125 33.40625 
Q 43.953125 29.203125 39.59375 26.953125 
Q 35.25 24.703125 29.984375 24.703125 
Q 19.046875 24.703125 12.671875 31.3125 
Q 6.296875 37.9375 6.296875 49.421875 
Q 6.296875 60.640625 12.9375 67.421875 
Q 19.578125 74.21875 30.609375 74.21875 
Q 43.265625 74.21875 49.921875 64.515625 
Q 56.59375 54.828125 56.59375 36.375 
Q 56.59375 19.140625 48.40625 8.859375 
Q 40.234375 -1.421875 26.421875 -1.421875 
Q 22.703125 -1.421875 18.890625 -0.6875 
Q 15.09375 0.046875 10.984375 1.515625 
z
M 30.609375 32.421875 
Q 37.25 32.421875 41.125 36.953125 
Q 45.015625 41.5 45.015625 49.421875 
Q 45.015625 57.28125 41.125 61.84375 
Q 37.25 66.40625 30.609375 66.40625 
Q 23.96875 66.40625 20.09375 61.84375 
Q 16.21875 57.28125 16.21875 49.421875 
Q 16.21875 41.5 20.09375 36.953125 
Q 23.96875 32.421875 30.609375 32.421875 
z
" id="DejaVuSans-39"/>
      </defs>
      <g transform="translate(381.4576 45.271219)scale(0.1 -0.1)">
       <use xlink:href="#DejaVuSans-39"/>
       <use x="63.623047" xlink:href="#DejaVuSans-30"/>
      </g>
     </g>
    </g>
   </g>
   <g id="patch_4">
    <path d="M 361.152 307.584 
L 361.152 306.5445 
L 361.152 42.5115 
L 361.152 41.472 
L 374.4576 41.472 
L 374.4576 42.5115 
L 374.4576 306.5445 
L 374.4576 307.584 
z
" style="fill:none;"/>
   </g>
  </g>
 </g>
 <defs>
  <clipPath id="pf0626712be">
   <rect height="266.112" width="285.696" x="57.6" y="41.472"/>
  </clipPath>
  <clipPath id="p61483099b2">
   <rect height="266.112" width="13.3056" x="361.152" y="41.472"/>
  </clipPath>
 </defs>
</svg>
