<?xml version="1.0" encoding="utf-8" standalone="no"?>
<!DOCTYPE svg PUBLIC "-//W3C//DTD SVG 1.1//EN"
  "http://www.w3.org/Graphics/SVG/1.1/DTD/svg11.dtd">
<!-- Created with matplotlib (http://matplotlib.org/) -->
<svg height="351.034375pt" version="1.1" viewBox="0 0 641.323125 351.034375" width="641.323125pt" xmlns="http://www.w3.org/2000/svg" xmlns:xlink="http://www.w3.org/1999/xlink">
 <defs>
  <style type="text/css">
*{stroke-linecap:butt;stroke-linejoin:round;}
  </style>
 </defs>
 <g id="figure_1">
  <g id="patch_1">
   <path d="M 0 351.034375 
L 641.323125 351.034375 
L 641.323125 0 
L 0 0 
z
" style="fill:#ffffff;"/>
  </g>
  <g id="axes_1">
   <g id="patch_2">
    <path d="M 40.603125 313.478125 
L 630.623125 313.478125 
L 630.623125 22.318125 
L 40.603125 22.318125 
z
" style="fill:#ffffff;"/>
   </g>
   <g id="patch_3">
    <path clip-path="url(#pc09aa6ad49)" d="M 67.422216 313.478125 
L 72.852403 313.478125 
L 72.852403 36.182887 
L 67.422216 36.182887 
z
" style="fill:#0066ff;"/>
   </g>
   <g id="patch_4">
    <path clip-path="url(#pc09aa6ad49)" d="M 73.455757 313.478125 
L 78.885944 313.478125 
L 78.885944 313.478125 
L 73.455757 313.478125 
z
" style="fill:#0066ff;"/>
   </g>
   <g id="patch_5">
    <path clip-path="url(#pc09aa6ad49)" d="M 79.489298 313.478125 
L 84.919486 313.478125 
L 84.919486 313.478125 
L 79.489298 313.478125 
z
" style="fill:#0066ff;"/>
   </g>
   <g id="patch_6">
    <path clip-path="url(#pc09aa6ad49)" d="M 85.52284 313.478125 
L 90.953027 313.478125 
L 90.953027 313.478125 
L 85.52284 313.478125 
z
" style="fill:#0066ff;"/>
   </g>
   <g id="patch_7">
    <path clip-path="url(#pc09aa6ad49)" d="M 91.556381 313.478125 
L 96.986568 313.478125 
L 96.986568 313.478125 
L 91.556381 313.478125 
z
" style="fill:#0066ff;"/>
   </g>
   <g id="patch_8">
    <path clip-path="url(#pc09aa6ad49)" d="M 97.589922 313.478125 
L 103.020109 313.478125 
L 103.020109 313.478125 
L 97.589922 313.478125 
z
" style="fill:#0066ff;"/>
   </g>
   <g id="patch_9">
    <path clip-path="url(#pc09aa6ad49)" d="M 103.623463 313.478125 
L 109.053651 313.478125 
L 109.053651 313.478125 
L 103.623463 313.478125 
z
" style="fill:#0066ff;"/>
   </g>
   <g id="patch_10">
    <path clip-path="url(#pc09aa6ad49)" d="M 109.657005 313.478125 
L 115.087192 313.478125 
L 115.087192 313.478125 
L 109.657005 313.478125 
z
" style="fill:#0066ff;"/>
   </g>
   <g id="patch_11">
    <path clip-path="url(#pc09aa6ad49)" d="M 115.690546 313.478125 
L 121.120733 313.478125 
L 121.120733 313.478125 
L 115.690546 313.478125 
z
" style="fill:#0066ff;"/>
   </g>
   <g id="patch_12">
    <path clip-path="url(#pc09aa6ad49)" d="M 121.724087 313.478125 
L 127.154274 313.478125 
L 127.154274 313.478125 
L 121.724087 313.478125 
z
" style="fill:#0066ff;"/>
   </g>
   <g id="patch_13">
    <path clip-path="url(#pc09aa6ad49)" d="M 127.757629 313.478125 
L 133.187816 313.478125 
L 133.187816 313.478125 
L 127.757629 313.478125 
z
" style="fill:#0066ff;"/>
   </g>
   <g id="patch_14">
    <path clip-path="url(#pc09aa6ad49)" d="M 133.79117 313.478125 
L 139.221357 313.478125 
L 139.221357 313.478125 
L 133.79117 313.478125 
z
" style="fill:#0066ff;"/>
   </g>
   <g id="patch_15">
    <path clip-path="url(#pc09aa6ad49)" d="M 139.824711 313.478125 
L 145.254898 313.478125 
L 145.254898 313.478125 
L 139.824711 313.478125 
z
" style="fill:#0066ff;"/>
   </g>
   <g id="patch_16">
    <path clip-path="url(#pc09aa6ad49)" d="M 145.858252 313.478125 
L 151.288439 313.478125 
L 151.288439 313.478125 
L 145.858252 313.478125 
z
" style="fill:#0066ff;"/>
   </g>
   <g id="patch_17">
    <path clip-path="url(#pc09aa6ad49)" d="M 151.891794 313.478125 
L 157.321981 313.478125 
L 157.321981 313.478125 
L 151.891794 313.478125 
z
" style="fill:#0066ff;"/>
   </g>
   <g id="patch_18">
    <path clip-path="url(#pc09aa6ad49)" d="M 157.925335 313.478125 
L 163.355522 313.478125 
L 163.355522 313.478125 
L 157.925335 313.478125 
z
" style="fill:#0066ff;"/>
   </g>
   <g id="patch_19">
    <path clip-path="url(#pc09aa6ad49)" d="M 163.958876 313.478125 
L 169.389063 313.478125 
L 169.389063 313.478125 
L 163.958876 313.478125 
z
" style="fill:#0066ff;"/>
   </g>
   <g id="patch_20">
    <path clip-path="url(#pc09aa6ad49)" d="M 169.992417 313.478125 
L 175.422604 313.478125 
L 175.422604 313.478125 
L 169.992417 313.478125 
z
" style="fill:#0066ff;"/>
   </g>
   <g id="patch_21">
    <path clip-path="url(#pc09aa6ad49)" d="M 176.025959 313.478125 
L 181.456146 313.478125 
L 181.456146 313.478125 
L 176.025959 313.478125 
z
" style="fill:#0066ff;"/>
   </g>
   <g id="patch_22">
    <path clip-path="url(#pc09aa6ad49)" d="M 182.0595 313.478125 
L 187.489687 313.478125 
L 187.489687 313.478125 
L 182.0595 313.478125 
z
" style="fill:#0066ff;"/>
   </g>
   <g id="patch_23">
    <path clip-path="url(#pc09aa6ad49)" d="M 188.093041 313.478125 
L 193.523228 313.478125 
L 193.523228 313.478125 
L 188.093041 313.478125 
z
" style="fill:#0066ff;"/>
   </g>
   <g id="patch_24">
    <path clip-path="url(#pc09aa6ad49)" d="M 194.126582 313.478125 
L 199.55677 313.478125 
L 199.55677 313.478125 
L 194.126582 313.478125 
z
" style="fill:#0066ff;"/>
   </g>
   <g id="patch_25">
    <path clip-path="url(#pc09aa6ad49)" d="M 200.160124 313.478125 
L 205.590311 313.478125 
L 205.590311 313.478125 
L 200.160124 313.478125 
z
" style="fill:#0066ff;"/>
   </g>
   <g id="patch_26">
    <path clip-path="url(#pc09aa6ad49)" d="M 206.193665 313.478125 
L 211.623852 313.478125 
L 211.623852 313.478125 
L 206.193665 313.478125 
z
" style="fill:#0066ff;"/>
   </g>
   <g id="patch_27">
    <path clip-path="url(#pc09aa6ad49)" d="M 212.227206 313.478125 
L 217.657393 313.478125 
L 217.657393 313.478125 
L 212.227206 313.478125 
z
" style="fill:#0066ff;"/>
   </g>
   <g id="patch_28">
    <path clip-path="url(#pc09aa6ad49)" d="M 218.260747 313.478125 
L 223.690935 313.478125 
L 223.690935 313.478125 
L 218.260747 313.478125 
z
" style="fill:#0066ff;"/>
   </g>
   <g id="patch_29">
    <path clip-path="url(#pc09aa6ad49)" d="M 224.294289 313.478125 
L 229.724476 313.478125 
L 229.724476 313.478125 
L 224.294289 313.478125 
z
" style="fill:#0066ff;"/>
   </g>
   <g id="patch_30">
    <path clip-path="url(#pc09aa6ad49)" d="M 230.32783 313.478125 
L 235.758017 313.478125 
L 235.758017 313.478125 
L 230.32783 313.478125 
z
" style="fill:#0066ff;"/>
   </g>
   <g id="patch_31">
    <path clip-path="url(#pc09aa6ad49)" d="M 236.361371 313.478125 
L 241.791558 313.478125 
L 241.791558 313.478125 
L 236.361371 313.478125 
z
" style="fill:#0066ff;"/>
   </g>
   <g id="patch_32">
    <path clip-path="url(#pc09aa6ad49)" d="M 242.394913 313.478125 
L 247.8251 313.478125 
L 247.8251 313.478125 
L 242.394913 313.478125 
z
" style="fill:#0066ff;"/>
   </g>
   <g id="patch_33">
    <path clip-path="url(#pc09aa6ad49)" d="M 248.428454 313.478125 
L 253.858641 313.478125 
L 253.858641 313.478125 
L 248.428454 313.478125 
z
" style="fill:#0066ff;"/>
   </g>
   <g id="patch_34">
    <path clip-path="url(#pc09aa6ad49)" d="M 254.461995 313.478125 
L 259.892182 313.478125 
L 259.892182 313.478125 
L 254.461995 313.478125 
z
" style="fill:#0066ff;"/>
   </g>
   <g id="patch_35">
    <path clip-path="url(#pc09aa6ad49)" d="M 260.495536 313.478125 
L 265.925723 313.478125 
L 265.925723 313.478125 
L 260.495536 313.478125 
z
" style="fill:#0066ff;"/>
   </g>
   <g id="patch_36">
    <path clip-path="url(#pc09aa6ad49)" d="M 266.529078 313.478125 
L 271.959265 313.478125 
L 271.959265 313.478125 
L 266.529078 313.478125 
z
" style="fill:#0066ff;"/>
   </g>
   <g id="patch_37">
    <path clip-path="url(#pc09aa6ad49)" d="M 272.562619 313.478125 
L 277.992806 313.478125 
L 277.992806 313.478125 
L 272.562619 313.478125 
z
" style="fill:#0066ff;"/>
   </g>
   <g id="patch_38">
    <path clip-path="url(#pc09aa6ad49)" d="M 278.59616 313.478125 
L 284.026347 313.478125 
L 284.026347 313.478125 
L 278.59616 313.478125 
z
" style="fill:#0066ff;"/>
   </g>
   <g id="patch_39">
    <path clip-path="url(#pc09aa6ad49)" d="M 284.629701 313.478125 
L 290.059888 313.478125 
L 290.059888 313.478125 
L 284.629701 313.478125 
z
" style="fill:#0066ff;"/>
   </g>
   <g id="patch_40">
    <path clip-path="url(#pc09aa6ad49)" d="M 290.663243 313.478125 
L 296.09343 313.478125 
L 296.09343 313.478125 
L 290.663243 313.478125 
z
" style="fill:#0066ff;"/>
   </g>
   <g id="patch_41">
    <path clip-path="url(#pc09aa6ad49)" d="M 296.696784 313.478125 
L 302.126971 313.478125 
L 302.126971 313.478125 
L 296.696784 313.478125 
z
" style="fill:#0066ff;"/>
   </g>
   <g id="patch_42">
    <path clip-path="url(#pc09aa6ad49)" d="M 302.730325 313.478125 
L 308.160512 313.478125 
L 308.160512 313.478125 
L 302.730325 313.478125 
z
" style="fill:#0066ff;"/>
   </g>
   <g id="patch_43">
    <path clip-path="url(#pc09aa6ad49)" d="M 308.763866 313.478125 
L 314.194054 313.478125 
L 314.194054 313.478125 
L 308.763866 313.478125 
z
" style="fill:#0066ff;"/>
   </g>
   <g id="patch_44">
    <path clip-path="url(#pc09aa6ad49)" d="M 314.797408 313.478125 
L 320.227595 313.478125 
L 320.227595 313.478125 
L 314.797408 313.478125 
z
" style="fill:#0066ff;"/>
   </g>
   <g id="patch_45">
    <path clip-path="url(#pc09aa6ad49)" d="M 320.830949 313.478125 
L 326.261136 313.478125 
L 326.261136 313.478125 
L 320.830949 313.478125 
z
" style="fill:#0066ff;"/>
   </g>
   <g id="patch_46">
    <path clip-path="url(#pc09aa6ad49)" d="M 326.86449 313.478125 
L 332.294677 313.478125 
L 332.294677 313.478125 
L 326.86449 313.478125 
z
" style="fill:#0066ff;"/>
   </g>
   <g id="patch_47">
    <path clip-path="url(#pc09aa6ad49)" d="M 332.898031 313.478125 
L 338.328219 313.478125 
L 338.328219 313.478125 
L 332.898031 313.478125 
z
" style="fill:#0066ff;"/>
   </g>
   <g id="patch_48">
    <path clip-path="url(#pc09aa6ad49)" d="M 338.931573 313.478125 
L 344.36176 313.478125 
L 344.36176 313.478125 
L 338.931573 313.478125 
z
" style="fill:#0066ff;"/>
   </g>
   <g id="patch_49">
    <path clip-path="url(#pc09aa6ad49)" d="M 344.965114 313.478125 
L 350.395301 313.478125 
L 350.395301 313.478125 
L 344.965114 313.478125 
z
" style="fill:#0066ff;"/>
   </g>
   <g id="patch_50">
    <path clip-path="url(#pc09aa6ad49)" d="M 350.998655 313.478125 
L 356.428842 313.478125 
L 356.428842 313.478125 
L 350.998655 313.478125 
z
" style="fill:#0066ff;"/>
   </g>
   <g id="patch_51">
    <path clip-path="url(#pc09aa6ad49)" d="M 357.032196 313.478125 
L 362.462384 313.478125 
L 362.462384 313.478125 
L 357.032196 313.478125 
z
" style="fill:#0066ff;"/>
   </g>
   <g id="patch_52">
    <path clip-path="url(#pc09aa6ad49)" d="M 363.065738 313.478125 
L 368.495925 313.478125 
L 368.495925 313.478125 
L 363.065738 313.478125 
z
" style="fill:#0066ff;"/>
   </g>
   <g id="patch_53">
    <path clip-path="url(#pc09aa6ad49)" d="M 369.099279 313.478125 
L 374.529466 313.478125 
L 374.529466 313.478125 
L 369.099279 313.478125 
z
" style="fill:#0066ff;"/>
   </g>
   <g id="patch_54">
    <path clip-path="url(#pc09aa6ad49)" d="M 375.13282 313.478125 
L 380.563007 313.478125 
L 380.563007 313.478125 
L 375.13282 313.478125 
z
" style="fill:#0066ff;"/>
   </g>
   <g id="patch_55">
    <path clip-path="url(#pc09aa6ad49)" d="M 381.166362 313.478125 
L 386.596549 313.478125 
L 386.596549 313.478125 
L 381.166362 313.478125 
z
" style="fill:#0066ff;"/>
   </g>
   <g id="patch_56">
    <path clip-path="url(#pc09aa6ad49)" d="M 387.199903 313.478125 
L 392.63009 313.478125 
L 392.63009 313.478125 
L 387.199903 313.478125 
z
" style="fill:#0066ff;"/>
   </g>
   <g id="patch_57">
    <path clip-path="url(#pc09aa6ad49)" d="M 393.233444 313.478125 
L 398.663631 313.478125 
L 398.663631 313.478125 
L 393.233444 313.478125 
z
" style="fill:#0066ff;"/>
   </g>
   <g id="patch_58">
    <path clip-path="url(#pc09aa6ad49)" d="M 399.266985 313.478125 
L 404.697172 313.478125 
L 404.697172 313.478125 
L 399.266985 313.478125 
z
" style="fill:#0066ff;"/>
   </g>
   <g id="patch_59">
    <path clip-path="url(#pc09aa6ad49)" d="M 405.300527 313.478125 
L 410.730714 313.478125 
L 410.730714 313.478125 
L 405.300527 313.478125 
z
" style="fill:#0066ff;"/>
   </g>
   <g id="patch_60">
    <path clip-path="url(#pc09aa6ad49)" d="M 411.334068 313.478125 
L 416.764255 313.478125 
L 416.764255 313.478125 
L 411.334068 313.478125 
z
" style="fill:#0066ff;"/>
   </g>
   <g id="patch_61">
    <path clip-path="url(#pc09aa6ad49)" d="M 417.367609 313.478125 
L 422.797796 313.478125 
L 422.797796 313.478125 
L 417.367609 313.478125 
z
" style="fill:#0066ff;"/>
   </g>
   <g id="patch_62">
    <path clip-path="url(#pc09aa6ad49)" d="M 423.40115 313.478125 
L 428.831337 313.478125 
L 428.831337 313.478125 
L 423.40115 313.478125 
z
" style="fill:#0066ff;"/>
   </g>
   <g id="patch_63">
    <path clip-path="url(#pc09aa6ad49)" d="M 429.434692 313.478125 
L 434.864879 313.478125 
L 434.864879 313.478125 
L 429.434692 313.478125 
z
" style="fill:#0066ff;"/>
   </g>
   <g id="patch_64">
    <path clip-path="url(#pc09aa6ad49)" d="M 435.468233 313.478125 
L 440.89842 313.478125 
L 440.89842 313.478125 
L 435.468233 313.478125 
z
" style="fill:#0066ff;"/>
   </g>
   <g id="patch_65">
    <path clip-path="url(#pc09aa6ad49)" d="M 441.501774 313.478125 
L 446.931961 313.478125 
L 446.931961 313.478125 
L 441.501774 313.478125 
z
" style="fill:#0066ff;"/>
   </g>
   <g id="patch_66">
    <path clip-path="url(#pc09aa6ad49)" d="M 447.535315 313.478125 
L 452.965503 313.478125 
L 452.965503 313.478125 
L 447.535315 313.478125 
z
" style="fill:#0066ff;"/>
   </g>
   <g id="patch_67">
    <path clip-path="url(#pc09aa6ad49)" d="M 453.568857 313.478125 
L 458.999044 313.478125 
L 458.999044 313.478125 
L 453.568857 313.478125 
z
" style="fill:#0066ff;"/>
   </g>
   <g id="patch_68">
    <path clip-path="url(#pc09aa6ad49)" d="M 459.602398 313.478125 
L 465.032585 313.478125 
L 465.032585 313.478125 
L 459.602398 313.478125 
z
" style="fill:#0066ff;"/>
   </g>
   <g id="patch_69">
    <path clip-path="url(#pc09aa6ad49)" d="M 465.635939 313.478125 
L 471.066126 313.478125 
L 471.066126 313.478125 
L 465.635939 313.478125 
z
" style="fill:#0066ff;"/>
   </g>
   <g id="patch_70">
    <path clip-path="url(#pc09aa6ad49)" d="M 471.66948 313.478125 
L 477.099668 313.478125 
L 477.099668 313.478125 
L 471.66948 313.478125 
z
" style="fill:#0066ff;"/>
   </g>
   <g id="patch_71">
    <path clip-path="url(#pc09aa6ad49)" d="M 477.703022 313.478125 
L 483.133209 313.478125 
L 483.133209 313.478125 
L 477.703022 313.478125 
z
" style="fill:#0066ff;"/>
   </g>
   <g id="patch_72">
    <path clip-path="url(#pc09aa6ad49)" d="M 483.736563 313.478125 
L 489.16675 313.478125 
L 489.16675 313.478125 
L 483.736563 313.478125 
z
" style="fill:#0066ff;"/>
   </g>
   <g id="patch_73">
    <path clip-path="url(#pc09aa6ad49)" d="M 489.770104 313.478125 
L 495.200291 313.478125 
L 495.200291 313.478125 
L 489.770104 313.478125 
z
" style="fill:#0066ff;"/>
   </g>
   <g id="patch_74">
    <path clip-path="url(#pc09aa6ad49)" d="M 495.803646 313.478125 
L 501.233833 313.478125 
L 501.233833 313.478125 
L 495.803646 313.478125 
z
" style="fill:#0066ff;"/>
   </g>
   <g id="patch_75">
    <path clip-path="url(#pc09aa6ad49)" d="M 501.837187 313.478125 
L 507.267374 313.478125 
L 507.267374 313.478125 
L 501.837187 313.478125 
z
" style="fill:#0066ff;"/>
   </g>
   <g id="patch_76">
    <path clip-path="url(#pc09aa6ad49)" d="M 507.870728 313.478125 
L 513.300915 313.478125 
L 513.300915 313.478125 
L 507.870728 313.478125 
z
" style="fill:#0066ff;"/>
   </g>
   <g id="patch_77">
    <path clip-path="url(#pc09aa6ad49)" d="M 513.904269 313.478125 
L 519.334456 313.478125 
L 519.334456 313.478125 
L 513.904269 313.478125 
z
" style="fill:#0066ff;"/>
   </g>
   <g id="patch_78">
    <path clip-path="url(#pc09aa6ad49)" d="M 519.937811 313.478125 
L 525.367998 313.478125 
L 525.367998 313.478125 
L 519.937811 313.478125 
z
" style="fill:#0066ff;"/>
   </g>
   <g id="patch_79">
    <path clip-path="url(#pc09aa6ad49)" d="M 525.971352 313.478125 
L 531.401539 313.478125 
L 531.401539 313.478125 
L 525.971352 313.478125 
z
" style="fill:#0066ff;"/>
   </g>
   <g id="patch_80">
    <path clip-path="url(#pc09aa6ad49)" d="M 532.004893 313.478125 
L 537.43508 313.478125 
L 537.43508 313.478125 
L 532.004893 313.478125 
z
" style="fill:#0066ff;"/>
   </g>
   <g id="patch_81">
    <path clip-path="url(#pc09aa6ad49)" d="M 538.038434 313.478125 
L 543.468621 313.478125 
L 543.468621 313.478125 
L 538.038434 313.478125 
z
" style="fill:#0066ff;"/>
   </g>
   <g id="patch_82">
    <path clip-path="url(#pc09aa6ad49)" d="M 544.071976 313.478125 
L 549.502163 313.478125 
L 549.502163 313.478125 
L 544.071976 313.478125 
z
" style="fill:#0066ff;"/>
   </g>
   <g id="patch_83">
    <path clip-path="url(#pc09aa6ad49)" d="M 550.105517 313.478125 
L 555.535704 313.478125 
L 555.535704 313.478125 
L 550.105517 313.478125 
z
" style="fill:#0066ff;"/>
   </g>
   <g id="patch_84">
    <path clip-path="url(#pc09aa6ad49)" d="M 556.139058 313.478125 
L 561.569245 313.478125 
L 561.569245 313.478125 
L 556.139058 313.478125 
z
" style="fill:#0066ff;"/>
   </g>
   <g id="patch_85">
    <path clip-path="url(#pc09aa6ad49)" d="M 562.172599 313.478125 
L 567.602787 313.478125 
L 567.602787 313.478125 
L 562.172599 313.478125 
z
" style="fill:#0066ff;"/>
   </g>
   <g id="patch_86">
    <path clip-path="url(#pc09aa6ad49)" d="M 568.206141 313.478125 
L 573.636328 313.478125 
L 573.636328 313.478125 
L 568.206141 313.478125 
z
" style="fill:#0066ff;"/>
   </g>
   <g id="patch_87">
    <path clip-path="url(#pc09aa6ad49)" d="M 574.239682 313.478125 
L 579.669869 313.478125 
L 579.669869 313.478125 
L 574.239682 313.478125 
z
" style="fill:#0066ff;"/>
   </g>
   <g id="patch_88">
    <path clip-path="url(#pc09aa6ad49)" d="M 580.273223 313.478125 
L 585.70341 313.478125 
L 585.70341 313.478125 
L 580.273223 313.478125 
z
" style="fill:#0066ff;"/>
   </g>
   <g id="patch_89">
    <path clip-path="url(#pc09aa6ad49)" d="M 586.306764 313.478125 
L 591.736952 313.478125 
L 591.736952 313.478125 
L 586.306764 313.478125 
z
" style="fill:#0066ff;"/>
   </g>
   <g id="patch_90">
    <path clip-path="url(#pc09aa6ad49)" d="M 592.340306 313.478125 
L 597.770493 313.478125 
L 597.770493 313.478125 
L 592.340306 313.478125 
z
" style="fill:#0066ff;"/>
   </g>
   <g id="patch_91">
    <path clip-path="url(#pc09aa6ad49)" d="M 598.373847 313.478125 
L 603.804034 313.478125 
L 603.804034 313.478125 
L 598.373847 313.478125 
z
" style="fill:#0066ff;"/>
   </g>
   <g id="matplotlib.axis_1">
    <g id="xtick_1">
     <g id="line2d_1">
      <defs>
       <path d="M 0 0 
L 0 3.5 
" id="mc024099e3e" style="stroke:#000000;stroke-width:0.8;"/>
      </defs>
      <g>
       <use style="stroke:#000000;stroke-width:0.8;" x="64.103768" xlink:href="#mc024099e3e" y="313.478125"/>
      </g>
     </g>
     <g id="text_1">
      <!-- 0 -->
      <defs>
       <path d="M 31.78125 66.40625 
Q 24.171875 66.40625 20.328125 58.90625 
Q 16.5 51.421875 16.5 36.375 
Q 16.5 21.390625 20.328125 13.890625 
Q 24.171875 6.390625 31.78125 6.390625 
Q 39.453125 6.390625 43.28125 13.890625 
Q 47.125 21.390625 47.125 36.375 
Q 47.125 51.421875 43.28125 58.90625 
Q 39.453125 66.40625 31.78125 66.40625 
z
M 31.78125 74.21875 
Q 44.046875 74.21875 50.515625 64.515625 
Q 56.984375 54.828125 56.984375 36.375 
Q 56.984375 17.96875 50.515625 8.265625 
Q 44.046875 -1.421875 31.78125 -1.421875 
Q 19.53125 -1.421875 13.0625 8.265625 
Q 6.59375 17.96875 6.59375 36.375 
Q 6.59375 54.828125 13.0625 64.515625 
Q 19.53125 74.21875 31.78125 74.21875 
z
" id="DejaVuSans-30"/>
      </defs>
      <g transform="translate(60.922518 328.076563)scale(0.1 -0.1)">
       <use xlink:href="#DejaVuSans-30"/>
      </g>
     </g>
    </g>
    <g id="xtick_2">
     <g id="line2d_2">
      <g>
       <use style="stroke:#000000;stroke-width:0.8;" x="184.774593" xlink:href="#mc024099e3e" y="313.478125"/>
      </g>
     </g>
     <g id="text_2">
      <!-- 20 -->
      <defs>
       <path d="M 19.1875 8.296875 
L 53.609375 8.296875 
L 53.609375 0 
L 7.328125 0 
L 7.328125 8.296875 
Q 12.9375 14.109375 22.625 23.890625 
Q 32.328125 33.6875 34.8125 36.53125 
Q 39.546875 41.84375 41.421875 45.53125 
Q 43.3125 49.21875 43.3125 52.78125 
Q 43.3125 58.59375 39.234375 62.25 
Q 35.15625 65.921875 28.609375 65.921875 
Q 23.96875 65.921875 18.8125 64.3125 
Q 13.671875 62.703125 7.8125 59.421875 
L 7.8125 69.390625 
Q 13.765625 71.78125 18.9375 73 
Q 24.125 74.21875 28.421875 74.21875 
Q 39.75 74.21875 46.484375 68.546875 
Q 53.21875 62.890625 53.21875 53.421875 
Q 53.21875 48.921875 51.53125 44.890625 
Q 49.859375 40.875 45.40625 35.40625 
Q 44.1875 33.984375 37.640625 27.21875 
Q 31.109375 20.453125 19.1875 8.296875 
z
" id="DejaVuSans-32"/>
      </defs>
      <g transform="translate(178.412093 328.076563)scale(0.1 -0.1)">
       <use xlink:href="#DejaVuSans-32"/>
       <use x="63.623047" xlink:href="#DejaVuSans-30"/>
      </g>
     </g>
    </g>
    <g id="xtick_3">
     <g id="line2d_3">
      <g>
       <use style="stroke:#000000;stroke-width:0.8;" x="305.445419" xlink:href="#mc024099e3e" y="313.478125"/>
      </g>
     </g>
     <g id="text_3">
      <!-- 40 -->
      <defs>
       <path d="M 37.796875 64.3125 
L 12.890625 25.390625 
L 37.796875 25.390625 
z
M 35.203125 72.90625 
L 47.609375 72.90625 
L 47.609375 25.390625 
L 58.015625 25.390625 
L 58.015625 17.1875 
L 47.609375 17.1875 
L 47.609375 0 
L 37.796875 0 
L 37.796875 17.1875 
L 4.890625 17.1875 
L 4.890625 26.703125 
z
" id="DejaVuSans-34"/>
      </defs>
      <g transform="translate(299.082919 328.076563)scale(0.1 -0.1)">
       <use xlink:href="#DejaVuSans-34"/>
       <use x="63.623047" xlink:href="#DejaVuSans-30"/>
      </g>
     </g>
    </g>
    <g id="xtick_4">
     <g id="line2d_4">
      <g>
       <use style="stroke:#000000;stroke-width:0.8;" x="426.116244" xlink:href="#mc024099e3e" y="313.478125"/>
      </g>
     </g>
     <g id="text_4">
      <!-- 60 -->
      <defs>
       <path d="M 33.015625 40.375 
Q 26.375 40.375 22.484375 35.828125 
Q 18.609375 31.296875 18.609375 23.390625 
Q 18.609375 15.53125 22.484375 10.953125 
Q 26.375 6.390625 33.015625 6.390625 
Q 39.65625 6.390625 43.53125 10.953125 
Q 47.40625 15.53125 47.40625 23.390625 
Q 47.40625 31.296875 43.53125 35.828125 
Q 39.65625 40.375 33.015625 40.375 
z
M 52.59375 71.296875 
L 52.59375 62.3125 
Q 48.875 64.0625 45.09375 64.984375 
Q 41.3125 65.921875 37.59375 65.921875 
Q 27.828125 65.921875 22.671875 59.328125 
Q 17.53125 52.734375 16.796875 39.40625 
Q 19.671875 43.65625 24.015625 45.921875 
Q 28.375 48.1875 33.59375 48.1875 
Q 44.578125 48.1875 50.953125 41.515625 
Q 57.328125 34.859375 57.328125 23.390625 
Q 57.328125 12.15625 50.6875 5.359375 
Q 44.046875 -1.421875 33.015625 -1.421875 
Q 20.359375 -1.421875 13.671875 8.265625 
Q 6.984375 17.96875 6.984375 36.375 
Q 6.984375 53.65625 15.1875 63.9375 
Q 23.390625 74.21875 37.203125 74.21875 
Q 40.921875 74.21875 44.703125 73.484375 
Q 48.484375 72.75 52.59375 71.296875 
z
" id="DejaVuSans-36"/>
      </defs>
      <g transform="translate(419.753744 328.076563)scale(0.1 -0.1)">
       <use xlink:href="#DejaVuSans-36"/>
       <use x="63.623047" xlink:href="#DejaVuSans-30"/>
      </g>
     </g>
    </g>
    <g id="xtick_5">
     <g id="line2d_5">
      <g>
       <use style="stroke:#000000;stroke-width:0.8;" x="546.787069" xlink:href="#mc024099e3e" y="313.478125"/>
      </g>
     </g>
     <g id="text_5">
      <!-- 80 -->
      <defs>
       <path d="M 31.78125 34.625 
Q 24.75 34.625 20.71875 30.859375 
Q 16.703125 27.09375 16.703125 20.515625 
Q 16.703125 13.921875 20.71875 10.15625 
Q 24.75 6.390625 31.78125 6.390625 
Q 38.8125 6.390625 42.859375 10.171875 
Q 46.921875 13.96875 46.921875 20.515625 
Q 46.921875 27.09375 42.890625 30.859375 
Q 38.875 34.625 31.78125 34.625 
z
M 21.921875 38.8125 
Q 15.578125 40.375 12.03125 44.71875 
Q 8.5 49.078125 8.5 55.328125 
Q 8.5 64.0625 14.71875 69.140625 
Q 20.953125 74.21875 31.78125 74.21875 
Q 42.671875 74.21875 48.875 69.140625 
Q 55.078125 64.0625 55.078125 55.328125 
Q 55.078125 49.078125 51.53125 44.71875 
Q 48 40.375 41.703125 38.8125 
Q 48.828125 37.15625 52.796875 32.3125 
Q 56.78125 27.484375 56.78125 20.515625 
Q 56.78125 9.90625 50.3125 4.234375 
Q 43.84375 -1.421875 31.78125 -1.421875 
Q 19.734375 -1.421875 13.25 4.234375 
Q 6.78125 9.90625 6.78125 20.515625 
Q 6.78125 27.484375 10.78125 32.3125 
Q 14.796875 37.15625 21.921875 38.8125 
z
M 18.3125 54.390625 
Q 18.3125 48.734375 21.84375 45.5625 
Q 25.390625 42.390625 31.78125 42.390625 
Q 38.140625 42.390625 41.71875 45.5625 
Q 45.3125 48.734375 45.3125 54.390625 
Q 45.3125 60.0625 41.71875 63.234375 
Q 38.140625 66.40625 31.78125 66.40625 
Q 25.390625 66.40625 21.84375 63.234375 
Q 18.3125 60.0625 18.3125 54.390625 
z
" id="DejaVuSans-38"/>
      </defs>
      <g transform="translate(540.424569 328.076563)scale(0.1 -0.1)">
       <use xlink:href="#DejaVuSans-38"/>
       <use x="63.623047" xlink:href="#DejaVuSans-30"/>
      </g>
     </g>
    </g>
    <g id="text_6">
     <!-- Angles -->
     <defs>
      <path d="M 34.1875 63.1875 
L 20.796875 26.90625 
L 47.609375 26.90625 
z
M 28.609375 72.90625 
L 39.796875 72.90625 
L 67.578125 0 
L 57.328125 0 
L 50.6875 18.703125 
L 17.828125 18.703125 
L 11.1875 0 
L 0.78125 0 
z
" id="DejaVuSans-41"/>
      <path d="M 54.890625 33.015625 
L 54.890625 0 
L 45.90625 0 
L 45.90625 32.71875 
Q 45.90625 40.484375 42.875 44.328125 
Q 39.84375 48.1875 33.796875 48.1875 
Q 26.515625 48.1875 22.3125 43.546875 
Q 18.109375 38.921875 18.109375 30.90625 
L 18.109375 0 
L 9.078125 0 
L 9.078125 54.6875 
L 18.109375 54.6875 
L 18.109375 46.1875 
Q 21.34375 51.125 25.703125 53.5625 
Q 30.078125 56 35.796875 56 
Q 45.21875 56 50.046875 50.171875 
Q 54.890625 44.34375 54.890625 33.015625 
z
" id="DejaVuSans-6e"/>
      <path d="M 45.40625 27.984375 
Q 45.40625 37.75 41.375 43.109375 
Q 37.359375 48.484375 30.078125 48.484375 
Q 22.859375 48.484375 18.828125 43.109375 
Q 14.796875 37.75 14.796875 27.984375 
Q 14.796875 18.265625 18.828125 12.890625 
Q 22.859375 7.515625 30.078125 7.515625 
Q 37.359375 7.515625 41.375 12.890625 
Q 45.40625 18.265625 45.40625 27.984375 
z
M 54.390625 6.78125 
Q 54.390625 -7.171875 48.1875 -13.984375 
Q 42 -20.796875 29.203125 -20.796875 
Q 24.46875 -20.796875 20.265625 -20.09375 
Q 16.0625 -19.390625 12.109375 -17.921875 
L 12.109375 -9.1875 
Q 16.0625 -11.328125 19.921875 -12.34375 
Q 23.78125 -13.375 27.78125 -13.375 
Q 36.625 -13.375 41.015625 -8.765625 
Q 45.40625 -4.15625 45.40625 5.171875 
L 45.40625 9.625 
Q 42.625 4.78125 38.28125 2.390625 
Q 33.9375 0 27.875 0 
Q 17.828125 0 11.671875 7.65625 
Q 5.515625 15.328125 5.515625 27.984375 
Q 5.515625 40.671875 11.671875 48.328125 
Q 17.828125 56 27.875 56 
Q 33.9375 56 38.28125 53.609375 
Q 42.625 51.21875 45.40625 46.390625 
L 45.40625 54.6875 
L 54.390625 54.6875 
z
" id="DejaVuSans-67"/>
      <path d="M 9.421875 75.984375 
L 18.40625 75.984375 
L 18.40625 0 
L 9.421875 0 
z
" id="DejaVuSans-6c"/>
      <path d="M 56.203125 29.59375 
L 56.203125 25.203125 
L 14.890625 25.203125 
Q 15.484375 15.921875 20.484375 11.0625 
Q 25.484375 6.203125 34.421875 6.203125 
Q 39.59375 6.203125 44.453125 7.46875 
Q 49.3125 8.734375 54.109375 11.28125 
L 54.109375 2.78125 
Q 49.265625 0.734375 44.1875 -0.34375 
Q 39.109375 -1.421875 33.890625 -1.421875 
Q 20.796875 -1.421875 13.15625 6.1875 
Q 5.515625 13.8125 5.515625 26.8125 
Q 5.515625 40.234375 12.765625 48.109375 
Q 20.015625 56 32.328125 56 
Q 43.359375 56 49.78125 48.890625 
Q 56.203125 41.796875 56.203125 29.59375 
z
M 47.21875 32.234375 
Q 47.125 39.59375 43.09375 43.984375 
Q 39.0625 48.390625 32.421875 48.390625 
Q 24.90625 48.390625 20.390625 44.140625 
Q 15.875 39.890625 15.1875 32.171875 
z
" id="DejaVuSans-65"/>
      <path d="M 44.28125 53.078125 
L 44.28125 44.578125 
Q 40.484375 46.53125 36.375 47.5 
Q 32.28125 48.484375 27.875 48.484375 
Q 21.1875 48.484375 17.84375 46.4375 
Q 14.5 44.390625 14.5 40.28125 
Q 14.5 37.15625 16.890625 35.375 
Q 19.28125 33.59375 26.515625 31.984375 
L 29.59375 31.296875 
Q 39.15625 29.25 43.1875 25.515625 
Q 47.21875 21.78125 47.21875 15.09375 
Q 47.21875 7.46875 41.1875 3.015625 
Q 35.15625 -1.421875 24.609375 -1.421875 
Q 20.21875 -1.421875 15.453125 -0.5625 
Q 10.6875 0.296875 5.421875 2 
L 5.421875 11.28125 
Q 10.40625 8.6875 15.234375 7.390625 
Q 20.0625 6.109375 24.8125 6.109375 
Q 31.15625 6.109375 34.5625 8.28125 
Q 37.984375 10.453125 37.984375 14.40625 
Q 37.984375 18.0625 35.515625 20.015625 
Q 33.0625 21.96875 24.703125 23.78125 
L 21.578125 24.515625 
Q 13.234375 26.265625 9.515625 29.90625 
Q 5.8125 33.546875 5.8125 39.890625 
Q 5.8125 47.609375 11.28125 51.796875 
Q 16.75 56 26.8125 56 
Q 31.78125 56 36.171875 55.265625 
Q 40.578125 54.546875 44.28125 53.078125 
z
" id="DejaVuSans-73"/>
     </defs>
     <g transform="translate(318.779531 341.754687)scale(0.1 -0.1)">
      <use xlink:href="#DejaVuSans-41"/>
      <use x="68.408203" xlink:href="#DejaVuSans-6e"/>
      <use x="131.787109" xlink:href="#DejaVuSans-67"/>
      <use x="195.263672" xlink:href="#DejaVuSans-6c"/>
      <use x="223.046875" xlink:href="#DejaVuSans-65"/>
      <use x="284.570312" xlink:href="#DejaVuSans-73"/>
     </g>
    </g>
   </g>
   <g id="matplotlib.axis_2">
    <g id="ytick_1">
     <g id="line2d_6">
      <defs>
       <path d="M 0 0 
L -3.5 0 
" id="m42afbac043" style="stroke:#000000;stroke-width:0.8;"/>
      </defs>
      <g>
       <use style="stroke:#000000;stroke-width:0.8;" x="40.603125" xlink:href="#m42afbac043" y="313.478125"/>
      </g>
     </g>
     <g id="text_7">
      <!-- 0 -->
      <g transform="translate(27.240625 317.277344)scale(0.1 -0.1)">
       <use xlink:href="#DejaVuSans-30"/>
      </g>
     </g>
    </g>
    <g id="ytick_2">
     <g id="line2d_7">
      <g>
       <use style="stroke:#000000;stroke-width:0.8;" x="40.603125" xlink:href="#m42afbac043" y="278.81622"/>
      </g>
     </g>
     <g id="text_8">
      <!-- 2 -->
      <g transform="translate(27.240625 282.615439)scale(0.1 -0.1)">
       <use xlink:href="#DejaVuSans-32"/>
      </g>
     </g>
    </g>
    <g id="ytick_3">
     <g id="line2d_8">
      <g>
       <use style="stroke:#000000;stroke-width:0.8;" x="40.603125" xlink:href="#m42afbac043" y="244.154315"/>
      </g>
     </g>
     <g id="text_9">
      <!-- 4 -->
      <g transform="translate(27.240625 247.953534)scale(0.1 -0.1)">
       <use xlink:href="#DejaVuSans-34"/>
      </g>
     </g>
    </g>
    <g id="ytick_4">
     <g id="line2d_9">
      <g>
       <use style="stroke:#000000;stroke-width:0.8;" x="40.603125" xlink:href="#m42afbac043" y="209.492411"/>
      </g>
     </g>
     <g id="text_10">
      <!-- 6 -->
      <g transform="translate(27.240625 213.291629)scale(0.1 -0.1)">
       <use xlink:href="#DejaVuSans-36"/>
      </g>
     </g>
    </g>
    <g id="ytick_5">
     <g id="line2d_10">
      <g>
       <use style="stroke:#000000;stroke-width:0.8;" x="40.603125" xlink:href="#m42afbac043" y="174.830506"/>
      </g>
     </g>
     <g id="text_11">
      <!-- 8 -->
      <g transform="translate(27.240625 178.629725)scale(0.1 -0.1)">
       <use xlink:href="#DejaVuSans-38"/>
      </g>
     </g>
    </g>
    <g id="ytick_6">
     <g id="line2d_11">
      <g>
       <use style="stroke:#000000;stroke-width:0.8;" x="40.603125" xlink:href="#m42afbac043" y="140.168601"/>
      </g>
     </g>
     <g id="text_12">
      <!-- 10 -->
      <defs>
       <path d="M 12.40625 8.296875 
L 28.515625 8.296875 
L 28.515625 63.921875 
L 10.984375 60.40625 
L 10.984375 69.390625 
L 28.421875 72.90625 
L 38.28125 72.90625 
L 38.28125 8.296875 
L 54.390625 8.296875 
L 54.390625 0 
L 12.40625 0 
z
" id="DejaVuSans-31"/>
      </defs>
      <g transform="translate(20.878125 143.96782)scale(0.1 -0.1)">
       <use xlink:href="#DejaVuSans-31"/>
       <use x="63.623047" xlink:href="#DejaVuSans-30"/>
      </g>
     </g>
    </g>
    <g id="ytick_7">
     <g id="line2d_12">
      <g>
       <use style="stroke:#000000;stroke-width:0.8;" x="40.603125" xlink:href="#m42afbac043" y="105.506696"/>
      </g>
     </g>
     <g id="text_13">
      <!-- 12 -->
      <g transform="translate(20.878125 109.305915)scale(0.1 -0.1)">
       <use xlink:href="#DejaVuSans-31"/>
       <use x="63.623047" xlink:href="#DejaVuSans-32"/>
      </g>
     </g>
    </g>
    <g id="ytick_8">
     <g id="line2d_13">
      <g>
       <use style="stroke:#000000;stroke-width:0.8;" x="40.603125" xlink:href="#m42afbac043" y="70.844792"/>
      </g>
     </g>
     <g id="text_14">
      <!-- 14 -->
      <g transform="translate(20.878125 74.64401)scale(0.1 -0.1)">
       <use xlink:href="#DejaVuSans-31"/>
       <use x="63.623047" xlink:href="#DejaVuSans-34"/>
      </g>
     </g>
    </g>
    <g id="ytick_9">
     <g id="line2d_14">
      <g>
       <use style="stroke:#000000;stroke-width:0.8;" x="40.603125" xlink:href="#m42afbac043" y="36.182887"/>
      </g>
     </g>
     <g id="text_15">
      <!-- 16 -->
      <g transform="translate(20.878125 39.982106)scale(0.1 -0.1)">
       <use xlink:href="#DejaVuSans-31"/>
       <use x="63.623047" xlink:href="#DejaVuSans-36"/>
      </g>
     </g>
    </g>
    <g id="text_16">
     <!-- Rate -->
     <defs>
      <path d="M 44.390625 34.1875 
Q 47.5625 33.109375 50.5625 29.59375 
Q 53.5625 26.078125 56.59375 19.921875 
L 66.609375 0 
L 56 0 
L 46.6875 18.703125 
Q 43.0625 26.03125 39.671875 28.421875 
Q 36.28125 30.8125 30.421875 30.8125 
L 19.671875 30.8125 
L 19.671875 0 
L 9.8125 0 
L 9.8125 72.90625 
L 32.078125 72.90625 
Q 44.578125 72.90625 50.734375 67.671875 
Q 56.890625 62.453125 56.890625 51.90625 
Q 56.890625 45.015625 53.6875 40.46875 
Q 50.484375 35.9375 44.390625 34.1875 
z
M 19.671875 64.796875 
L 19.671875 38.921875 
L 32.078125 38.921875 
Q 39.203125 38.921875 42.84375 42.21875 
Q 46.484375 45.515625 46.484375 51.90625 
Q 46.484375 58.296875 42.84375 61.546875 
Q 39.203125 64.796875 32.078125 64.796875 
z
" id="DejaVuSans-52"/>
      <path d="M 34.28125 27.484375 
Q 23.390625 27.484375 19.1875 25 
Q 14.984375 22.515625 14.984375 16.5 
Q 14.984375 11.71875 18.140625 8.90625 
Q 21.296875 6.109375 26.703125 6.109375 
Q 34.1875 6.109375 38.703125 11.40625 
Q 43.21875 16.703125 43.21875 25.484375 
L 43.21875 27.484375 
z
M 52.203125 31.203125 
L 52.203125 0 
L 43.21875 0 
L 43.21875 8.296875 
Q 40.140625 3.328125 35.546875 0.953125 
Q 30.953125 -1.421875 24.3125 -1.421875 
Q 15.921875 -1.421875 10.953125 3.296875 
Q 6 8.015625 6 15.921875 
Q 6 25.140625 12.171875 29.828125 
Q 18.359375 34.515625 30.609375 34.515625 
L 43.21875 34.515625 
L 43.21875 35.40625 
Q 43.21875 41.609375 39.140625 45 
Q 35.0625 48.390625 27.6875 48.390625 
Q 23 48.390625 18.546875 47.265625 
Q 14.109375 46.140625 10.015625 43.890625 
L 10.015625 52.203125 
Q 14.9375 54.109375 19.578125 55.046875 
Q 24.21875 56 28.609375 56 
Q 40.484375 56 46.34375 49.84375 
Q 52.203125 43.703125 52.203125 31.203125 
z
" id="DejaVuSans-61"/>
      <path d="M 18.3125 70.21875 
L 18.3125 54.6875 
L 36.8125 54.6875 
L 36.8125 47.703125 
L 18.3125 47.703125 
L 18.3125 18.015625 
Q 18.3125 11.328125 20.140625 9.421875 
Q 21.96875 7.515625 27.59375 7.515625 
L 36.8125 7.515625 
L 36.8125 0 
L 27.59375 0 
Q 17.1875 0 13.234375 3.875 
Q 9.28125 7.765625 9.28125 18.015625 
L 9.28125 47.703125 
L 2.6875 47.703125 
L 2.6875 54.6875 
L 9.28125 54.6875 
L 9.28125 70.21875 
z
" id="DejaVuSans-74"/>
     </defs>
     <g transform="translate(14.798438 179.471563)rotate(-90)scale(0.1 -0.1)">
      <use xlink:href="#DejaVuSans-52"/>
      <use x="69.451172" xlink:href="#DejaVuSans-61"/>
      <use x="130.730469" xlink:href="#DejaVuSans-74"/>
      <use x="169.939453" xlink:href="#DejaVuSans-65"/>
     </g>
    </g>
   </g>
   <g id="patch_92">
    <path d="M 40.603125 313.478125 
L 40.603125 22.318125 
" style="fill:none;stroke:#000000;stroke-linecap:square;stroke-linejoin:miter;stroke-width:0.8;"/>
   </g>
   <g id="patch_93">
    <path d="M 630.623125 313.478125 
L 630.623125 22.318125 
" style="fill:none;stroke:#000000;stroke-linecap:square;stroke-linejoin:miter;stroke-width:0.8;"/>
   </g>
   <g id="patch_94">
    <path d="M 40.603125 313.478125 
L 630.623125 313.478125 
" style="fill:none;stroke:#000000;stroke-linecap:square;stroke-linejoin:miter;stroke-width:0.8;"/>
   </g>
   <g id="patch_95">
    <path d="M 40.603125 22.318125 
L 630.623125 22.318125 
" style="fill:none;stroke:#000000;stroke-linecap:square;stroke-linejoin:miter;stroke-width:0.8;"/>
   </g>
   <g id="text_17">
    <!-- Inherent opinion rate [45, 47, 48, 46] -->
    <defs>
     <path d="M 9.8125 72.90625 
L 19.671875 72.90625 
L 19.671875 0 
L 9.8125 0 
z
" id="DejaVuSans-49"/>
     <path d="M 54.890625 33.015625 
L 54.890625 0 
L 45.90625 0 
L 45.90625 32.71875 
Q 45.90625 40.484375 42.875 44.328125 
Q 39.84375 48.1875 33.796875 48.1875 
Q 26.515625 48.1875 22.3125 43.546875 
Q 18.109375 38.921875 18.109375 30.90625 
L 18.109375 0 
L 9.078125 0 
L 9.078125 75.984375 
L 18.109375 75.984375 
L 18.109375 46.1875 
Q 21.34375 51.125 25.703125 53.5625 
Q 30.078125 56 35.796875 56 
Q 45.21875 56 50.046875 50.171875 
Q 54.890625 44.34375 54.890625 33.015625 
z
" id="DejaVuSans-68"/>
     <path d="M 41.109375 46.296875 
Q 39.59375 47.171875 37.8125 47.578125 
Q 36.03125 48 33.890625 48 
Q 26.265625 48 22.1875 43.046875 
Q 18.109375 38.09375 18.109375 28.8125 
L 18.109375 0 
L 9.078125 0 
L 9.078125 54.6875 
L 18.109375 54.6875 
L 18.109375 46.1875 
Q 20.953125 51.171875 25.484375 53.578125 
Q 30.03125 56 36.53125 56 
Q 37.453125 56 38.578125 55.875 
Q 39.703125 55.765625 41.0625 55.515625 
z
" id="DejaVuSans-72"/>
     <path id="DejaVuSans-20"/>
     <path d="M 30.609375 48.390625 
Q 23.390625 48.390625 19.1875 42.75 
Q 14.984375 37.109375 14.984375 27.296875 
Q 14.984375 17.484375 19.15625 11.84375 
Q 23.34375 6.203125 30.609375 6.203125 
Q 37.796875 6.203125 41.984375 11.859375 
Q 46.1875 17.53125 46.1875 27.296875 
Q 46.1875 37.015625 41.984375 42.703125 
Q 37.796875 48.390625 30.609375 48.390625 
z
M 30.609375 56 
Q 42.328125 56 49.015625 48.375 
Q 55.71875 40.765625 55.71875 27.296875 
Q 55.71875 13.875 49.015625 6.21875 
Q 42.328125 -1.421875 30.609375 -1.421875 
Q 18.84375 -1.421875 12.171875 6.21875 
Q 5.515625 13.875 5.515625 27.296875 
Q 5.515625 40.765625 12.171875 48.375 
Q 18.84375 56 30.609375 56 
z
" id="DejaVuSans-6f"/>
     <path d="M 18.109375 8.203125 
L 18.109375 -20.796875 
L 9.078125 -20.796875 
L 9.078125 54.6875 
L 18.109375 54.6875 
L 18.109375 46.390625 
Q 20.953125 51.265625 25.265625 53.625 
Q 29.59375 56 35.59375 56 
Q 45.5625 56 51.78125 48.09375 
Q 58.015625 40.1875 58.015625 27.296875 
Q 58.015625 14.40625 51.78125 6.484375 
Q 45.5625 -1.421875 35.59375 -1.421875 
Q 29.59375 -1.421875 25.265625 0.953125 
Q 20.953125 3.328125 18.109375 8.203125 
z
M 48.6875 27.296875 
Q 48.6875 37.203125 44.609375 42.84375 
Q 40.53125 48.484375 33.40625 48.484375 
Q 26.265625 48.484375 22.1875 42.84375 
Q 18.109375 37.203125 18.109375 27.296875 
Q 18.109375 17.390625 22.1875 11.75 
Q 26.265625 6.109375 33.40625 6.109375 
Q 40.53125 6.109375 44.609375 11.75 
Q 48.6875 17.390625 48.6875 27.296875 
z
" id="DejaVuSans-70"/>
     <path d="M 9.421875 54.6875 
L 18.40625 54.6875 
L 18.40625 0 
L 9.421875 0 
z
M 9.421875 75.984375 
L 18.40625 75.984375 
L 18.40625 64.59375 
L 9.421875 64.59375 
z
" id="DejaVuSans-69"/>
     <path d="M 8.59375 75.984375 
L 29.296875 75.984375 
L 29.296875 69 
L 17.578125 69 
L 17.578125 -6.203125 
L 29.296875 -6.203125 
L 29.296875 -13.1875 
L 8.59375 -13.1875 
z
" id="DejaVuSans-5b"/>
     <path d="M 10.796875 72.90625 
L 49.515625 72.90625 
L 49.515625 64.59375 
L 19.828125 64.59375 
L 19.828125 46.734375 
Q 21.96875 47.46875 24.109375 47.828125 
Q 26.265625 48.1875 28.421875 48.1875 
Q 40.625 48.1875 47.75 41.5 
Q 54.890625 34.8125 54.890625 23.390625 
Q 54.890625 11.625 47.5625 5.09375 
Q 40.234375 -1.421875 26.90625 -1.421875 
Q 22.3125 -1.421875 17.546875 -0.640625 
Q 12.796875 0.140625 7.71875 1.703125 
L 7.71875 11.625 
Q 12.109375 9.234375 16.796875 8.0625 
Q 21.484375 6.890625 26.703125 6.890625 
Q 35.15625 6.890625 40.078125 11.328125 
Q 45.015625 15.765625 45.015625 23.390625 
Q 45.015625 31 40.078125 35.4375 
Q 35.15625 39.890625 26.703125 39.890625 
Q 22.75 39.890625 18.8125 39.015625 
Q 14.890625 38.140625 10.796875 36.28125 
z
" id="DejaVuSans-35"/>
     <path d="M 11.71875 12.40625 
L 22.015625 12.40625 
L 22.015625 4 
L 14.015625 -11.625 
L 7.71875 -11.625 
L 11.71875 4 
z
" id="DejaVuSans-2c"/>
     <path d="M 8.203125 72.90625 
L 55.078125 72.90625 
L 55.078125 68.703125 
L 28.609375 0 
L 18.3125 0 
L 43.21875 64.59375 
L 8.203125 64.59375 
z
" id="DejaVuSans-37"/>
     <path d="M 30.421875 75.984375 
L 30.421875 -13.1875 
L 9.71875 -13.1875 
L 9.71875 -6.203125 
L 21.390625 -6.203125 
L 21.390625 69 
L 9.71875 69 
L 9.71875 75.984375 
z
" id="DejaVuSans-5d"/>
    </defs>
    <g transform="translate(223.573437 16.318125)scale(0.12 -0.12)">
     <use xlink:href="#DejaVuSans-49"/>
     <use x="29.492188" xlink:href="#DejaVuSans-6e"/>
     <use x="92.871094" xlink:href="#DejaVuSans-68"/>
     <use x="156.25" xlink:href="#DejaVuSans-65"/>
     <use x="217.773438" xlink:href="#DejaVuSans-72"/>
     <use x="258.855469" xlink:href="#DejaVuSans-65"/>
     <use x="320.378906" xlink:href="#DejaVuSans-6e"/>
     <use x="383.757812" xlink:href="#DejaVuSans-74"/>
     <use x="422.966797" xlink:href="#DejaVuSans-20"/>
     <use x="454.753906" xlink:href="#DejaVuSans-6f"/>
     <use x="515.935547" xlink:href="#DejaVuSans-70"/>
     <use x="579.412109" xlink:href="#DejaVuSans-69"/>
     <use x="607.195312" xlink:href="#DejaVuSans-6e"/>
     <use x="670.574219" xlink:href="#DejaVuSans-69"/>
     <use x="698.357422" xlink:href="#DejaVuSans-6f"/>
     <use x="759.539062" xlink:href="#DejaVuSans-6e"/>
     <use x="822.917969" xlink:href="#DejaVuSans-20"/>
     <use x="854.705078" xlink:href="#DejaVuSans-72"/>
     <use x="895.818359" xlink:href="#DejaVuSans-61"/>
     <use x="957.097656" xlink:href="#DejaVuSans-74"/>
     <use x="996.306641" xlink:href="#DejaVuSans-65"/>
     <use x="1057.830078" xlink:href="#DejaVuSans-20"/>
     <use x="1089.617188" xlink:href="#DejaVuSans-5b"/>
     <use x="1128.630859" xlink:href="#DejaVuSans-34"/>
     <use x="1192.253906" xlink:href="#DejaVuSans-35"/>
     <use x="1255.876953" xlink:href="#DejaVuSans-2c"/>
     <use x="1287.664062" xlink:href="#DejaVuSans-20"/>
     <use x="1319.451172" xlink:href="#DejaVuSans-34"/>
     <use x="1383.074219" xlink:href="#DejaVuSans-37"/>
     <use x="1446.697266" xlink:href="#DejaVuSans-2c"/>
     <use x="1478.484375" xlink:href="#DejaVuSans-20"/>
     <use x="1510.271484" xlink:href="#DejaVuSans-34"/>
     <use x="1573.894531" xlink:href="#DejaVuSans-38"/>
     <use x="1637.517578" xlink:href="#DejaVuSans-2c"/>
     <use x="1669.304688" xlink:href="#DejaVuSans-20"/>
     <use x="1701.091797" xlink:href="#DejaVuSans-34"/>
     <use x="1764.714844" xlink:href="#DejaVuSans-36"/>
     <use x="1828.337891" xlink:href="#DejaVuSans-5d"/>
    </g>
   </g>
  </g>
 </g>
 <defs>
  <clipPath id="pc09aa6ad49">
   <rect height="291.16" width="590.02" x="40.603125" y="22.318125"/>
  </clipPath>
 </defs>
</svg>
