<?xml version="1.0" encoding="utf-8" standalone="no"?>
<!DOCTYPE svg PUBLIC "-//W3C//DTD SVG 1.1//EN"
  "http://www.w3.org/Graphics/SVG/1.1/DTD/svg11.dtd">
<!-- Created with matplotlib (http://matplotlib.org/) -->
<svg height="351.034375pt" version="1.1" viewBox="0 0 641.413125 351.034375" width="641.413125pt" xmlns="http://www.w3.org/2000/svg" xmlns:xlink="http://www.w3.org/1999/xlink">
 <defs>
  <style type="text/css">
*{stroke-linecap:butt;stroke-linejoin:round;}
  </style>
 </defs>
 <g id="figure_1">
  <g id="patch_1">
   <path d="M 0 351.034375 
L 641.413125 351.034375 
L 641.413125 0 
L 0 0 
z
" style="fill:#ffffff;"/>
  </g>
  <g id="axes_1">
   <g id="patch_2">
    <path d="M 40.603125 313.478125 
L 630.713125 313.478125 
L 630.713125 22.318125 
L 40.603125 22.318125 
z
" style="fill:#ffffff;"/>
   </g>
   <g id="patch_3">
    <path clip-path="url(#p578a6a739b)" d="M 67.426307 313.478125 
L 72.857322 313.478125 
L 72.857322 36.182887 
L 67.426307 36.182887 
z
" style="fill:#0066ff;"/>
   </g>
   <g id="patch_4">
    <path clip-path="url(#p578a6a739b)" d="M 73.460768 313.478125 
L 78.891784 313.478125 
L 78.891784 36.182887 
L 73.460768 36.182887 
z
" style="fill:#0066ff;"/>
   </g>
   <g id="patch_5">
    <path clip-path="url(#p578a6a739b)" d="M 79.49523 313.478125 
L 84.926245 313.478125 
L 84.926245 36.182887 
L 79.49523 36.182887 
z
" style="fill:#0066ff;"/>
   </g>
   <g id="patch_6">
    <path clip-path="url(#p578a6a739b)" d="M 85.529692 313.478125 
L 90.960707 313.478125 
L 90.960707 36.182887 
L 85.529692 36.182887 
z
" style="fill:#0066ff;"/>
   </g>
   <g id="patch_7">
    <path clip-path="url(#p578a6a739b)" d="M 91.564153 313.478125 
L 96.995169 313.478125 
L 96.995169 36.182887 
L 91.564153 36.182887 
z
" style="fill:#0066ff;"/>
   </g>
   <g id="patch_8">
    <path clip-path="url(#p578a6a739b)" d="M 97.598615 313.478125 
L 103.02963 313.478125 
L 103.02963 36.182887 
L 97.598615 36.182887 
z
" style="fill:#0066ff;"/>
   </g>
   <g id="patch_9">
    <path clip-path="url(#p578a6a739b)" d="M 103.633076 313.478125 
L 109.064092 313.478125 
L 109.064092 36.182887 
L 103.633076 36.182887 
z
" style="fill:#0066ff;"/>
   </g>
   <g id="patch_10">
    <path clip-path="url(#p578a6a739b)" d="M 109.667538 313.478125 
L 115.098553 313.478125 
L 115.098553 36.182887 
L 109.667538 36.182887 
z
" style="fill:#0066ff;"/>
   </g>
   <g id="patch_11">
    <path clip-path="url(#p578a6a739b)" d="M 115.702 313.478125 
L 121.133015 313.478125 
L 121.133015 36.182887 
L 115.702 36.182887 
z
" style="fill:#0066ff;"/>
   </g>
   <g id="patch_12">
    <path clip-path="url(#p578a6a739b)" d="M 121.736461 313.478125 
L 127.167477 313.478125 
L 127.167477 36.182887 
L 121.736461 36.182887 
z
" style="fill:#0066ff;"/>
   </g>
   <g id="patch_13">
    <path clip-path="url(#p578a6a739b)" d="M 127.770923 313.478125 
L 133.201938 313.478125 
L 133.201938 36.182887 
L 127.770923 36.182887 
z
" style="fill:#0066ff;"/>
   </g>
   <g id="patch_14">
    <path clip-path="url(#p578a6a739b)" d="M 133.805384 313.478125 
L 139.2364 313.478125 
L 139.2364 36.182887 
L 133.805384 36.182887 
z
" style="fill:#0066ff;"/>
   </g>
   <g id="patch_15">
    <path clip-path="url(#p578a6a739b)" d="M 139.839846 313.478125 
L 145.270861 313.478125 
L 145.270861 36.182887 
L 139.839846 36.182887 
z
" style="fill:#0066ff;"/>
   </g>
   <g id="patch_16">
    <path clip-path="url(#p578a6a739b)" d="M 145.874308 313.478125 
L 151.305323 313.478125 
L 151.305323 36.182887 
L 145.874308 36.182887 
z
" style="fill:#0066ff;"/>
   </g>
   <g id="patch_17">
    <path clip-path="url(#p578a6a739b)" d="M 151.908769 313.478125 
L 157.339785 313.478125 
L 157.339785 36.182887 
L 151.908769 36.182887 
z
" style="fill:#0066ff;"/>
   </g>
   <g id="patch_18">
    <path clip-path="url(#p578a6a739b)" d="M 157.943231 313.478125 
L 163.374246 313.478125 
L 163.374246 36.182887 
L 157.943231 36.182887 
z
" style="fill:#0066ff;"/>
   </g>
   <g id="patch_19">
    <path clip-path="url(#p578a6a739b)" d="M 163.977692 313.478125 
L 169.408708 313.478125 
L 169.408708 36.182887 
L 163.977692 36.182887 
z
" style="fill:#0066ff;"/>
   </g>
   <g id="patch_20">
    <path clip-path="url(#p578a6a739b)" d="M 170.012154 313.478125 
L 175.443169 313.478125 
L 175.443169 36.182887 
L 170.012154 36.182887 
z
" style="fill:#0066ff;"/>
   </g>
   <g id="patch_21">
    <path clip-path="url(#p578a6a739b)" d="M 176.046616 313.478125 
L 181.477631 313.478125 
L 181.477631 36.182887 
L 176.046616 36.182887 
z
" style="fill:#0066ff;"/>
   </g>
   <g id="patch_22">
    <path clip-path="url(#p578a6a739b)" d="M 182.081077 313.478125 
L 187.512093 313.478125 
L 187.512093 36.182887 
L 182.081077 36.182887 
z
" style="fill:#0066ff;"/>
   </g>
   <g id="patch_23">
    <path clip-path="url(#p578a6a739b)" d="M 188.115539 313.478125 
L 193.546554 313.478125 
L 193.546554 36.182887 
L 188.115539 36.182887 
z
" style="fill:#0066ff;"/>
   </g>
   <g id="patch_24">
    <path clip-path="url(#p578a6a739b)" d="M 194.15 313.478125 
L 199.581016 313.478125 
L 199.581016 36.182887 
L 194.15 36.182887 
z
" style="fill:#0066ff;"/>
   </g>
   <g id="patch_25">
    <path clip-path="url(#p578a6a739b)" d="M 200.184462 313.478125 
L 205.615477 313.478125 
L 205.615477 36.182887 
L 200.184462 36.182887 
z
" style="fill:#0066ff;"/>
   </g>
   <g id="patch_26">
    <path clip-path="url(#p578a6a739b)" d="M 206.218924 313.478125 
L 211.649939 313.478125 
L 211.649939 36.182887 
L 206.218924 36.182887 
z
" style="fill:#0066ff;"/>
   </g>
   <g id="patch_27">
    <path clip-path="url(#p578a6a739b)" d="M 212.253385 313.478125 
L 217.684401 313.478125 
L 217.684401 36.182887 
L 212.253385 36.182887 
z
" style="fill:#0066ff;"/>
   </g>
   <g id="patch_28">
    <path clip-path="url(#p578a6a739b)" d="M 218.287847 313.478125 
L 223.718862 313.478125 
L 223.718862 36.182887 
L 218.287847 36.182887 
z
" style="fill:#0066ff;"/>
   </g>
   <g id="patch_29">
    <path clip-path="url(#p578a6a739b)" d="M 224.322308 313.478125 
L 229.753324 313.478125 
L 229.753324 36.182887 
L 224.322308 36.182887 
z
" style="fill:#0066ff;"/>
   </g>
   <g id="patch_30">
    <path clip-path="url(#p578a6a739b)" d="M 230.35677 313.478125 
L 235.787785 313.478125 
L 235.787785 36.182887 
L 230.35677 36.182887 
z
" style="fill:#0066ff;"/>
   </g>
   <g id="patch_31">
    <path clip-path="url(#p578a6a739b)" d="M 236.391232 313.478125 
L 241.822247 313.478125 
L 241.822247 36.182887 
L 236.391232 36.182887 
z
" style="fill:#0066ff;"/>
   </g>
   <g id="patch_32">
    <path clip-path="url(#p578a6a739b)" d="M 242.425693 313.478125 
L 247.856709 313.478125 
L 247.856709 36.182887 
L 242.425693 36.182887 
z
" style="fill:#0066ff;"/>
   </g>
   <g id="patch_33">
    <path clip-path="url(#p578a6a739b)" d="M 248.460155 313.478125 
L 253.89117 313.478125 
L 253.89117 36.182887 
L 248.460155 36.182887 
z
" style="fill:#0066ff;"/>
   </g>
   <g id="patch_34">
    <path clip-path="url(#p578a6a739b)" d="M 254.494616 313.478125 
L 259.925632 313.478125 
L 259.925632 36.182887 
L 254.494616 36.182887 
z
" style="fill:#0066ff;"/>
   </g>
   <g id="patch_35">
    <path clip-path="url(#p578a6a739b)" d="M 260.529078 313.478125 
L 265.960094 313.478125 
L 265.960094 36.182887 
L 260.529078 36.182887 
z
" style="fill:#0066ff;"/>
   </g>
   <g id="patch_36">
    <path clip-path="url(#p578a6a739b)" d="M 266.56354 313.478125 
L 271.994555 313.478125 
L 271.994555 36.182887 
L 266.56354 36.182887 
z
" style="fill:#0066ff;"/>
   </g>
   <g id="patch_37">
    <path clip-path="url(#p578a6a739b)" d="M 272.598001 313.478125 
L 278.029017 313.478125 
L 278.029017 36.182887 
L 272.598001 36.182887 
z
" style="fill:#0066ff;"/>
   </g>
   <g id="patch_38">
    <path clip-path="url(#p578a6a739b)" d="M 278.632463 313.478125 
L 284.063478 313.478125 
L 284.063478 36.182887 
L 278.632463 36.182887 
z
" style="fill:#0066ff;"/>
   </g>
   <g id="patch_39">
    <path clip-path="url(#p578a6a739b)" d="M 284.666924 313.478125 
L 290.09794 313.478125 
L 290.09794 36.182887 
L 284.666924 36.182887 
z
" style="fill:#0066ff;"/>
   </g>
   <g id="patch_40">
    <path clip-path="url(#p578a6a739b)" d="M 290.701386 313.478125 
L 296.132402 313.478125 
L 296.132402 36.182887 
L 290.701386 36.182887 
z
" style="fill:#0066ff;"/>
   </g>
   <g id="patch_41">
    <path clip-path="url(#p578a6a739b)" d="M 296.735848 313.478125 
L 302.166863 313.478125 
L 302.166863 36.182887 
L 296.735848 36.182887 
z
" style="fill:#0066ff;"/>
   </g>
   <g id="patch_42">
    <path clip-path="url(#p578a6a739b)" d="M 302.770309 313.478125 
L 308.201325 313.478125 
L 308.201325 36.182887 
L 302.770309 36.182887 
z
" style="fill:#0066ff;"/>
   </g>
   <g id="patch_43">
    <path clip-path="url(#p578a6a739b)" d="M 308.804771 313.478125 
L 314.235786 313.478125 
L 314.235786 36.182887 
L 308.804771 36.182887 
z
" style="fill:#0066ff;"/>
   </g>
   <g id="patch_44">
    <path clip-path="url(#p578a6a739b)" d="M 314.839232 313.478125 
L 320.270248 313.478125 
L 320.270248 36.182887 
L 314.839232 36.182887 
z
" style="fill:#0066ff;"/>
   </g>
   <g id="patch_45">
    <path clip-path="url(#p578a6a739b)" d="M 320.873694 313.478125 
L 326.30471 313.478125 
L 326.30471 36.182887 
L 320.873694 36.182887 
z
" style="fill:#0066ff;"/>
   </g>
   <g id="patch_46">
    <path clip-path="url(#p578a6a739b)" d="M 326.908156 313.478125 
L 332.339171 313.478125 
L 332.339171 36.182887 
L 326.908156 36.182887 
z
" style="fill:#0066ff;"/>
   </g>
   <g id="patch_47">
    <path clip-path="url(#p578a6a739b)" d="M 332.942617 313.478125 
L 338.373633 313.478125 
L 338.373633 36.182887 
L 332.942617 36.182887 
z
" style="fill:#0066ff;"/>
   </g>
   <g id="patch_48">
    <path clip-path="url(#p578a6a739b)" d="M 338.977079 313.478125 
L 344.408094 313.478125 
L 344.408094 36.182887 
L 338.977079 36.182887 
z
" style="fill:#0066ff;"/>
   </g>
   <g id="patch_49">
    <path clip-path="url(#p578a6a739b)" d="M 345.01154 313.478125 
L 350.442556 313.478125 
L 350.442556 36.182887 
L 345.01154 36.182887 
z
" style="fill:#0066ff;"/>
   </g>
   <g id="patch_50">
    <path clip-path="url(#p578a6a739b)" d="M 351.046002 313.478125 
L 356.477018 313.478125 
L 356.477018 36.182887 
L 351.046002 36.182887 
z
" style="fill:#0066ff;"/>
   </g>
   <g id="patch_51">
    <path clip-path="url(#p578a6a739b)" d="M 357.080464 313.478125 
L 362.511479 313.478125 
L 362.511479 36.182887 
L 357.080464 36.182887 
z
" style="fill:#0066ff;"/>
   </g>
   <g id="patch_52">
    <path clip-path="url(#p578a6a739b)" d="M 363.114925 313.478125 
L 368.545941 313.478125 
L 368.545941 36.182887 
L 363.114925 36.182887 
z
" style="fill:#0066ff;"/>
   </g>
   <g id="patch_53">
    <path clip-path="url(#p578a6a739b)" d="M 369.149387 313.478125 
L 374.580402 313.478125 
L 374.580402 36.182887 
L 369.149387 36.182887 
z
" style="fill:#0066ff;"/>
   </g>
   <g id="patch_54">
    <path clip-path="url(#p578a6a739b)" d="M 375.183848 313.478125 
L 380.614864 313.478125 
L 380.614864 36.182887 
L 375.183848 36.182887 
z
" style="fill:#0066ff;"/>
   </g>
   <g id="patch_55">
    <path clip-path="url(#p578a6a739b)" d="M 381.21831 313.478125 
L 386.649326 313.478125 
L 386.649326 36.182887 
L 381.21831 36.182887 
z
" style="fill:#0066ff;"/>
   </g>
   <g id="patch_56">
    <path clip-path="url(#p578a6a739b)" d="M 387.252772 313.478125 
L 392.683787 313.478125 
L 392.683787 36.182887 
L 387.252772 36.182887 
z
" style="fill:#0066ff;"/>
   </g>
   <g id="patch_57">
    <path clip-path="url(#p578a6a739b)" d="M 393.287233 313.478125 
L 398.718249 313.478125 
L 398.718249 36.182887 
L 393.287233 36.182887 
z
" style="fill:#0066ff;"/>
   </g>
   <g id="patch_58">
    <path clip-path="url(#p578a6a739b)" d="M 399.321695 313.478125 
L 404.75271 313.478125 
L 404.75271 36.182887 
L 399.321695 36.182887 
z
" style="fill:#0066ff;"/>
   </g>
   <g id="patch_59">
    <path clip-path="url(#p578a6a739b)" d="M 405.356156 313.478125 
L 410.787172 313.478125 
L 410.787172 36.182887 
L 405.356156 36.182887 
z
" style="fill:#0066ff;"/>
   </g>
   <g id="patch_60">
    <path clip-path="url(#p578a6a739b)" d="M 411.390618 313.478125 
L 416.821634 313.478125 
L 416.821634 36.182887 
L 411.390618 36.182887 
z
" style="fill:#0066ff;"/>
   </g>
   <g id="patch_61">
    <path clip-path="url(#p578a6a739b)" d="M 417.42508 313.478125 
L 422.856095 313.478125 
L 422.856095 36.182887 
L 417.42508 36.182887 
z
" style="fill:#0066ff;"/>
   </g>
   <g id="patch_62">
    <path clip-path="url(#p578a6a739b)" d="M 423.459541 313.478125 
L 428.890557 313.478125 
L 428.890557 36.182887 
L 423.459541 36.182887 
z
" style="fill:#0066ff;"/>
   </g>
   <g id="patch_63">
    <path clip-path="url(#p578a6a739b)" d="M 429.494003 313.478125 
L 434.925018 313.478125 
L 434.925018 36.182887 
L 429.494003 36.182887 
z
" style="fill:#0066ff;"/>
   </g>
   <g id="patch_64">
    <path clip-path="url(#p578a6a739b)" d="M 435.528465 313.478125 
L 440.95948 313.478125 
L 440.95948 36.182887 
L 435.528465 36.182887 
z
" style="fill:#0066ff;"/>
   </g>
   <g id="patch_65">
    <path clip-path="url(#p578a6a739b)" d="M 441.562926 313.478125 
L 446.993942 313.478125 
L 446.993942 36.182887 
L 441.562926 36.182887 
z
" style="fill:#0066ff;"/>
   </g>
   <g id="patch_66">
    <path clip-path="url(#p578a6a739b)" d="M 447.597388 313.478125 
L 453.028403 313.478125 
L 453.028403 36.182887 
L 447.597388 36.182887 
z
" style="fill:#0066ff;"/>
   </g>
   <g id="patch_67">
    <path clip-path="url(#p578a6a739b)" d="M 453.631849 313.478125 
L 459.062865 313.478125 
L 459.062865 36.182887 
L 453.631849 36.182887 
z
" style="fill:#0066ff;"/>
   </g>
   <g id="patch_68">
    <path clip-path="url(#p578a6a739b)" d="M 459.666311 313.478125 
L 465.097326 313.478125 
L 465.097326 313.478125 
L 459.666311 313.478125 
z
" style="fill:#0066ff;"/>
   </g>
   <g id="patch_69">
    <path clip-path="url(#p578a6a739b)" d="M 465.700773 313.478125 
L 471.131788 313.478125 
L 471.131788 313.478125 
L 465.700773 313.478125 
z
" style="fill:#0066ff;"/>
   </g>
   <g id="patch_70">
    <path clip-path="url(#p578a6a739b)" d="M 471.735234 313.478125 
L 477.16625 313.478125 
L 477.16625 313.478125 
L 471.735234 313.478125 
z
" style="fill:#0066ff;"/>
   </g>
   <g id="patch_71">
    <path clip-path="url(#p578a6a739b)" d="M 477.769696 313.478125 
L 483.200711 313.478125 
L 483.200711 313.478125 
L 477.769696 313.478125 
z
" style="fill:#0066ff;"/>
   </g>
   <g id="patch_72">
    <path clip-path="url(#p578a6a739b)" d="M 483.804157 313.478125 
L 489.235173 313.478125 
L 489.235173 313.478125 
L 483.804157 313.478125 
z
" style="fill:#0066ff;"/>
   </g>
   <g id="patch_73">
    <path clip-path="url(#p578a6a739b)" d="M 489.838619 313.478125 
L 495.269634 313.478125 
L 495.269634 313.478125 
L 489.838619 313.478125 
z
" style="fill:#0066ff;"/>
   </g>
   <g id="patch_74">
    <path clip-path="url(#p578a6a739b)" d="M 495.873081 313.478125 
L 501.304096 313.478125 
L 501.304096 313.478125 
L 495.873081 313.478125 
z
" style="fill:#0066ff;"/>
   </g>
   <g id="patch_75">
    <path clip-path="url(#p578a6a739b)" d="M 501.907542 313.478125 
L 507.338558 313.478125 
L 507.338558 313.478125 
L 501.907542 313.478125 
z
" style="fill:#0066ff;"/>
   </g>
   <g id="patch_76">
    <path clip-path="url(#p578a6a739b)" d="M 507.942004 313.478125 
L 513.373019 313.478125 
L 513.373019 313.478125 
L 507.942004 313.478125 
z
" style="fill:#0066ff;"/>
   </g>
   <g id="patch_77">
    <path clip-path="url(#p578a6a739b)" d="M 513.976465 313.478125 
L 519.407481 313.478125 
L 519.407481 313.478125 
L 513.976465 313.478125 
z
" style="fill:#0066ff;"/>
   </g>
   <g id="patch_78">
    <path clip-path="url(#p578a6a739b)" d="M 520.010927 313.478125 
L 525.441942 313.478125 
L 525.441942 313.478125 
L 520.010927 313.478125 
z
" style="fill:#0066ff;"/>
   </g>
   <g id="patch_79">
    <path clip-path="url(#p578a6a739b)" d="M 526.045389 313.478125 
L 531.476404 313.478125 
L 531.476404 313.478125 
L 526.045389 313.478125 
z
" style="fill:#0066ff;"/>
   </g>
   <g id="patch_80">
    <path clip-path="url(#p578a6a739b)" d="M 532.07985 313.478125 
L 537.510866 313.478125 
L 537.510866 313.478125 
L 532.07985 313.478125 
z
" style="fill:#0066ff;"/>
   </g>
   <g id="patch_81">
    <path clip-path="url(#p578a6a739b)" d="M 538.114312 313.478125 
L 543.545327 313.478125 
L 543.545327 313.478125 
L 538.114312 313.478125 
z
" style="fill:#0066ff;"/>
   </g>
   <g id="patch_82">
    <path clip-path="url(#p578a6a739b)" d="M 544.148773 313.478125 
L 549.579789 313.478125 
L 549.579789 313.478125 
L 544.148773 313.478125 
z
" style="fill:#0066ff;"/>
   </g>
   <g id="patch_83">
    <path clip-path="url(#p578a6a739b)" d="M 550.183235 313.478125 
L 555.61425 313.478125 
L 555.61425 313.478125 
L 550.183235 313.478125 
z
" style="fill:#0066ff;"/>
   </g>
   <g id="patch_84">
    <path clip-path="url(#p578a6a739b)" d="M 556.217697 313.478125 
L 561.648712 313.478125 
L 561.648712 313.478125 
L 556.217697 313.478125 
z
" style="fill:#0066ff;"/>
   </g>
   <g id="patch_85">
    <path clip-path="url(#p578a6a739b)" d="M 562.252158 313.478125 
L 567.683174 313.478125 
L 567.683174 313.478125 
L 562.252158 313.478125 
z
" style="fill:#0066ff;"/>
   </g>
   <g id="patch_86">
    <path clip-path="url(#p578a6a739b)" d="M 568.28662 313.478125 
L 573.717635 313.478125 
L 573.717635 313.478125 
L 568.28662 313.478125 
z
" style="fill:#0066ff;"/>
   </g>
   <g id="patch_87">
    <path clip-path="url(#p578a6a739b)" d="M 574.321081 313.478125 
L 579.752097 313.478125 
L 579.752097 313.478125 
L 574.321081 313.478125 
z
" style="fill:#0066ff;"/>
   </g>
   <g id="patch_88">
    <path clip-path="url(#p578a6a739b)" d="M 580.355543 313.478125 
L 585.786558 313.478125 
L 585.786558 313.478125 
L 580.355543 313.478125 
z
" style="fill:#0066ff;"/>
   </g>
   <g id="patch_89">
    <path clip-path="url(#p578a6a739b)" d="M 586.390005 313.478125 
L 591.82102 313.478125 
L 591.82102 313.478125 
L 586.390005 313.478125 
z
" style="fill:#0066ff;"/>
   </g>
   <g id="patch_90">
    <path clip-path="url(#p578a6a739b)" d="M 592.424466 313.478125 
L 597.855482 313.478125 
L 597.855482 313.478125 
L 592.424466 313.478125 
z
" style="fill:#0066ff;"/>
   </g>
   <g id="patch_91">
    <path clip-path="url(#p578a6a739b)" d="M 598.458928 313.478125 
L 603.889943 313.478125 
L 603.889943 313.478125 
L 598.458928 313.478125 
z
" style="fill:#0066ff;"/>
   </g>
   <g id="matplotlib.axis_1">
    <g id="xtick_1">
     <g id="line2d_1">
      <defs>
       <path d="M 0 0 
L 0 3.5 
" id="m6403f5c4af" style="stroke:#000000;stroke-width:0.8;"/>
      </defs>
      <g>
       <use style="stroke:#000000;stroke-width:0.8;" x="64.107353" xlink:href="#m6403f5c4af" y="313.478125"/>
      </g>
     </g>
     <g id="text_1">
      <!-- 0 -->
      <defs>
       <path d="M 31.78125 66.40625 
Q 24.171875 66.40625 20.328125 58.90625 
Q 16.5 51.421875 16.5 36.375 
Q 16.5 21.390625 20.328125 13.890625 
Q 24.171875 6.390625 31.78125 6.390625 
Q 39.453125 6.390625 43.28125 13.890625 
Q 47.125 21.390625 47.125 36.375 
Q 47.125 51.421875 43.28125 58.90625 
Q 39.453125 66.40625 31.78125 66.40625 
z
M 31.78125 74.21875 
Q 44.046875 74.21875 50.515625 64.515625 
Q 56.984375 54.828125 56.984375 36.375 
Q 56.984375 17.96875 50.515625 8.265625 
Q 44.046875 -1.421875 31.78125 -1.421875 
Q 19.53125 -1.421875 13.0625 8.265625 
Q 6.59375 17.96875 6.59375 36.375 
Q 6.59375 54.828125 13.0625 64.515625 
Q 19.53125 74.21875 31.78125 74.21875 
z
" id="DejaVuSans-30"/>
      </defs>
      <g transform="translate(60.926103 328.076563)scale(0.1 -0.1)">
       <use xlink:href="#DejaVuSans-30"/>
      </g>
     </g>
    </g>
    <g id="xtick_2">
     <g id="line2d_2">
      <g>
       <use style="stroke:#000000;stroke-width:0.8;" x="184.796585" xlink:href="#m6403f5c4af" y="313.478125"/>
      </g>
     </g>
     <g id="text_2">
      <!-- 20 -->
      <defs>
       <path d="M 19.1875 8.296875 
L 53.609375 8.296875 
L 53.609375 0 
L 7.328125 0 
L 7.328125 8.296875 
Q 12.9375 14.109375 22.625 23.890625 
Q 32.328125 33.6875 34.8125 36.53125 
Q 39.546875 41.84375 41.421875 45.53125 
Q 43.3125 49.21875 43.3125 52.78125 
Q 43.3125 58.59375 39.234375 62.25 
Q 35.15625 65.921875 28.609375 65.921875 
Q 23.96875 65.921875 18.8125 64.3125 
Q 13.671875 62.703125 7.8125 59.421875 
L 7.8125 69.390625 
Q 13.765625 71.78125 18.9375 73 
Q 24.125 74.21875 28.421875 74.21875 
Q 39.75 74.21875 46.484375 68.546875 
Q 53.21875 62.890625 53.21875 53.421875 
Q 53.21875 48.921875 51.53125 44.890625 
Q 49.859375 40.875 45.40625 35.40625 
Q 44.1875 33.984375 37.640625 27.21875 
Q 31.109375 20.453125 19.1875 8.296875 
z
" id="DejaVuSans-32"/>
      </defs>
      <g transform="translate(178.434085 328.076563)scale(0.1 -0.1)">
       <use xlink:href="#DejaVuSans-32"/>
       <use x="63.623047" xlink:href="#DejaVuSans-30"/>
      </g>
     </g>
    </g>
    <g id="xtick_3">
     <g id="line2d_3">
      <g>
       <use style="stroke:#000000;stroke-width:0.8;" x="305.485817" xlink:href="#m6403f5c4af" y="313.478125"/>
      </g>
     </g>
     <g id="text_3">
      <!-- 40 -->
      <defs>
       <path d="M 37.796875 64.3125 
L 12.890625 25.390625 
L 37.796875 25.390625 
z
M 35.203125 72.90625 
L 47.609375 72.90625 
L 47.609375 25.390625 
L 58.015625 25.390625 
L 58.015625 17.1875 
L 47.609375 17.1875 
L 47.609375 0 
L 37.796875 0 
L 37.796875 17.1875 
L 4.890625 17.1875 
L 4.890625 26.703125 
z
" id="DejaVuSans-34"/>
      </defs>
      <g transform="translate(299.123317 328.076563)scale(0.1 -0.1)">
       <use xlink:href="#DejaVuSans-34"/>
       <use x="63.623047" xlink:href="#DejaVuSans-30"/>
      </g>
     </g>
    </g>
    <g id="xtick_4">
     <g id="line2d_4">
      <g>
       <use style="stroke:#000000;stroke-width:0.8;" x="426.175049" xlink:href="#m6403f5c4af" y="313.478125"/>
      </g>
     </g>
     <g id="text_4">
      <!-- 60 -->
      <defs>
       <path d="M 33.015625 40.375 
Q 26.375 40.375 22.484375 35.828125 
Q 18.609375 31.296875 18.609375 23.390625 
Q 18.609375 15.53125 22.484375 10.953125 
Q 26.375 6.390625 33.015625 6.390625 
Q 39.65625 6.390625 43.53125 10.953125 
Q 47.40625 15.53125 47.40625 23.390625 
Q 47.40625 31.296875 43.53125 35.828125 
Q 39.65625 40.375 33.015625 40.375 
z
M 52.59375 71.296875 
L 52.59375 62.3125 
Q 48.875 64.0625 45.09375 64.984375 
Q 41.3125 65.921875 37.59375 65.921875 
Q 27.828125 65.921875 22.671875 59.328125 
Q 17.53125 52.734375 16.796875 39.40625 
Q 19.671875 43.65625 24.015625 45.921875 
Q 28.375 48.1875 33.59375 48.1875 
Q 44.578125 48.1875 50.953125 41.515625 
Q 57.328125 34.859375 57.328125 23.390625 
Q 57.328125 12.15625 50.6875 5.359375 
Q 44.046875 -1.421875 33.015625 -1.421875 
Q 20.359375 -1.421875 13.671875 8.265625 
Q 6.984375 17.96875 6.984375 36.375 
Q 6.984375 53.65625 15.1875 63.9375 
Q 23.390625 74.21875 37.203125 74.21875 
Q 40.921875 74.21875 44.703125 73.484375 
Q 48.484375 72.75 52.59375 71.296875 
z
" id="DejaVuSans-36"/>
      </defs>
      <g transform="translate(419.812549 328.076563)scale(0.1 -0.1)">
       <use xlink:href="#DejaVuSans-36"/>
       <use x="63.623047" xlink:href="#DejaVuSans-30"/>
      </g>
     </g>
    </g>
    <g id="xtick_5">
     <g id="line2d_5">
      <g>
       <use style="stroke:#000000;stroke-width:0.8;" x="546.864281" xlink:href="#m6403f5c4af" y="313.478125"/>
      </g>
     </g>
     <g id="text_5">
      <!-- 80 -->
      <defs>
       <path d="M 31.78125 34.625 
Q 24.75 34.625 20.71875 30.859375 
Q 16.703125 27.09375 16.703125 20.515625 
Q 16.703125 13.921875 20.71875 10.15625 
Q 24.75 6.390625 31.78125 6.390625 
Q 38.8125 6.390625 42.859375 10.171875 
Q 46.921875 13.96875 46.921875 20.515625 
Q 46.921875 27.09375 42.890625 30.859375 
Q 38.875 34.625 31.78125 34.625 
z
M 21.921875 38.8125 
Q 15.578125 40.375 12.03125 44.71875 
Q 8.5 49.078125 8.5 55.328125 
Q 8.5 64.0625 14.71875 69.140625 
Q 20.953125 74.21875 31.78125 74.21875 
Q 42.671875 74.21875 48.875 69.140625 
Q 55.078125 64.0625 55.078125 55.328125 
Q 55.078125 49.078125 51.53125 44.71875 
Q 48 40.375 41.703125 38.8125 
Q 48.828125 37.15625 52.796875 32.3125 
Q 56.78125 27.484375 56.78125 20.515625 
Q 56.78125 9.90625 50.3125 4.234375 
Q 43.84375 -1.421875 31.78125 -1.421875 
Q 19.734375 -1.421875 13.25 4.234375 
Q 6.78125 9.90625 6.78125 20.515625 
Q 6.78125 27.484375 10.78125 32.3125 
Q 14.796875 37.15625 21.921875 38.8125 
z
M 18.3125 54.390625 
Q 18.3125 48.734375 21.84375 45.5625 
Q 25.390625 42.390625 31.78125 42.390625 
Q 38.140625 42.390625 41.71875 45.5625 
Q 45.3125 48.734375 45.3125 54.390625 
Q 45.3125 60.0625 41.71875 63.234375 
Q 38.140625 66.40625 31.78125 66.40625 
Q 25.390625 66.40625 21.84375 63.234375 
Q 18.3125 60.0625 18.3125 54.390625 
z
" id="DejaVuSans-38"/>
      </defs>
      <g transform="translate(540.501781 328.076563)scale(0.1 -0.1)">
       <use xlink:href="#DejaVuSans-38"/>
       <use x="63.623047" xlink:href="#DejaVuSans-30"/>
      </g>
     </g>
    </g>
    <g id="text_6">
     <!-- Angles -->
     <defs>
      <path d="M 34.1875 63.1875 
L 20.796875 26.90625 
L 47.609375 26.90625 
z
M 28.609375 72.90625 
L 39.796875 72.90625 
L 67.578125 0 
L 57.328125 0 
L 50.6875 18.703125 
L 17.828125 18.703125 
L 11.1875 0 
L 0.78125 0 
z
" id="DejaVuSans-41"/>
      <path d="M 54.890625 33.015625 
L 54.890625 0 
L 45.90625 0 
L 45.90625 32.71875 
Q 45.90625 40.484375 42.875 44.328125 
Q 39.84375 48.1875 33.796875 48.1875 
Q 26.515625 48.1875 22.3125 43.546875 
Q 18.109375 38.921875 18.109375 30.90625 
L 18.109375 0 
L 9.078125 0 
L 9.078125 54.6875 
L 18.109375 54.6875 
L 18.109375 46.1875 
Q 21.34375 51.125 25.703125 53.5625 
Q 30.078125 56 35.796875 56 
Q 45.21875 56 50.046875 50.171875 
Q 54.890625 44.34375 54.890625 33.015625 
z
" id="DejaVuSans-6e"/>
      <path d="M 45.40625 27.984375 
Q 45.40625 37.75 41.375 43.109375 
Q 37.359375 48.484375 30.078125 48.484375 
Q 22.859375 48.484375 18.828125 43.109375 
Q 14.796875 37.75 14.796875 27.984375 
Q 14.796875 18.265625 18.828125 12.890625 
Q 22.859375 7.515625 30.078125 7.515625 
Q 37.359375 7.515625 41.375 12.890625 
Q 45.40625 18.265625 45.40625 27.984375 
z
M 54.390625 6.78125 
Q 54.390625 -7.171875 48.1875 -13.984375 
Q 42 -20.796875 29.203125 -20.796875 
Q 24.46875 -20.796875 20.265625 -20.09375 
Q 16.0625 -19.390625 12.109375 -17.921875 
L 12.109375 -9.1875 
Q 16.0625 -11.328125 19.921875 -12.34375 
Q 23.78125 -13.375 27.78125 -13.375 
Q 36.625 -13.375 41.015625 -8.765625 
Q 45.40625 -4.15625 45.40625 5.171875 
L 45.40625 9.625 
Q 42.625 4.78125 38.28125 2.390625 
Q 33.9375 0 27.875 0 
Q 17.828125 0 11.671875 7.65625 
Q 5.515625 15.328125 5.515625 27.984375 
Q 5.515625 40.671875 11.671875 48.328125 
Q 17.828125 56 27.875 56 
Q 33.9375 56 38.28125 53.609375 
Q 42.625 51.21875 45.40625 46.390625 
L 45.40625 54.6875 
L 54.390625 54.6875 
z
" id="DejaVuSans-67"/>
      <path d="M 9.421875 75.984375 
L 18.40625 75.984375 
L 18.40625 0 
L 9.421875 0 
z
" id="DejaVuSans-6c"/>
      <path d="M 56.203125 29.59375 
L 56.203125 25.203125 
L 14.890625 25.203125 
Q 15.484375 15.921875 20.484375 11.0625 
Q 25.484375 6.203125 34.421875 6.203125 
Q 39.59375 6.203125 44.453125 7.46875 
Q 49.3125 8.734375 54.109375 11.28125 
L 54.109375 2.78125 
Q 49.265625 0.734375 44.1875 -0.34375 
Q 39.109375 -1.421875 33.890625 -1.421875 
Q 20.796875 -1.421875 13.15625 6.1875 
Q 5.515625 13.8125 5.515625 26.8125 
Q 5.515625 40.234375 12.765625 48.109375 
Q 20.015625 56 32.328125 56 
Q 43.359375 56 49.78125 48.890625 
Q 56.203125 41.796875 56.203125 29.59375 
z
M 47.21875 32.234375 
Q 47.125 39.59375 43.09375 43.984375 
Q 39.0625 48.390625 32.421875 48.390625 
Q 24.90625 48.390625 20.390625 44.140625 
Q 15.875 39.890625 15.1875 32.171875 
z
" id="DejaVuSans-65"/>
      <path d="M 44.28125 53.078125 
L 44.28125 44.578125 
Q 40.484375 46.53125 36.375 47.5 
Q 32.28125 48.484375 27.875 48.484375 
Q 21.1875 48.484375 17.84375 46.4375 
Q 14.5 44.390625 14.5 40.28125 
Q 14.5 37.15625 16.890625 35.375 
Q 19.28125 33.59375 26.515625 31.984375 
L 29.59375 31.296875 
Q 39.15625 29.25 43.1875 25.515625 
Q 47.21875 21.78125 47.21875 15.09375 
Q 47.21875 7.46875 41.1875 3.015625 
Q 35.15625 -1.421875 24.609375 -1.421875 
Q 20.21875 -1.421875 15.453125 -0.5625 
Q 10.6875 0.296875 5.421875 2 
L 5.421875 11.28125 
Q 10.40625 8.6875 15.234375 7.390625 
Q 20.0625 6.109375 24.8125 6.109375 
Q 31.15625 6.109375 34.5625 8.28125 
Q 37.984375 10.453125 37.984375 14.40625 
Q 37.984375 18.0625 35.515625 20.015625 
Q 33.0625 21.96875 24.703125 23.78125 
L 21.578125 24.515625 
Q 13.234375 26.265625 9.515625 29.90625 
Q 5.8125 33.546875 5.8125 39.890625 
Q 5.8125 47.609375 11.28125 51.796875 
Q 16.75 56 26.8125 56 
Q 31.78125 56 36.171875 55.265625 
Q 40.578125 54.546875 44.28125 53.078125 
z
" id="DejaVuSans-73"/>
     </defs>
     <g transform="translate(318.824531 341.754687)scale(0.1 -0.1)">
      <use xlink:href="#DejaVuSans-41"/>
      <use x="68.408203" xlink:href="#DejaVuSans-6e"/>
      <use x="131.787109" xlink:href="#DejaVuSans-67"/>
      <use x="195.263672" xlink:href="#DejaVuSans-6c"/>
      <use x="223.046875" xlink:href="#DejaVuSans-65"/>
      <use x="284.570312" xlink:href="#DejaVuSans-73"/>
     </g>
    </g>
   </g>
   <g id="matplotlib.axis_2">
    <g id="ytick_1">
     <g id="line2d_6">
      <defs>
       <path d="M 0 0 
L -3.5 0 
" id="m3f95b02655" style="stroke:#000000;stroke-width:0.8;"/>
      </defs>
      <g>
       <use style="stroke:#000000;stroke-width:0.8;" x="40.603125" xlink:href="#m3f95b02655" y="313.478125"/>
      </g>
     </g>
     <g id="text_7">
      <!-- 0 -->
      <g transform="translate(27.240625 317.277344)scale(0.1 -0.1)">
       <use xlink:href="#DejaVuSans-30"/>
      </g>
     </g>
    </g>
    <g id="ytick_2">
     <g id="line2d_7">
      <g>
       <use style="stroke:#000000;stroke-width:0.8;" x="40.603125" xlink:href="#m3f95b02655" y="263.060809"/>
      </g>
     </g>
     <g id="text_8">
      <!-- 10 -->
      <defs>
       <path d="M 12.40625 8.296875 
L 28.515625 8.296875 
L 28.515625 63.921875 
L 10.984375 60.40625 
L 10.984375 69.390625 
L 28.421875 72.90625 
L 38.28125 72.90625 
L 38.28125 8.296875 
L 54.390625 8.296875 
L 54.390625 0 
L 12.40625 0 
z
" id="DejaVuSans-31"/>
      </defs>
      <g transform="translate(20.878125 266.860028)scale(0.1 -0.1)">
       <use xlink:href="#DejaVuSans-31"/>
       <use x="63.623047" xlink:href="#DejaVuSans-30"/>
      </g>
     </g>
    </g>
    <g id="ytick_3">
     <g id="line2d_8">
      <g>
       <use style="stroke:#000000;stroke-width:0.8;" x="40.603125" xlink:href="#m3f95b02655" y="212.643493"/>
      </g>
     </g>
     <g id="text_9">
      <!-- 20 -->
      <g transform="translate(20.878125 216.442712)scale(0.1 -0.1)">
       <use xlink:href="#DejaVuSans-32"/>
       <use x="63.623047" xlink:href="#DejaVuSans-30"/>
      </g>
     </g>
    </g>
    <g id="ytick_4">
     <g id="line2d_9">
      <g>
       <use style="stroke:#000000;stroke-width:0.8;" x="40.603125" xlink:href="#m3f95b02655" y="162.226177"/>
      </g>
     </g>
     <g id="text_10">
      <!-- 30 -->
      <defs>
       <path d="M 40.578125 39.3125 
Q 47.65625 37.796875 51.625 33 
Q 55.609375 28.21875 55.609375 21.1875 
Q 55.609375 10.40625 48.1875 4.484375 
Q 40.765625 -1.421875 27.09375 -1.421875 
Q 22.515625 -1.421875 17.65625 -0.515625 
Q 12.796875 0.390625 7.625 2.203125 
L 7.625 11.71875 
Q 11.71875 9.328125 16.59375 8.109375 
Q 21.484375 6.890625 26.8125 6.890625 
Q 36.078125 6.890625 40.9375 10.546875 
Q 45.796875 14.203125 45.796875 21.1875 
Q 45.796875 27.640625 41.28125 31.265625 
Q 36.765625 34.90625 28.71875 34.90625 
L 20.21875 34.90625 
L 20.21875 43.015625 
L 29.109375 43.015625 
Q 36.375 43.015625 40.234375 45.921875 
Q 44.09375 48.828125 44.09375 54.296875 
Q 44.09375 59.90625 40.109375 62.90625 
Q 36.140625 65.921875 28.71875 65.921875 
Q 24.65625 65.921875 20.015625 65.03125 
Q 15.375 64.15625 9.8125 62.3125 
L 9.8125 71.09375 
Q 15.4375 72.65625 20.34375 73.4375 
Q 25.25 74.21875 29.59375 74.21875 
Q 40.828125 74.21875 47.359375 69.109375 
Q 53.90625 64.015625 53.90625 55.328125 
Q 53.90625 49.265625 50.4375 45.09375 
Q 46.96875 40.921875 40.578125 39.3125 
z
" id="DejaVuSans-33"/>
      </defs>
      <g transform="translate(20.878125 166.025396)scale(0.1 -0.1)">
       <use xlink:href="#DejaVuSans-33"/>
       <use x="63.623047" xlink:href="#DejaVuSans-30"/>
      </g>
     </g>
    </g>
    <g id="ytick_5">
     <g id="line2d_10">
      <g>
       <use style="stroke:#000000;stroke-width:0.8;" x="40.603125" xlink:href="#m3f95b02655" y="111.808861"/>
      </g>
     </g>
     <g id="text_11">
      <!-- 40 -->
      <g transform="translate(20.878125 115.60808)scale(0.1 -0.1)">
       <use xlink:href="#DejaVuSans-34"/>
       <use x="63.623047" xlink:href="#DejaVuSans-30"/>
      </g>
     </g>
    </g>
    <g id="ytick_6">
     <g id="line2d_11">
      <g>
       <use style="stroke:#000000;stroke-width:0.8;" x="40.603125" xlink:href="#m3f95b02655" y="61.391545"/>
      </g>
     </g>
     <g id="text_12">
      <!-- 50 -->
      <defs>
       <path d="M 10.796875 72.90625 
L 49.515625 72.90625 
L 49.515625 64.59375 
L 19.828125 64.59375 
L 19.828125 46.734375 
Q 21.96875 47.46875 24.109375 47.828125 
Q 26.265625 48.1875 28.421875 48.1875 
Q 40.625 48.1875 47.75 41.5 
Q 54.890625 34.8125 54.890625 23.390625 
Q 54.890625 11.625 47.5625 5.09375 
Q 40.234375 -1.421875 26.90625 -1.421875 
Q 22.3125 -1.421875 17.546875 -0.640625 
Q 12.796875 0.140625 7.71875 1.703125 
L 7.71875 11.625 
Q 12.109375 9.234375 16.796875 8.0625 
Q 21.484375 6.890625 26.703125 6.890625 
Q 35.15625 6.890625 40.078125 11.328125 
Q 45.015625 15.765625 45.015625 23.390625 
Q 45.015625 31 40.078125 35.4375 
Q 35.15625 39.890625 26.703125 39.890625 
Q 22.75 39.890625 18.8125 39.015625 
Q 14.890625 38.140625 10.796875 36.28125 
z
" id="DejaVuSans-35"/>
      </defs>
      <g transform="translate(20.878125 65.190764)scale(0.1 -0.1)">
       <use xlink:href="#DejaVuSans-35"/>
       <use x="63.623047" xlink:href="#DejaVuSans-30"/>
      </g>
     </g>
    </g>
    <g id="text_13">
     <!-- Rate -->
     <defs>
      <path d="M 44.390625 34.1875 
Q 47.5625 33.109375 50.5625 29.59375 
Q 53.5625 26.078125 56.59375 19.921875 
L 66.609375 0 
L 56 0 
L 46.6875 18.703125 
Q 43.0625 26.03125 39.671875 28.421875 
Q 36.28125 30.8125 30.421875 30.8125 
L 19.671875 30.8125 
L 19.671875 0 
L 9.8125 0 
L 9.8125 72.90625 
L 32.078125 72.90625 
Q 44.578125 72.90625 50.734375 67.671875 
Q 56.890625 62.453125 56.890625 51.90625 
Q 56.890625 45.015625 53.6875 40.46875 
Q 50.484375 35.9375 44.390625 34.1875 
z
M 19.671875 64.796875 
L 19.671875 38.921875 
L 32.078125 38.921875 
Q 39.203125 38.921875 42.84375 42.21875 
Q 46.484375 45.515625 46.484375 51.90625 
Q 46.484375 58.296875 42.84375 61.546875 
Q 39.203125 64.796875 32.078125 64.796875 
z
" id="DejaVuSans-52"/>
      <path d="M 34.28125 27.484375 
Q 23.390625 27.484375 19.1875 25 
Q 14.984375 22.515625 14.984375 16.5 
Q 14.984375 11.71875 18.140625 8.90625 
Q 21.296875 6.109375 26.703125 6.109375 
Q 34.1875 6.109375 38.703125 11.40625 
Q 43.21875 16.703125 43.21875 25.484375 
L 43.21875 27.484375 
z
M 52.203125 31.203125 
L 52.203125 0 
L 43.21875 0 
L 43.21875 8.296875 
Q 40.140625 3.328125 35.546875 0.953125 
Q 30.953125 -1.421875 24.3125 -1.421875 
Q 15.921875 -1.421875 10.953125 3.296875 
Q 6 8.015625 6 15.921875 
Q 6 25.140625 12.171875 29.828125 
Q 18.359375 34.515625 30.609375 34.515625 
L 43.21875 34.515625 
L 43.21875 35.40625 
Q 43.21875 41.609375 39.140625 45 
Q 35.0625 48.390625 27.6875 48.390625 
Q 23 48.390625 18.546875 47.265625 
Q 14.109375 46.140625 10.015625 43.890625 
L 10.015625 52.203125 
Q 14.9375 54.109375 19.578125 55.046875 
Q 24.21875 56 28.609375 56 
Q 40.484375 56 46.34375 49.84375 
Q 52.203125 43.703125 52.203125 31.203125 
z
" id="DejaVuSans-61"/>
      <path d="M 18.3125 70.21875 
L 18.3125 54.6875 
L 36.8125 54.6875 
L 36.8125 47.703125 
L 18.3125 47.703125 
L 18.3125 18.015625 
Q 18.3125 11.328125 20.140625 9.421875 
Q 21.96875 7.515625 27.59375 7.515625 
L 36.8125 7.515625 
L 36.8125 0 
L 27.59375 0 
Q 17.1875 0 13.234375 3.875 
Q 9.28125 7.765625 9.28125 18.015625 
L 9.28125 47.703125 
L 2.6875 47.703125 
L 2.6875 54.6875 
L 9.28125 54.6875 
L 9.28125 70.21875 
z
" id="DejaVuSans-74"/>
     </defs>
     <g transform="translate(14.798438 179.471563)rotate(-90)scale(0.1 -0.1)">
      <use xlink:href="#DejaVuSans-52"/>
      <use x="69.451172" xlink:href="#DejaVuSans-61"/>
      <use x="130.730469" xlink:href="#DejaVuSans-74"/>
      <use x="169.939453" xlink:href="#DejaVuSans-65"/>
     </g>
    </g>
   </g>
   <g id="patch_92">
    <path d="M 40.603125 313.478125 
L 40.603125 22.318125 
" style="fill:none;stroke:#000000;stroke-linecap:square;stroke-linejoin:miter;stroke-width:0.8;"/>
   </g>
   <g id="patch_93">
    <path d="M 630.713125 313.478125 
L 630.713125 22.318125 
" style="fill:none;stroke:#000000;stroke-linecap:square;stroke-linejoin:miter;stroke-width:0.8;"/>
   </g>
   <g id="patch_94">
    <path d="M 40.603125 313.478125 
L 630.713125 313.478125 
" style="fill:none;stroke:#000000;stroke-linecap:square;stroke-linejoin:miter;stroke-width:0.8;"/>
   </g>
   <g id="patch_95">
    <path d="M 40.603125 22.318125 
L 630.713125 22.318125 
" style="fill:none;stroke:#000000;stroke-linecap:square;stroke-linejoin:miter;stroke-width:0.8;"/>
   </g>
   <g id="text_14">
    <!-- Inherent opinion rate [20, 21, 19, 22] -->
    <defs>
     <path d="M 9.8125 72.90625 
L 19.671875 72.90625 
L 19.671875 0 
L 9.8125 0 
z
" id="DejaVuSans-49"/>
     <path d="M 54.890625 33.015625 
L 54.890625 0 
L 45.90625 0 
L 45.90625 32.71875 
Q 45.90625 40.484375 42.875 44.328125 
Q 39.84375 48.1875 33.796875 48.1875 
Q 26.515625 48.1875 22.3125 43.546875 
Q 18.109375 38.921875 18.109375 30.90625 
L 18.109375 0 
L 9.078125 0 
L 9.078125 75.984375 
L 18.109375 75.984375 
L 18.109375 46.1875 
Q 21.34375 51.125 25.703125 53.5625 
Q 30.078125 56 35.796875 56 
Q 45.21875 56 50.046875 50.171875 
Q 54.890625 44.34375 54.890625 33.015625 
z
" id="DejaVuSans-68"/>
     <path d="M 41.109375 46.296875 
Q 39.59375 47.171875 37.8125 47.578125 
Q 36.03125 48 33.890625 48 
Q 26.265625 48 22.1875 43.046875 
Q 18.109375 38.09375 18.109375 28.8125 
L 18.109375 0 
L 9.078125 0 
L 9.078125 54.6875 
L 18.109375 54.6875 
L 18.109375 46.1875 
Q 20.953125 51.171875 25.484375 53.578125 
Q 30.03125 56 36.53125 56 
Q 37.453125 56 38.578125 55.875 
Q 39.703125 55.765625 41.0625 55.515625 
z
" id="DejaVuSans-72"/>
     <path id="DejaVuSans-20"/>
     <path d="M 30.609375 48.390625 
Q 23.390625 48.390625 19.1875 42.75 
Q 14.984375 37.109375 14.984375 27.296875 
Q 14.984375 17.484375 19.15625 11.84375 
Q 23.34375 6.203125 30.609375 6.203125 
Q 37.796875 6.203125 41.984375 11.859375 
Q 46.1875 17.53125 46.1875 27.296875 
Q 46.1875 37.015625 41.984375 42.703125 
Q 37.796875 48.390625 30.609375 48.390625 
z
M 30.609375 56 
Q 42.328125 56 49.015625 48.375 
Q 55.71875 40.765625 55.71875 27.296875 
Q 55.71875 13.875 49.015625 6.21875 
Q 42.328125 -1.421875 30.609375 -1.421875 
Q 18.84375 -1.421875 12.171875 6.21875 
Q 5.515625 13.875 5.515625 27.296875 
Q 5.515625 40.765625 12.171875 48.375 
Q 18.84375 56 30.609375 56 
z
" id="DejaVuSans-6f"/>
     <path d="M 18.109375 8.203125 
L 18.109375 -20.796875 
L 9.078125 -20.796875 
L 9.078125 54.6875 
L 18.109375 54.6875 
L 18.109375 46.390625 
Q 20.953125 51.265625 25.265625 53.625 
Q 29.59375 56 35.59375 56 
Q 45.5625 56 51.78125 48.09375 
Q 58.015625 40.1875 58.015625 27.296875 
Q 58.015625 14.40625 51.78125 6.484375 
Q 45.5625 -1.421875 35.59375 -1.421875 
Q 29.59375 -1.421875 25.265625 0.953125 
Q 20.953125 3.328125 18.109375 8.203125 
z
M 48.6875 27.296875 
Q 48.6875 37.203125 44.609375 42.84375 
Q 40.53125 48.484375 33.40625 48.484375 
Q 26.265625 48.484375 22.1875 42.84375 
Q 18.109375 37.203125 18.109375 27.296875 
Q 18.109375 17.390625 22.1875 11.75 
Q 26.265625 6.109375 33.40625 6.109375 
Q 40.53125 6.109375 44.609375 11.75 
Q 48.6875 17.390625 48.6875 27.296875 
z
" id="DejaVuSans-70"/>
     <path d="M 9.421875 54.6875 
L 18.40625 54.6875 
L 18.40625 0 
L 9.421875 0 
z
M 9.421875 75.984375 
L 18.40625 75.984375 
L 18.40625 64.59375 
L 9.421875 64.59375 
z
" id="DejaVuSans-69"/>
     <path d="M 8.59375 75.984375 
L 29.296875 75.984375 
L 29.296875 69 
L 17.578125 69 
L 17.578125 -6.203125 
L 29.296875 -6.203125 
L 29.296875 -13.1875 
L 8.59375 -13.1875 
z
" id="DejaVuSans-5b"/>
     <path d="M 11.71875 12.40625 
L 22.015625 12.40625 
L 22.015625 4 
L 14.015625 -11.625 
L 7.71875 -11.625 
L 11.71875 4 
z
" id="DejaVuSans-2c"/>
     <path d="M 10.984375 1.515625 
L 10.984375 10.5 
Q 14.703125 8.734375 18.5 7.8125 
Q 22.3125 6.890625 25.984375 6.890625 
Q 35.75 6.890625 40.890625 13.453125 
Q 46.046875 20.015625 46.78125 33.40625 
Q 43.953125 29.203125 39.59375 26.953125 
Q 35.25 24.703125 29.984375 24.703125 
Q 19.046875 24.703125 12.671875 31.3125 
Q 6.296875 37.9375 6.296875 49.421875 
Q 6.296875 60.640625 12.9375 67.421875 
Q 19.578125 74.21875 30.609375 74.21875 
Q 43.265625 74.21875 49.921875 64.515625 
Q 56.59375 54.828125 56.59375 36.375 
Q 56.59375 19.140625 48.40625 8.859375 
Q 40.234375 -1.421875 26.421875 -1.421875 
Q 22.703125 -1.421875 18.890625 -0.6875 
Q 15.09375 0.046875 10.984375 1.515625 
z
M 30.609375 32.421875 
Q 37.25 32.421875 41.125 36.953125 
Q 45.015625 41.5 45.015625 49.421875 
Q 45.015625 57.28125 41.125 61.84375 
Q 37.25 66.40625 30.609375 66.40625 
Q 23.96875 66.40625 20.09375 61.84375 
Q 16.21875 57.28125 16.21875 49.421875 
Q 16.21875 41.5 20.09375 36.953125 
Q 23.96875 32.421875 30.609375 32.421875 
z
" id="DejaVuSans-39"/>
     <path d="M 30.421875 75.984375 
L 30.421875 -13.1875 
L 9.71875 -13.1875 
L 9.71875 -6.203125 
L 21.390625 -6.203125 
L 21.390625 69 
L 9.71875 69 
L 9.71875 75.984375 
z
" id="DejaVuSans-5d"/>
    </defs>
    <g transform="translate(223.618438 16.318125)scale(0.12 -0.12)">
     <use xlink:href="#DejaVuSans-49"/>
     <use x="29.492188" xlink:href="#DejaVuSans-6e"/>
     <use x="92.871094" xlink:href="#DejaVuSans-68"/>
     <use x="156.25" xlink:href="#DejaVuSans-65"/>
     <use x="217.773438" xlink:href="#DejaVuSans-72"/>
     <use x="258.855469" xlink:href="#DejaVuSans-65"/>
     <use x="320.378906" xlink:href="#DejaVuSans-6e"/>
     <use x="383.757812" xlink:href="#DejaVuSans-74"/>
     <use x="422.966797" xlink:href="#DejaVuSans-20"/>
     <use x="454.753906" xlink:href="#DejaVuSans-6f"/>
     <use x="515.935547" xlink:href="#DejaVuSans-70"/>
     <use x="579.412109" xlink:href="#DejaVuSans-69"/>
     <use x="607.195312" xlink:href="#DejaVuSans-6e"/>
     <use x="670.574219" xlink:href="#DejaVuSans-69"/>
     <use x="698.357422" xlink:href="#DejaVuSans-6f"/>
     <use x="759.539062" xlink:href="#DejaVuSans-6e"/>
     <use x="822.917969" xlink:href="#DejaVuSans-20"/>
     <use x="854.705078" xlink:href="#DejaVuSans-72"/>
     <use x="895.818359" xlink:href="#DejaVuSans-61"/>
     <use x="957.097656" xlink:href="#DejaVuSans-74"/>
     <use x="996.306641" xlink:href="#DejaVuSans-65"/>
     <use x="1057.830078" xlink:href="#DejaVuSans-20"/>
     <use x="1089.617188" xlink:href="#DejaVuSans-5b"/>
     <use x="1128.630859" xlink:href="#DejaVuSans-32"/>
     <use x="1192.253906" xlink:href="#DejaVuSans-30"/>
     <use x="1255.876953" xlink:href="#DejaVuSans-2c"/>
     <use x="1287.664062" xlink:href="#DejaVuSans-20"/>
     <use x="1319.451172" xlink:href="#DejaVuSans-32"/>
     <use x="1383.074219" xlink:href="#DejaVuSans-31"/>
     <use x="1446.697266" xlink:href="#DejaVuSans-2c"/>
     <use x="1478.484375" xlink:href="#DejaVuSans-20"/>
     <use x="1510.271484" xlink:href="#DejaVuSans-31"/>
     <use x="1573.894531" xlink:href="#DejaVuSans-39"/>
     <use x="1637.517578" xlink:href="#DejaVuSans-2c"/>
     <use x="1669.304688" xlink:href="#DejaVuSans-20"/>
     <use x="1701.091797" xlink:href="#DejaVuSans-32"/>
     <use x="1764.714844" xlink:href="#DejaVuSans-32"/>
     <use x="1828.337891" xlink:href="#DejaVuSans-5d"/>
    </g>
   </g>
  </g>
 </g>
 <defs>
  <clipPath id="p578a6a739b">
   <rect height="291.16" width="590.11" x="40.603125" y="22.318125"/>
  </clipPath>
 </defs>
</svg>
