<?xml version="1.0" encoding="utf-8" standalone="no"?>
<!DOCTYPE svg PUBLIC "-//W3C//DTD SVG 1.1//EN"
  "http://www.w3.org/Graphics/SVG/1.1/DTD/svg11.dtd">
<!-- Created with matplotlib (http://matplotlib.org/) -->
<svg height="351.034375pt" version="1.1" viewBox="0 0 641.350625 351.034375" width="641.350625pt" xmlns="http://www.w3.org/2000/svg" xmlns:xlink="http://www.w3.org/1999/xlink">
 <defs>
  <style type="text/css">
*{stroke-linecap:butt;stroke-linejoin:round;}
  </style>
 </defs>
 <g id="figure_1">
  <g id="patch_1">
   <path d="M 0 351.034375 
L 641.350625 351.034375 
L 641.350625 0 
L 0 0 
z
" style="fill:#ffffff;"/>
  </g>
  <g id="axes_1">
   <g id="patch_2">
    <path d="M 34.240625 313.478125 
L 630.650625 313.478125 
L 630.650625 22.318125 
L 34.240625 22.318125 
z
" style="fill:#ffffff;"/>
   </g>
   <g id="patch_3">
    <path clip-path="url(#p89f7ccb626)" d="M 61.35017 313.478125 
L 66.839167 313.478125 
L 66.839167 36.182887 
L 61.35017 36.182887 
z
" style="fill:#ff9933;"/>
   </g>
   <g id="patch_4">
    <path clip-path="url(#p89f7ccb626)" d="M 67.449056 313.478125 
L 72.938053 313.478125 
L 72.938053 36.182887 
L 67.449056 36.182887 
z
" style="fill:#ff9933;"/>
   </g>
   <g id="patch_5">
    <path clip-path="url(#p89f7ccb626)" d="M 73.547941 313.478125 
L 79.036938 313.478125 
L 79.036938 36.182887 
L 73.547941 36.182887 
z
" style="fill:#ff9933;"/>
   </g>
   <g id="patch_6">
    <path clip-path="url(#p89f7ccb626)" d="M 79.646827 313.478125 
L 85.135823 313.478125 
L 85.135823 36.182887 
L 79.646827 36.182887 
z
" style="fill:#ff9933;"/>
   </g>
   <g id="patch_7">
    <path clip-path="url(#p89f7ccb626)" d="M 85.745712 313.478125 
L 91.234709 313.478125 
L 91.234709 36.182887 
L 85.745712 36.182887 
z
" style="fill:#ff9933;"/>
   </g>
   <g id="patch_8">
    <path clip-path="url(#p89f7ccb626)" d="M 91.844597 313.478125 
L 97.333594 313.478125 
L 97.333594 36.182887 
L 91.844597 36.182887 
z
" style="fill:#ff9933;"/>
   </g>
   <g id="patch_9">
    <path clip-path="url(#p89f7ccb626)" d="M 97.943483 313.478125 
L 103.432479 313.478125 
L 103.432479 36.182887 
L 97.943483 36.182887 
z
" style="fill:#ff9933;"/>
   </g>
   <g id="patch_10">
    <path clip-path="url(#p89f7ccb626)" d="M 104.042368 313.478125 
L 109.531365 313.478125 
L 109.531365 36.182887 
L 104.042368 36.182887 
z
" style="fill:#ff9933;"/>
   </g>
   <g id="patch_11">
    <path clip-path="url(#p89f7ccb626)" d="M 110.141253 313.478125 
L 115.63025 313.478125 
L 115.63025 36.182887 
L 110.141253 36.182887 
z
" style="fill:#ff9933;"/>
   </g>
   <g id="patch_12">
    <path clip-path="url(#p89f7ccb626)" d="M 116.240139 313.478125 
L 121.729136 313.478125 
L 121.729136 36.182887 
L 116.240139 36.182887 
z
" style="fill:#ff9933;"/>
   </g>
   <g id="patch_13">
    <path clip-path="url(#p89f7ccb626)" d="M 122.339024 313.478125 
L 127.828021 313.478125 
L 127.828021 36.182887 
L 122.339024 36.182887 
z
" style="fill:#ff9933;"/>
   </g>
   <g id="patch_14">
    <path clip-path="url(#p89f7ccb626)" d="M 128.437909 313.478125 
L 133.926906 313.478125 
L 133.926906 36.182887 
L 128.437909 36.182887 
z
" style="fill:#ff9933;"/>
   </g>
   <g id="patch_15">
    <path clip-path="url(#p89f7ccb626)" d="M 134.536795 313.478125 
L 140.025792 313.478125 
L 140.025792 36.182887 
L 134.536795 36.182887 
z
" style="fill:#ff9933;"/>
   </g>
   <g id="patch_16">
    <path clip-path="url(#p89f7ccb626)" d="M 140.63568 313.478125 
L 146.124677 313.478125 
L 146.124677 36.182887 
L 140.63568 36.182887 
z
" style="fill:#ff9933;"/>
   </g>
   <g id="patch_17">
    <path clip-path="url(#p89f7ccb626)" d="M 146.734566 313.478125 
L 152.223562 313.478125 
L 152.223562 36.182887 
L 146.734566 36.182887 
z
" style="fill:#ff9933;"/>
   </g>
   <g id="patch_18">
    <path clip-path="url(#p89f7ccb626)" d="M 152.833451 313.478125 
L 158.322448 313.478125 
L 158.322448 36.182887 
L 152.833451 36.182887 
z
" style="fill:#ff9933;"/>
   </g>
   <g id="patch_19">
    <path clip-path="url(#p89f7ccb626)" d="M 158.932336 313.478125 
L 164.421333 313.478125 
L 164.421333 36.182887 
L 158.932336 36.182887 
z
" style="fill:#ff9933;"/>
   </g>
   <g id="patch_20">
    <path clip-path="url(#p89f7ccb626)" d="M 165.031222 313.478125 
L 170.520219 313.478125 
L 170.520219 36.182887 
L 165.031222 36.182887 
z
" style="fill:#ff9933;"/>
   </g>
   <g id="patch_21">
    <path clip-path="url(#p89f7ccb626)" d="M 171.130107 313.478125 
L 176.619104 313.478125 
L 176.619104 36.182887 
L 171.130107 36.182887 
z
" style="fill:#ff9933;"/>
   </g>
   <g id="patch_22">
    <path clip-path="url(#p89f7ccb626)" d="M 177.228992 313.478125 
L 182.717989 313.478125 
L 182.717989 36.182887 
L 177.228992 36.182887 
z
" style="fill:#ff9933;"/>
   </g>
   <g id="patch_23">
    <path clip-path="url(#p89f7ccb626)" d="M 183.327878 313.478125 
L 188.816875 313.478125 
L 188.816875 36.182887 
L 183.327878 36.182887 
z
" style="fill:#ff9933;"/>
   </g>
   <g id="patch_24">
    <path clip-path="url(#p89f7ccb626)" d="M 189.426763 313.478125 
L 194.91576 313.478125 
L 194.91576 36.182887 
L 189.426763 36.182887 
z
" style="fill:#ff9933;"/>
   </g>
   <g id="patch_25">
    <path clip-path="url(#p89f7ccb626)" d="M 195.525649 313.478125 
L 201.014645 313.478125 
L 201.014645 36.182887 
L 195.525649 36.182887 
z
" style="fill:#ff9933;"/>
   </g>
   <g id="patch_26">
    <path clip-path="url(#p89f7ccb626)" d="M 201.624534 313.478125 
L 207.113531 313.478125 
L 207.113531 36.182887 
L 201.624534 36.182887 
z
" style="fill:#ff9933;"/>
   </g>
   <g id="patch_27">
    <path clip-path="url(#p89f7ccb626)" d="M 207.723419 313.478125 
L 213.212416 313.478125 
L 213.212416 36.182887 
L 207.723419 36.182887 
z
" style="fill:#ff9933;"/>
   </g>
   <g id="patch_28">
    <path clip-path="url(#p89f7ccb626)" d="M 213.822305 313.478125 
L 219.311301 313.478125 
L 219.311301 36.182887 
L 213.822305 36.182887 
z
" style="fill:#ff9933;"/>
   </g>
   <g id="patch_29">
    <path clip-path="url(#p89f7ccb626)" d="M 219.92119 313.478125 
L 225.410187 313.478125 
L 225.410187 36.182887 
L 219.92119 36.182887 
z
" style="fill:#ff9933;"/>
   </g>
   <g id="patch_30">
    <path clip-path="url(#p89f7ccb626)" d="M 226.020075 313.478125 
L 231.509072 313.478125 
L 231.509072 36.182887 
L 226.020075 36.182887 
z
" style="fill:#ff9933;"/>
   </g>
   <g id="patch_31">
    <path clip-path="url(#p89f7ccb626)" d="M 232.118961 313.478125 
L 237.607958 313.478125 
L 237.607958 36.182887 
L 232.118961 36.182887 
z
" style="fill:#ff9933;"/>
   </g>
   <g id="patch_32">
    <path clip-path="url(#p89f7ccb626)" d="M 238.217846 313.478125 
L 243.706843 313.478125 
L 243.706843 91.641935 
L 238.217846 91.641935 
z
" style="fill:#ff9933;"/>
   </g>
   <g id="patch_33">
    <path clip-path="url(#p89f7ccb626)" d="M 244.316731 313.478125 
L 249.805728 313.478125 
L 249.805728 202.56003 
L 244.316731 202.56003 
z
" style="fill:#ff9933;"/>
   </g>
   <g id="patch_34">
    <path clip-path="url(#p89f7ccb626)" d="M 250.415617 313.478125 
L 255.904614 313.478125 
L 255.904614 258.019077 
L 250.415617 258.019077 
z
" style="fill:#ff9933;"/>
   </g>
   <g id="patch_35">
    <path clip-path="url(#p89f7ccb626)" d="M 256.514502 313.478125 
L 262.003499 313.478125 
L 262.003499 313.478125 
L 256.514502 313.478125 
z
" style="fill:#ff9933;"/>
   </g>
   <g id="patch_36">
    <path clip-path="url(#p89f7ccb626)" d="M 262.613388 313.478125 
L 268.102384 313.478125 
L 268.102384 313.478125 
L 262.613388 313.478125 
z
" style="fill:#ff9933;"/>
   </g>
   <g id="patch_37">
    <path clip-path="url(#p89f7ccb626)" d="M 268.712273 313.478125 
L 274.20127 313.478125 
L 274.20127 313.478125 
L 268.712273 313.478125 
z
" style="fill:#ff9933;"/>
   </g>
   <g id="patch_38">
    <path clip-path="url(#p89f7ccb626)" d="M 274.811158 313.478125 
L 280.300155 313.478125 
L 280.300155 313.478125 
L 274.811158 313.478125 
z
" style="fill:#ff9933;"/>
   </g>
   <g id="patch_39">
    <path clip-path="url(#p89f7ccb626)" d="M 280.910044 313.478125 
L 286.39904 313.478125 
L 286.39904 313.478125 
L 280.910044 313.478125 
z
" style="fill:#ff9933;"/>
   </g>
   <g id="patch_40">
    <path clip-path="url(#p89f7ccb626)" d="M 287.008929 313.478125 
L 292.497926 313.478125 
L 292.497926 313.478125 
L 287.008929 313.478125 
z
" style="fill:#ff9933;"/>
   </g>
   <g id="patch_41">
    <path clip-path="url(#p89f7ccb626)" d="M 293.107814 313.478125 
L 298.596811 313.478125 
L 298.596811 313.478125 
L 293.107814 313.478125 
z
" style="fill:#ff9933;"/>
   </g>
   <g id="patch_42">
    <path clip-path="url(#p89f7ccb626)" d="M 299.2067 313.478125 
L 304.695697 313.478125 
L 304.695697 313.478125 
L 299.2067 313.478125 
z
" style="fill:#ff9933;"/>
   </g>
   <g id="patch_43">
    <path clip-path="url(#p89f7ccb626)" d="M 305.305585 313.478125 
L 310.794582 313.478125 
L 310.794582 313.478125 
L 305.305585 313.478125 
z
" style="fill:#ff9933;"/>
   </g>
   <g id="patch_44">
    <path clip-path="url(#p89f7ccb626)" d="M 311.40447 313.478125 
L 316.893467 313.478125 
L 316.893467 313.478125 
L 311.40447 313.478125 
z
" style="fill:#ff9933;"/>
   </g>
   <g id="patch_45">
    <path clip-path="url(#p89f7ccb626)" d="M 317.503356 313.478125 
L 322.992353 313.478125 
L 322.992353 313.478125 
L 317.503356 313.478125 
z
" style="fill:#ff9933;"/>
   </g>
   <g id="patch_46">
    <path clip-path="url(#p89f7ccb626)" d="M 323.602241 313.478125 
L 329.091238 313.478125 
L 329.091238 313.478125 
L 323.602241 313.478125 
z
" style="fill:#ff9933;"/>
   </g>
   <g id="patch_47">
    <path clip-path="url(#p89f7ccb626)" d="M 329.701127 313.478125 
L 335.190123 313.478125 
L 335.190123 313.478125 
L 329.701127 313.478125 
z
" style="fill:#ff9933;"/>
   </g>
   <g id="patch_48">
    <path clip-path="url(#p89f7ccb626)" d="M 335.800012 313.478125 
L 341.289009 313.478125 
L 341.289009 313.478125 
L 335.800012 313.478125 
z
" style="fill:#ff9933;"/>
   </g>
   <g id="patch_49">
    <path clip-path="url(#p89f7ccb626)" d="M 341.898897 313.478125 
L 347.387894 313.478125 
L 347.387894 313.478125 
L 341.898897 313.478125 
z
" style="fill:#ff9933;"/>
   </g>
   <g id="patch_50">
    <path clip-path="url(#p89f7ccb626)" d="M 347.997783 313.478125 
L 353.48678 313.478125 
L 353.48678 313.478125 
L 347.997783 313.478125 
z
" style="fill:#ff9933;"/>
   </g>
   <g id="patch_51">
    <path clip-path="url(#p89f7ccb626)" d="M 354.096668 313.478125 
L 359.585665 313.478125 
L 359.585665 313.478125 
L 354.096668 313.478125 
z
" style="fill:#ff9933;"/>
   </g>
   <g id="patch_52">
    <path clip-path="url(#p89f7ccb626)" d="M 360.195553 313.478125 
L 365.68455 313.478125 
L 365.68455 313.478125 
L 360.195553 313.478125 
z
" style="fill:#ff9933;"/>
   </g>
   <g id="patch_53">
    <path clip-path="url(#p89f7ccb626)" d="M 366.294439 313.478125 
L 371.783436 313.478125 
L 371.783436 313.478125 
L 366.294439 313.478125 
z
" style="fill:#ff9933;"/>
   </g>
   <g id="patch_54">
    <path clip-path="url(#p89f7ccb626)" d="M 372.393324 313.478125 
L 377.882321 313.478125 
L 377.882321 313.478125 
L 372.393324 313.478125 
z
" style="fill:#ff9933;"/>
   </g>
   <g id="patch_55">
    <path clip-path="url(#p89f7ccb626)" d="M 378.49221 313.478125 
L 383.981206 313.478125 
L 383.981206 313.478125 
L 378.49221 313.478125 
z
" style="fill:#ff9933;"/>
   </g>
   <g id="patch_56">
    <path clip-path="url(#p89f7ccb626)" d="M 384.591095 313.478125 
L 390.080092 313.478125 
L 390.080092 313.478125 
L 384.591095 313.478125 
z
" style="fill:#ff9933;"/>
   </g>
   <g id="patch_57">
    <path clip-path="url(#p89f7ccb626)" d="M 390.68998 313.478125 
L 396.178977 313.478125 
L 396.178977 313.478125 
L 390.68998 313.478125 
z
" style="fill:#ff9933;"/>
   </g>
   <g id="patch_58">
    <path clip-path="url(#p89f7ccb626)" d="M 396.788866 313.478125 
L 402.277862 313.478125 
L 402.277862 313.478125 
L 396.788866 313.478125 
z
" style="fill:#ff9933;"/>
   </g>
   <g id="patch_59">
    <path clip-path="url(#p89f7ccb626)" d="M 402.887751 313.478125 
L 408.376748 313.478125 
L 408.376748 313.478125 
L 402.887751 313.478125 
z
" style="fill:#ff9933;"/>
   </g>
   <g id="patch_60">
    <path clip-path="url(#p89f7ccb626)" d="M 408.986636 313.478125 
L 414.475633 313.478125 
L 414.475633 313.478125 
L 408.986636 313.478125 
z
" style="fill:#ff9933;"/>
   </g>
   <g id="patch_61">
    <path clip-path="url(#p89f7ccb626)" d="M 415.085522 313.478125 
L 420.574519 313.478125 
L 420.574519 313.478125 
L 415.085522 313.478125 
z
" style="fill:#ff9933;"/>
   </g>
   <g id="patch_62">
    <path clip-path="url(#p89f7ccb626)" d="M 421.184407 313.478125 
L 426.673404 313.478125 
L 426.673404 313.478125 
L 421.184407 313.478125 
z
" style="fill:#ff9933;"/>
   </g>
   <g id="patch_63">
    <path clip-path="url(#p89f7ccb626)" d="M 427.283292 313.478125 
L 432.772289 313.478125 
L 432.772289 313.478125 
L 427.283292 313.478125 
z
" style="fill:#ff9933;"/>
   </g>
   <g id="patch_64">
    <path clip-path="url(#p89f7ccb626)" d="M 433.382178 313.478125 
L 438.871175 313.478125 
L 438.871175 313.478125 
L 433.382178 313.478125 
z
" style="fill:#ff9933;"/>
   </g>
   <g id="patch_65">
    <path clip-path="url(#p89f7ccb626)" d="M 439.481063 313.478125 
L 444.97006 313.478125 
L 444.97006 313.478125 
L 439.481063 313.478125 
z
" style="fill:#ff9933;"/>
   </g>
   <g id="patch_66">
    <path clip-path="url(#p89f7ccb626)" d="M 445.579949 313.478125 
L 451.068945 313.478125 
L 451.068945 313.478125 
L 445.579949 313.478125 
z
" style="fill:#ff9933;"/>
   </g>
   <g id="patch_67">
    <path clip-path="url(#p89f7ccb626)" d="M 451.678834 313.478125 
L 457.167831 313.478125 
L 457.167831 313.478125 
L 451.678834 313.478125 
z
" style="fill:#ff9933;"/>
   </g>
   <g id="patch_68">
    <path clip-path="url(#p89f7ccb626)" d="M 457.777719 313.478125 
L 463.266716 313.478125 
L 463.266716 313.478125 
L 457.777719 313.478125 
z
" style="fill:#ff9933;"/>
   </g>
   <g id="patch_69">
    <path clip-path="url(#p89f7ccb626)" d="M 463.876605 313.478125 
L 469.365601 313.478125 
L 469.365601 313.478125 
L 463.876605 313.478125 
z
" style="fill:#ff9933;"/>
   </g>
   <g id="patch_70">
    <path clip-path="url(#p89f7ccb626)" d="M 469.97549 313.478125 
L 475.464487 313.478125 
L 475.464487 313.478125 
L 469.97549 313.478125 
z
" style="fill:#ff9933;"/>
   </g>
   <g id="patch_71">
    <path clip-path="url(#p89f7ccb626)" d="M 476.074375 313.478125 
L 481.563372 313.478125 
L 481.563372 313.478125 
L 476.074375 313.478125 
z
" style="fill:#ff9933;"/>
   </g>
   <g id="patch_72">
    <path clip-path="url(#p89f7ccb626)" d="M 482.173261 313.478125 
L 487.662258 313.478125 
L 487.662258 313.478125 
L 482.173261 313.478125 
z
" style="fill:#ff9933;"/>
   </g>
   <g id="patch_73">
    <path clip-path="url(#p89f7ccb626)" d="M 488.272146 313.478125 
L 493.761143 313.478125 
L 493.761143 313.478125 
L 488.272146 313.478125 
z
" style="fill:#ff9933;"/>
   </g>
   <g id="patch_74">
    <path clip-path="url(#p89f7ccb626)" d="M 494.371031 313.478125 
L 499.860028 313.478125 
L 499.860028 313.478125 
L 494.371031 313.478125 
z
" style="fill:#ff9933;"/>
   </g>
   <g id="patch_75">
    <path clip-path="url(#p89f7ccb626)" d="M 500.469917 313.478125 
L 505.958914 313.478125 
L 505.958914 313.478125 
L 500.469917 313.478125 
z
" style="fill:#ff9933;"/>
   </g>
   <g id="patch_76">
    <path clip-path="url(#p89f7ccb626)" d="M 506.568802 313.478125 
L 512.057799 313.478125 
L 512.057799 313.478125 
L 506.568802 313.478125 
z
" style="fill:#ff9933;"/>
   </g>
   <g id="patch_77">
    <path clip-path="url(#p89f7ccb626)" d="M 512.667688 313.478125 
L 518.156684 313.478125 
L 518.156684 313.478125 
L 512.667688 313.478125 
z
" style="fill:#ff9933;"/>
   </g>
   <g id="patch_78">
    <path clip-path="url(#p89f7ccb626)" d="M 518.766573 313.478125 
L 524.25557 313.478125 
L 524.25557 313.478125 
L 518.766573 313.478125 
z
" style="fill:#ff9933;"/>
   </g>
   <g id="patch_79">
    <path clip-path="url(#p89f7ccb626)" d="M 524.865458 313.478125 
L 530.354455 313.478125 
L 530.354455 313.478125 
L 524.865458 313.478125 
z
" style="fill:#ff9933;"/>
   </g>
   <g id="patch_80">
    <path clip-path="url(#p89f7ccb626)" d="M 530.964344 313.478125 
L 536.453341 313.478125 
L 536.453341 313.478125 
L 530.964344 313.478125 
z
" style="fill:#ff9933;"/>
   </g>
   <g id="patch_81">
    <path clip-path="url(#p89f7ccb626)" d="M 537.063229 313.478125 
L 542.552226 313.478125 
L 542.552226 313.478125 
L 537.063229 313.478125 
z
" style="fill:#ff9933;"/>
   </g>
   <g id="patch_82">
    <path clip-path="url(#p89f7ccb626)" d="M 543.162114 313.478125 
L 548.651111 313.478125 
L 548.651111 313.478125 
L 543.162114 313.478125 
z
" style="fill:#ff9933;"/>
   </g>
   <g id="patch_83">
    <path clip-path="url(#p89f7ccb626)" d="M 549.261 313.478125 
L 554.749997 313.478125 
L 554.749997 313.478125 
L 549.261 313.478125 
z
" style="fill:#ff9933;"/>
   </g>
   <g id="patch_84">
    <path clip-path="url(#p89f7ccb626)" d="M 555.359885 313.478125 
L 560.848882 313.478125 
L 560.848882 313.478125 
L 555.359885 313.478125 
z
" style="fill:#ff9933;"/>
   </g>
   <g id="patch_85">
    <path clip-path="url(#p89f7ccb626)" d="M 561.458771 313.478125 
L 566.947767 313.478125 
L 566.947767 313.478125 
L 561.458771 313.478125 
z
" style="fill:#ff9933;"/>
   </g>
   <g id="patch_86">
    <path clip-path="url(#p89f7ccb626)" d="M 567.557656 313.478125 
L 573.046653 313.478125 
L 573.046653 313.478125 
L 567.557656 313.478125 
z
" style="fill:#ff9933;"/>
   </g>
   <g id="patch_87">
    <path clip-path="url(#p89f7ccb626)" d="M 573.656541 313.478125 
L 579.145538 313.478125 
L 579.145538 313.478125 
L 573.656541 313.478125 
z
" style="fill:#ff9933;"/>
   </g>
   <g id="patch_88">
    <path clip-path="url(#p89f7ccb626)" d="M 579.755427 313.478125 
L 585.244423 313.478125 
L 585.244423 313.478125 
L 579.755427 313.478125 
z
" style="fill:#ff9933;"/>
   </g>
   <g id="patch_89">
    <path clip-path="url(#p89f7ccb626)" d="M 585.854312 313.478125 
L 591.343309 313.478125 
L 591.343309 313.478125 
L 585.854312 313.478125 
z
" style="fill:#ff9933;"/>
   </g>
   <g id="patch_90">
    <path clip-path="url(#p89f7ccb626)" d="M 591.953197 313.478125 
L 597.442194 313.478125 
L 597.442194 313.478125 
L 591.953197 313.478125 
z
" style="fill:#ff9933;"/>
   </g>
   <g id="patch_91">
    <path clip-path="url(#p89f7ccb626)" d="M 598.052083 313.478125 
L 603.54108 313.478125 
L 603.54108 313.478125 
L 598.052083 313.478125 
z
" style="fill:#ff9933;"/>
   </g>
   <g id="matplotlib.axis_1">
    <g id="xtick_1">
     <g id="line2d_1">
      <defs>
       <path d="M 0 0 
L 0 3.5 
" id="m26d5c429d9" style="stroke:#000000;stroke-width:0.8;"/>
      </defs>
      <g>
       <use style="stroke:#000000;stroke-width:0.8;" x="57.995784" xlink:href="#m26d5c429d9" y="313.478125"/>
      </g>
     </g>
     <g id="text_1">
      <!-- 0 -->
      <defs>
       <path d="M 31.78125 66.40625 
Q 24.171875 66.40625 20.328125 58.90625 
Q 16.5 51.421875 16.5 36.375 
Q 16.5 21.390625 20.328125 13.890625 
Q 24.171875 6.390625 31.78125 6.390625 
Q 39.453125 6.390625 43.28125 13.890625 
Q 47.125 21.390625 47.125 36.375 
Q 47.125 51.421875 43.28125 58.90625 
Q 39.453125 66.40625 31.78125 66.40625 
z
M 31.78125 74.21875 
Q 44.046875 74.21875 50.515625 64.515625 
Q 56.984375 54.828125 56.984375 36.375 
Q 56.984375 17.96875 50.515625 8.265625 
Q 44.046875 -1.421875 31.78125 -1.421875 
Q 19.53125 -1.421875 13.0625 8.265625 
Q 6.59375 17.96875 6.59375 36.375 
Q 6.59375 54.828125 13.0625 64.515625 
Q 19.53125 74.21875 31.78125 74.21875 
z
" id="DejaVuSans-30"/>
      </defs>
      <g transform="translate(54.814534 328.076563)scale(0.1 -0.1)">
       <use xlink:href="#DejaVuSans-30"/>
      </g>
     </g>
    </g>
    <g id="xtick_2">
     <g id="line2d_2">
      <g>
       <use style="stroke:#000000;stroke-width:0.8;" x="179.973491" xlink:href="#m26d5c429d9" y="313.478125"/>
      </g>
     </g>
     <g id="text_2">
      <!-- 20 -->
      <defs>
       <path d="M 19.1875 8.296875 
L 53.609375 8.296875 
L 53.609375 0 
L 7.328125 0 
L 7.328125 8.296875 
Q 12.9375 14.109375 22.625 23.890625 
Q 32.328125 33.6875 34.8125 36.53125 
Q 39.546875 41.84375 41.421875 45.53125 
Q 43.3125 49.21875 43.3125 52.78125 
Q 43.3125 58.59375 39.234375 62.25 
Q 35.15625 65.921875 28.609375 65.921875 
Q 23.96875 65.921875 18.8125 64.3125 
Q 13.671875 62.703125 7.8125 59.421875 
L 7.8125 69.390625 
Q 13.765625 71.78125 18.9375 73 
Q 24.125 74.21875 28.421875 74.21875 
Q 39.75 74.21875 46.484375 68.546875 
Q 53.21875 62.890625 53.21875 53.421875 
Q 53.21875 48.921875 51.53125 44.890625 
Q 49.859375 40.875 45.40625 35.40625 
Q 44.1875 33.984375 37.640625 27.21875 
Q 31.109375 20.453125 19.1875 8.296875 
z
" id="DejaVuSans-32"/>
      </defs>
      <g transform="translate(173.610991 328.076563)scale(0.1 -0.1)">
       <use xlink:href="#DejaVuSans-32"/>
       <use x="63.623047" xlink:href="#DejaVuSans-30"/>
      </g>
     </g>
    </g>
    <g id="xtick_3">
     <g id="line2d_3">
      <g>
       <use style="stroke:#000000;stroke-width:0.8;" x="301.951198" xlink:href="#m26d5c429d9" y="313.478125"/>
      </g>
     </g>
     <g id="text_3">
      <!-- 40 -->
      <defs>
       <path d="M 37.796875 64.3125 
L 12.890625 25.390625 
L 37.796875 25.390625 
z
M 35.203125 72.90625 
L 47.609375 72.90625 
L 47.609375 25.390625 
L 58.015625 25.390625 
L 58.015625 17.1875 
L 47.609375 17.1875 
L 47.609375 0 
L 37.796875 0 
L 37.796875 17.1875 
L 4.890625 17.1875 
L 4.890625 26.703125 
z
" id="DejaVuSans-34"/>
      </defs>
      <g transform="translate(295.588698 328.076563)scale(0.1 -0.1)">
       <use xlink:href="#DejaVuSans-34"/>
       <use x="63.623047" xlink:href="#DejaVuSans-30"/>
      </g>
     </g>
    </g>
    <g id="xtick_4">
     <g id="line2d_4">
      <g>
       <use style="stroke:#000000;stroke-width:0.8;" x="423.928905" xlink:href="#m26d5c429d9" y="313.478125"/>
      </g>
     </g>
     <g id="text_4">
      <!-- 60 -->
      <defs>
       <path d="M 33.015625 40.375 
Q 26.375 40.375 22.484375 35.828125 
Q 18.609375 31.296875 18.609375 23.390625 
Q 18.609375 15.53125 22.484375 10.953125 
Q 26.375 6.390625 33.015625 6.390625 
Q 39.65625 6.390625 43.53125 10.953125 
Q 47.40625 15.53125 47.40625 23.390625 
Q 47.40625 31.296875 43.53125 35.828125 
Q 39.65625 40.375 33.015625 40.375 
z
M 52.59375 71.296875 
L 52.59375 62.3125 
Q 48.875 64.0625 45.09375 64.984375 
Q 41.3125 65.921875 37.59375 65.921875 
Q 27.828125 65.921875 22.671875 59.328125 
Q 17.53125 52.734375 16.796875 39.40625 
Q 19.671875 43.65625 24.015625 45.921875 
Q 28.375 48.1875 33.59375 48.1875 
Q 44.578125 48.1875 50.953125 41.515625 
Q 57.328125 34.859375 57.328125 23.390625 
Q 57.328125 12.15625 50.6875 5.359375 
Q 44.046875 -1.421875 33.015625 -1.421875 
Q 20.359375 -1.421875 13.671875 8.265625 
Q 6.984375 17.96875 6.984375 36.375 
Q 6.984375 53.65625 15.1875 63.9375 
Q 23.390625 74.21875 37.203125 74.21875 
Q 40.921875 74.21875 44.703125 73.484375 
Q 48.484375 72.75 52.59375 71.296875 
z
" id="DejaVuSans-36"/>
      </defs>
      <g transform="translate(417.566405 328.076563)scale(0.1 -0.1)">
       <use xlink:href="#DejaVuSans-36"/>
       <use x="63.623047" xlink:href="#DejaVuSans-30"/>
      </g>
     </g>
    </g>
    <g id="xtick_5">
     <g id="line2d_5">
      <g>
       <use style="stroke:#000000;stroke-width:0.8;" x="545.906613" xlink:href="#m26d5c429d9" y="313.478125"/>
      </g>
     </g>
     <g id="text_5">
      <!-- 80 -->
      <defs>
       <path d="M 31.78125 34.625 
Q 24.75 34.625 20.71875 30.859375 
Q 16.703125 27.09375 16.703125 20.515625 
Q 16.703125 13.921875 20.71875 10.15625 
Q 24.75 6.390625 31.78125 6.390625 
Q 38.8125 6.390625 42.859375 10.171875 
Q 46.921875 13.96875 46.921875 20.515625 
Q 46.921875 27.09375 42.890625 30.859375 
Q 38.875 34.625 31.78125 34.625 
z
M 21.921875 38.8125 
Q 15.578125 40.375 12.03125 44.71875 
Q 8.5 49.078125 8.5 55.328125 
Q 8.5 64.0625 14.71875 69.140625 
Q 20.953125 74.21875 31.78125 74.21875 
Q 42.671875 74.21875 48.875 69.140625 
Q 55.078125 64.0625 55.078125 55.328125 
Q 55.078125 49.078125 51.53125 44.71875 
Q 48 40.375 41.703125 38.8125 
Q 48.828125 37.15625 52.796875 32.3125 
Q 56.78125 27.484375 56.78125 20.515625 
Q 56.78125 9.90625 50.3125 4.234375 
Q 43.84375 -1.421875 31.78125 -1.421875 
Q 19.734375 -1.421875 13.25 4.234375 
Q 6.78125 9.90625 6.78125 20.515625 
Q 6.78125 27.484375 10.78125 32.3125 
Q 14.796875 37.15625 21.921875 38.8125 
z
M 18.3125 54.390625 
Q 18.3125 48.734375 21.84375 45.5625 
Q 25.390625 42.390625 31.78125 42.390625 
Q 38.140625 42.390625 41.71875 45.5625 
Q 45.3125 48.734375 45.3125 54.390625 
Q 45.3125 60.0625 41.71875 63.234375 
Q 38.140625 66.40625 31.78125 66.40625 
Q 25.390625 66.40625 21.84375 63.234375 
Q 18.3125 60.0625 18.3125 54.390625 
z
" id="DejaVuSans-38"/>
      </defs>
      <g transform="translate(539.544113 328.076563)scale(0.1 -0.1)">
       <use xlink:href="#DejaVuSans-38"/>
       <use x="63.623047" xlink:href="#DejaVuSans-30"/>
      </g>
     </g>
    </g>
    <g id="text_6">
     <!-- Angles -->
     <defs>
      <path d="M 34.1875 63.1875 
L 20.796875 26.90625 
L 47.609375 26.90625 
z
M 28.609375 72.90625 
L 39.796875 72.90625 
L 67.578125 0 
L 57.328125 0 
L 50.6875 18.703125 
L 17.828125 18.703125 
L 11.1875 0 
L 0.78125 0 
z
" id="DejaVuSans-41"/>
      <path d="M 54.890625 33.015625 
L 54.890625 0 
L 45.90625 0 
L 45.90625 32.71875 
Q 45.90625 40.484375 42.875 44.328125 
Q 39.84375 48.1875 33.796875 48.1875 
Q 26.515625 48.1875 22.3125 43.546875 
Q 18.109375 38.921875 18.109375 30.90625 
L 18.109375 0 
L 9.078125 0 
L 9.078125 54.6875 
L 18.109375 54.6875 
L 18.109375 46.1875 
Q 21.34375 51.125 25.703125 53.5625 
Q 30.078125 56 35.796875 56 
Q 45.21875 56 50.046875 50.171875 
Q 54.890625 44.34375 54.890625 33.015625 
z
" id="DejaVuSans-6e"/>
      <path d="M 45.40625 27.984375 
Q 45.40625 37.75 41.375 43.109375 
Q 37.359375 48.484375 30.078125 48.484375 
Q 22.859375 48.484375 18.828125 43.109375 
Q 14.796875 37.75 14.796875 27.984375 
Q 14.796875 18.265625 18.828125 12.890625 
Q 22.859375 7.515625 30.078125 7.515625 
Q 37.359375 7.515625 41.375 12.890625 
Q 45.40625 18.265625 45.40625 27.984375 
z
M 54.390625 6.78125 
Q 54.390625 -7.171875 48.1875 -13.984375 
Q 42 -20.796875 29.203125 -20.796875 
Q 24.46875 -20.796875 20.265625 -20.09375 
Q 16.0625 -19.390625 12.109375 -17.921875 
L 12.109375 -9.1875 
Q 16.0625 -11.328125 19.921875 -12.34375 
Q 23.78125 -13.375 27.78125 -13.375 
Q 36.625 -13.375 41.015625 -8.765625 
Q 45.40625 -4.15625 45.40625 5.171875 
L 45.40625 9.625 
Q 42.625 4.78125 38.28125 2.390625 
Q 33.9375 0 27.875 0 
Q 17.828125 0 11.671875 7.65625 
Q 5.515625 15.328125 5.515625 27.984375 
Q 5.515625 40.671875 11.671875 48.328125 
Q 17.828125 56 27.875 56 
Q 33.9375 56 38.28125 53.609375 
Q 42.625 51.21875 45.40625 46.390625 
L 45.40625 54.6875 
L 54.390625 54.6875 
z
" id="DejaVuSans-67"/>
      <path d="M 9.421875 75.984375 
L 18.40625 75.984375 
L 18.40625 0 
L 9.421875 0 
z
" id="DejaVuSans-6c"/>
      <path d="M 56.203125 29.59375 
L 56.203125 25.203125 
L 14.890625 25.203125 
Q 15.484375 15.921875 20.484375 11.0625 
Q 25.484375 6.203125 34.421875 6.203125 
Q 39.59375 6.203125 44.453125 7.46875 
Q 49.3125 8.734375 54.109375 11.28125 
L 54.109375 2.78125 
Q 49.265625 0.734375 44.1875 -0.34375 
Q 39.109375 -1.421875 33.890625 -1.421875 
Q 20.796875 -1.421875 13.15625 6.1875 
Q 5.515625 13.8125 5.515625 26.8125 
Q 5.515625 40.234375 12.765625 48.109375 
Q 20.015625 56 32.328125 56 
Q 43.359375 56 49.78125 48.890625 
Q 56.203125 41.796875 56.203125 29.59375 
z
M 47.21875 32.234375 
Q 47.125 39.59375 43.09375 43.984375 
Q 39.0625 48.390625 32.421875 48.390625 
Q 24.90625 48.390625 20.390625 44.140625 
Q 15.875 39.890625 15.1875 32.171875 
z
" id="DejaVuSans-65"/>
      <path d="M 44.28125 53.078125 
L 44.28125 44.578125 
Q 40.484375 46.53125 36.375 47.5 
Q 32.28125 48.484375 27.875 48.484375 
Q 21.1875 48.484375 17.84375 46.4375 
Q 14.5 44.390625 14.5 40.28125 
Q 14.5 37.15625 16.890625 35.375 
Q 19.28125 33.59375 26.515625 31.984375 
L 29.59375 31.296875 
Q 39.15625 29.25 43.1875 25.515625 
Q 47.21875 21.78125 47.21875 15.09375 
Q 47.21875 7.46875 41.1875 3.015625 
Q 35.15625 -1.421875 24.609375 -1.421875 
Q 20.21875 -1.421875 15.453125 -0.5625 
Q 10.6875 0.296875 5.421875 2 
L 5.421875 11.28125 
Q 10.40625 8.6875 15.234375 7.390625 
Q 20.0625 6.109375 24.8125 6.109375 
Q 31.15625 6.109375 34.5625 8.28125 
Q 37.984375 10.453125 37.984375 14.40625 
Q 37.984375 18.0625 35.515625 20.015625 
Q 33.0625 21.96875 24.703125 23.78125 
L 21.578125 24.515625 
Q 13.234375 26.265625 9.515625 29.90625 
Q 5.8125 33.546875 5.8125 39.890625 
Q 5.8125 47.609375 11.28125 51.796875 
Q 16.75 56 26.8125 56 
Q 31.78125 56 36.171875 55.265625 
Q 40.578125 54.546875 44.28125 53.078125 
z
" id="DejaVuSans-73"/>
     </defs>
     <g transform="translate(315.612031 341.754687)scale(0.1 -0.1)">
      <use xlink:href="#DejaVuSans-41"/>
      <use x="68.408203" xlink:href="#DejaVuSans-6e"/>
      <use x="131.787109" xlink:href="#DejaVuSans-67"/>
      <use x="195.263672" xlink:href="#DejaVuSans-6c"/>
      <use x="223.046875" xlink:href="#DejaVuSans-65"/>
      <use x="284.570312" xlink:href="#DejaVuSans-73"/>
     </g>
    </g>
   </g>
   <g id="matplotlib.axis_2">
    <g id="ytick_1">
     <g id="line2d_6">
      <defs>
       <path d="M 0 0 
L -3.5 0 
" id="m3870e0bb1f" style="stroke:#000000;stroke-width:0.8;"/>
      </defs>
      <g>
       <use style="stroke:#000000;stroke-width:0.8;" x="34.240625" xlink:href="#m3870e0bb1f" y="313.478125"/>
      </g>
     </g>
     <g id="text_7">
      <!-- 0 -->
      <g transform="translate(20.878125 317.277344)scale(0.1 -0.1)">
       <use xlink:href="#DejaVuSans-30"/>
      </g>
     </g>
    </g>
    <g id="ytick_2">
     <g id="line2d_7">
      <g>
       <use style="stroke:#000000;stroke-width:0.8;" x="34.240625" xlink:href="#m3870e0bb1f" y="258.019077"/>
      </g>
     </g>
     <g id="text_8">
      <!-- 1 -->
      <defs>
       <path d="M 12.40625 8.296875 
L 28.515625 8.296875 
L 28.515625 63.921875 
L 10.984375 60.40625 
L 10.984375 69.390625 
L 28.421875 72.90625 
L 38.28125 72.90625 
L 38.28125 8.296875 
L 54.390625 8.296875 
L 54.390625 0 
L 12.40625 0 
z
" id="DejaVuSans-31"/>
      </defs>
      <g transform="translate(20.878125 261.818296)scale(0.1 -0.1)">
       <use xlink:href="#DejaVuSans-31"/>
      </g>
     </g>
    </g>
    <g id="ytick_3">
     <g id="line2d_8">
      <g>
       <use style="stroke:#000000;stroke-width:0.8;" x="34.240625" xlink:href="#m3870e0bb1f" y="202.56003"/>
      </g>
     </g>
     <g id="text_9">
      <!-- 2 -->
      <g transform="translate(20.878125 206.359249)scale(0.1 -0.1)">
       <use xlink:href="#DejaVuSans-32"/>
      </g>
     </g>
    </g>
    <g id="ytick_4">
     <g id="line2d_9">
      <g>
       <use style="stroke:#000000;stroke-width:0.8;" x="34.240625" xlink:href="#m3870e0bb1f" y="147.100982"/>
      </g>
     </g>
     <g id="text_10">
      <!-- 3 -->
      <defs>
       <path d="M 40.578125 39.3125 
Q 47.65625 37.796875 51.625 33 
Q 55.609375 28.21875 55.609375 21.1875 
Q 55.609375 10.40625 48.1875 4.484375 
Q 40.765625 -1.421875 27.09375 -1.421875 
Q 22.515625 -1.421875 17.65625 -0.515625 
Q 12.796875 0.390625 7.625 2.203125 
L 7.625 11.71875 
Q 11.71875 9.328125 16.59375 8.109375 
Q 21.484375 6.890625 26.8125 6.890625 
Q 36.078125 6.890625 40.9375 10.546875 
Q 45.796875 14.203125 45.796875 21.1875 
Q 45.796875 27.640625 41.28125 31.265625 
Q 36.765625 34.90625 28.71875 34.90625 
L 20.21875 34.90625 
L 20.21875 43.015625 
L 29.109375 43.015625 
Q 36.375 43.015625 40.234375 45.921875 
Q 44.09375 48.828125 44.09375 54.296875 
Q 44.09375 59.90625 40.109375 62.90625 
Q 36.140625 65.921875 28.71875 65.921875 
Q 24.65625 65.921875 20.015625 65.03125 
Q 15.375 64.15625 9.8125 62.3125 
L 9.8125 71.09375 
Q 15.4375 72.65625 20.34375 73.4375 
Q 25.25 74.21875 29.59375 74.21875 
Q 40.828125 74.21875 47.359375 69.109375 
Q 53.90625 64.015625 53.90625 55.328125 
Q 53.90625 49.265625 50.4375 45.09375 
Q 46.96875 40.921875 40.578125 39.3125 
z
" id="DejaVuSans-33"/>
      </defs>
      <g transform="translate(20.878125 150.900201)scale(0.1 -0.1)">
       <use xlink:href="#DejaVuSans-33"/>
      </g>
     </g>
    </g>
    <g id="ytick_5">
     <g id="line2d_10">
      <g>
       <use style="stroke:#000000;stroke-width:0.8;" x="34.240625" xlink:href="#m3870e0bb1f" y="91.641935"/>
      </g>
     </g>
     <g id="text_11">
      <!-- 4 -->
      <g transform="translate(20.878125 95.441153)scale(0.1 -0.1)">
       <use xlink:href="#DejaVuSans-34"/>
      </g>
     </g>
    </g>
    <g id="ytick_6">
     <g id="line2d_11">
      <g>
       <use style="stroke:#000000;stroke-width:0.8;" x="34.240625" xlink:href="#m3870e0bb1f" y="36.182887"/>
      </g>
     </g>
     <g id="text_12">
      <!-- 5 -->
      <defs>
       <path d="M 10.796875 72.90625 
L 49.515625 72.90625 
L 49.515625 64.59375 
L 19.828125 64.59375 
L 19.828125 46.734375 
Q 21.96875 47.46875 24.109375 47.828125 
Q 26.265625 48.1875 28.421875 48.1875 
Q 40.625 48.1875 47.75 41.5 
Q 54.890625 34.8125 54.890625 23.390625 
Q 54.890625 11.625 47.5625 5.09375 
Q 40.234375 -1.421875 26.90625 -1.421875 
Q 22.3125 -1.421875 17.546875 -0.640625 
Q 12.796875 0.140625 7.71875 1.703125 
L 7.71875 11.625 
Q 12.109375 9.234375 16.796875 8.0625 
Q 21.484375 6.890625 26.703125 6.890625 
Q 35.15625 6.890625 40.078125 11.328125 
Q 45.015625 15.765625 45.015625 23.390625 
Q 45.015625 31 40.078125 35.4375 
Q 35.15625 39.890625 26.703125 39.890625 
Q 22.75 39.890625 18.8125 39.015625 
Q 14.890625 38.140625 10.796875 36.28125 
z
" id="DejaVuSans-35"/>
      </defs>
      <g transform="translate(20.878125 39.982106)scale(0.1 -0.1)">
       <use xlink:href="#DejaVuSans-35"/>
      </g>
     </g>
    </g>
    <g id="text_13">
     <!-- Rate -->
     <defs>
      <path d="M 44.390625 34.1875 
Q 47.5625 33.109375 50.5625 29.59375 
Q 53.5625 26.078125 56.59375 19.921875 
L 66.609375 0 
L 56 0 
L 46.6875 18.703125 
Q 43.0625 26.03125 39.671875 28.421875 
Q 36.28125 30.8125 30.421875 30.8125 
L 19.671875 30.8125 
L 19.671875 0 
L 9.8125 0 
L 9.8125 72.90625 
L 32.078125 72.90625 
Q 44.578125 72.90625 50.734375 67.671875 
Q 56.890625 62.453125 56.890625 51.90625 
Q 56.890625 45.015625 53.6875 40.46875 
Q 50.484375 35.9375 44.390625 34.1875 
z
M 19.671875 64.796875 
L 19.671875 38.921875 
L 32.078125 38.921875 
Q 39.203125 38.921875 42.84375 42.21875 
Q 46.484375 45.515625 46.484375 51.90625 
Q 46.484375 58.296875 42.84375 61.546875 
Q 39.203125 64.796875 32.078125 64.796875 
z
" id="DejaVuSans-52"/>
      <path d="M 34.28125 27.484375 
Q 23.390625 27.484375 19.1875 25 
Q 14.984375 22.515625 14.984375 16.5 
Q 14.984375 11.71875 18.140625 8.90625 
Q 21.296875 6.109375 26.703125 6.109375 
Q 34.1875 6.109375 38.703125 11.40625 
Q 43.21875 16.703125 43.21875 25.484375 
L 43.21875 27.484375 
z
M 52.203125 31.203125 
L 52.203125 0 
L 43.21875 0 
L 43.21875 8.296875 
Q 40.140625 3.328125 35.546875 0.953125 
Q 30.953125 -1.421875 24.3125 -1.421875 
Q 15.921875 -1.421875 10.953125 3.296875 
Q 6 8.015625 6 15.921875 
Q 6 25.140625 12.171875 29.828125 
Q 18.359375 34.515625 30.609375 34.515625 
L 43.21875 34.515625 
L 43.21875 35.40625 
Q 43.21875 41.609375 39.140625 45 
Q 35.0625 48.390625 27.6875 48.390625 
Q 23 48.390625 18.546875 47.265625 
Q 14.109375 46.140625 10.015625 43.890625 
L 10.015625 52.203125 
Q 14.9375 54.109375 19.578125 55.046875 
Q 24.21875 56 28.609375 56 
Q 40.484375 56 46.34375 49.84375 
Q 52.203125 43.703125 52.203125 31.203125 
z
" id="DejaVuSans-61"/>
      <path d="M 18.3125 70.21875 
L 18.3125 54.6875 
L 36.8125 54.6875 
L 36.8125 47.703125 
L 18.3125 47.703125 
L 18.3125 18.015625 
Q 18.3125 11.328125 20.140625 9.421875 
Q 21.96875 7.515625 27.59375 7.515625 
L 36.8125 7.515625 
L 36.8125 0 
L 27.59375 0 
Q 17.1875 0 13.234375 3.875 
Q 9.28125 7.765625 9.28125 18.015625 
L 9.28125 47.703125 
L 2.6875 47.703125 
L 2.6875 54.6875 
L 9.28125 54.6875 
L 9.28125 70.21875 
z
" id="DejaVuSans-74"/>
     </defs>
     <g transform="translate(14.798438 179.471563)rotate(-90)scale(0.1 -0.1)">
      <use xlink:href="#DejaVuSans-52"/>
      <use x="69.451172" xlink:href="#DejaVuSans-61"/>
      <use x="130.730469" xlink:href="#DejaVuSans-74"/>
      <use x="169.939453" xlink:href="#DejaVuSans-65"/>
     </g>
    </g>
   </g>
   <g id="patch_92">
    <path d="M 34.240625 313.478125 
L 34.240625 22.318125 
" style="fill:none;stroke:#000000;stroke-linecap:square;stroke-linejoin:miter;stroke-width:0.8;"/>
   </g>
   <g id="patch_93">
    <path d="M 630.650625 313.478125 
L 630.650625 22.318125 
" style="fill:none;stroke:#000000;stroke-linecap:square;stroke-linejoin:miter;stroke-width:0.8;"/>
   </g>
   <g id="patch_94">
    <path d="M 34.240625 313.478125 
L 630.650625 313.478125 
" style="fill:none;stroke:#000000;stroke-linecap:square;stroke-linejoin:miter;stroke-width:0.8;"/>
   </g>
   <g id="patch_95">
    <path d="M 34.240625 22.318125 
L 630.650625 22.318125 
" style="fill:none;stroke:#000000;stroke-linecap:square;stroke-linejoin:miter;stroke-width:0.8;"/>
   </g>
   <g id="text_14">
    <!-- Consistency opinion rate [48, 47, 49, 52] -->
    <defs>
     <path d="M 64.40625 67.28125 
L 64.40625 56.890625 
Q 59.421875 61.53125 53.78125 63.8125 
Q 48.140625 66.109375 41.796875 66.109375 
Q 29.296875 66.109375 22.65625 58.46875 
Q 16.015625 50.828125 16.015625 36.375 
Q 16.015625 21.96875 22.65625 14.328125 
Q 29.296875 6.6875 41.796875 6.6875 
Q 48.140625 6.6875 53.78125 8.984375 
Q 59.421875 11.28125 64.40625 15.921875 
L 64.40625 5.609375 
Q 59.234375 2.09375 53.4375 0.328125 
Q 47.65625 -1.421875 41.21875 -1.421875 
Q 24.65625 -1.421875 15.125 8.703125 
Q 5.609375 18.84375 5.609375 36.375 
Q 5.609375 53.953125 15.125 64.078125 
Q 24.65625 74.21875 41.21875 74.21875 
Q 47.75 74.21875 53.53125 72.484375 
Q 59.328125 70.75 64.40625 67.28125 
z
" id="DejaVuSans-43"/>
     <path d="M 30.609375 48.390625 
Q 23.390625 48.390625 19.1875 42.75 
Q 14.984375 37.109375 14.984375 27.296875 
Q 14.984375 17.484375 19.15625 11.84375 
Q 23.34375 6.203125 30.609375 6.203125 
Q 37.796875 6.203125 41.984375 11.859375 
Q 46.1875 17.53125 46.1875 27.296875 
Q 46.1875 37.015625 41.984375 42.703125 
Q 37.796875 48.390625 30.609375 48.390625 
z
M 30.609375 56 
Q 42.328125 56 49.015625 48.375 
Q 55.71875 40.765625 55.71875 27.296875 
Q 55.71875 13.875 49.015625 6.21875 
Q 42.328125 -1.421875 30.609375 -1.421875 
Q 18.84375 -1.421875 12.171875 6.21875 
Q 5.515625 13.875 5.515625 27.296875 
Q 5.515625 40.765625 12.171875 48.375 
Q 18.84375 56 30.609375 56 
z
" id="DejaVuSans-6f"/>
     <path d="M 9.421875 54.6875 
L 18.40625 54.6875 
L 18.40625 0 
L 9.421875 0 
z
M 9.421875 75.984375 
L 18.40625 75.984375 
L 18.40625 64.59375 
L 9.421875 64.59375 
z
" id="DejaVuSans-69"/>
     <path d="M 48.78125 52.59375 
L 48.78125 44.1875 
Q 44.96875 46.296875 41.140625 47.34375 
Q 37.3125 48.390625 33.40625 48.390625 
Q 24.65625 48.390625 19.8125 42.84375 
Q 14.984375 37.3125 14.984375 27.296875 
Q 14.984375 17.28125 19.8125 11.734375 
Q 24.65625 6.203125 33.40625 6.203125 
Q 37.3125 6.203125 41.140625 7.25 
Q 44.96875 8.296875 48.78125 10.40625 
L 48.78125 2.09375 
Q 45.015625 0.34375 40.984375 -0.53125 
Q 36.96875 -1.421875 32.421875 -1.421875 
Q 20.0625 -1.421875 12.78125 6.34375 
Q 5.515625 14.109375 5.515625 27.296875 
Q 5.515625 40.671875 12.859375 48.328125 
Q 20.21875 56 33.015625 56 
Q 37.15625 56 41.109375 55.140625 
Q 45.0625 54.296875 48.78125 52.59375 
z
" id="DejaVuSans-63"/>
     <path d="M 32.171875 -5.078125 
Q 28.375 -14.84375 24.75 -17.8125 
Q 21.140625 -20.796875 15.09375 -20.796875 
L 7.90625 -20.796875 
L 7.90625 -13.28125 
L 13.1875 -13.28125 
Q 16.890625 -13.28125 18.9375 -11.515625 
Q 21 -9.765625 23.484375 -3.21875 
L 25.09375 0.875 
L 2.984375 54.6875 
L 12.5 54.6875 
L 29.59375 11.921875 
L 46.6875 54.6875 
L 56.203125 54.6875 
z
" id="DejaVuSans-79"/>
     <path id="DejaVuSans-20"/>
     <path d="M 18.109375 8.203125 
L 18.109375 -20.796875 
L 9.078125 -20.796875 
L 9.078125 54.6875 
L 18.109375 54.6875 
L 18.109375 46.390625 
Q 20.953125 51.265625 25.265625 53.625 
Q 29.59375 56 35.59375 56 
Q 45.5625 56 51.78125 48.09375 
Q 58.015625 40.1875 58.015625 27.296875 
Q 58.015625 14.40625 51.78125 6.484375 
Q 45.5625 -1.421875 35.59375 -1.421875 
Q 29.59375 -1.421875 25.265625 0.953125 
Q 20.953125 3.328125 18.109375 8.203125 
z
M 48.6875 27.296875 
Q 48.6875 37.203125 44.609375 42.84375 
Q 40.53125 48.484375 33.40625 48.484375 
Q 26.265625 48.484375 22.1875 42.84375 
Q 18.109375 37.203125 18.109375 27.296875 
Q 18.109375 17.390625 22.1875 11.75 
Q 26.265625 6.109375 33.40625 6.109375 
Q 40.53125 6.109375 44.609375 11.75 
Q 48.6875 17.390625 48.6875 27.296875 
z
" id="DejaVuSans-70"/>
     <path d="M 41.109375 46.296875 
Q 39.59375 47.171875 37.8125 47.578125 
Q 36.03125 48 33.890625 48 
Q 26.265625 48 22.1875 43.046875 
Q 18.109375 38.09375 18.109375 28.8125 
L 18.109375 0 
L 9.078125 0 
L 9.078125 54.6875 
L 18.109375 54.6875 
L 18.109375 46.1875 
Q 20.953125 51.171875 25.484375 53.578125 
Q 30.03125 56 36.53125 56 
Q 37.453125 56 38.578125 55.875 
Q 39.703125 55.765625 41.0625 55.515625 
z
" id="DejaVuSans-72"/>
     <path d="M 8.59375 75.984375 
L 29.296875 75.984375 
L 29.296875 69 
L 17.578125 69 
L 17.578125 -6.203125 
L 29.296875 -6.203125 
L 29.296875 -13.1875 
L 8.59375 -13.1875 
z
" id="DejaVuSans-5b"/>
     <path d="M 11.71875 12.40625 
L 22.015625 12.40625 
L 22.015625 4 
L 14.015625 -11.625 
L 7.71875 -11.625 
L 11.71875 4 
z
" id="DejaVuSans-2c"/>
     <path d="M 8.203125 72.90625 
L 55.078125 72.90625 
L 55.078125 68.703125 
L 28.609375 0 
L 18.3125 0 
L 43.21875 64.59375 
L 8.203125 64.59375 
z
" id="DejaVuSans-37"/>
     <path d="M 10.984375 1.515625 
L 10.984375 10.5 
Q 14.703125 8.734375 18.5 7.8125 
Q 22.3125 6.890625 25.984375 6.890625 
Q 35.75 6.890625 40.890625 13.453125 
Q 46.046875 20.015625 46.78125 33.40625 
Q 43.953125 29.203125 39.59375 26.953125 
Q 35.25 24.703125 29.984375 24.703125 
Q 19.046875 24.703125 12.671875 31.3125 
Q 6.296875 37.9375 6.296875 49.421875 
Q 6.296875 60.640625 12.9375 67.421875 
Q 19.578125 74.21875 30.609375 74.21875 
Q 43.265625 74.21875 49.921875 64.515625 
Q 56.59375 54.828125 56.59375 36.375 
Q 56.59375 19.140625 48.40625 8.859375 
Q 40.234375 -1.421875 26.421875 -1.421875 
Q 22.703125 -1.421875 18.890625 -0.6875 
Q 15.09375 0.046875 10.984375 1.515625 
z
M 30.609375 32.421875 
Q 37.25 32.421875 41.125 36.953125 
Q 45.015625 41.5 45.015625 49.421875 
Q 45.015625 57.28125 41.125 61.84375 
Q 37.25 66.40625 30.609375 66.40625 
Q 23.96875 66.40625 20.09375 61.84375 
Q 16.21875 57.28125 16.21875 49.421875 
Q 16.21875 41.5 20.09375 36.953125 
Q 23.96875 32.421875 30.609375 32.421875 
z
" id="DejaVuSans-39"/>
     <path d="M 30.421875 75.984375 
L 30.421875 -13.1875 
L 9.71875 -13.1875 
L 9.71875 -6.203125 
L 21.390625 -6.203125 
L 21.390625 69 
L 9.71875 69 
L 9.71875 75.984375 
z
" id="DejaVuSans-5d"/>
    </defs>
    <g transform="translate(209.505625 16.318125)scale(0.12 -0.12)">
     <use xlink:href="#DejaVuSans-43"/>
     <use x="69.824219" xlink:href="#DejaVuSans-6f"/>
     <use x="131.005859" xlink:href="#DejaVuSans-6e"/>
     <use x="194.384766" xlink:href="#DejaVuSans-73"/>
     <use x="246.484375" xlink:href="#DejaVuSans-69"/>
     <use x="274.267578" xlink:href="#DejaVuSans-73"/>
     <use x="326.367188" xlink:href="#DejaVuSans-74"/>
     <use x="365.576172" xlink:href="#DejaVuSans-65"/>
     <use x="427.099609" xlink:href="#DejaVuSans-6e"/>
     <use x="490.478516" xlink:href="#DejaVuSans-63"/>
     <use x="545.458984" xlink:href="#DejaVuSans-79"/>
     <use x="604.638672" xlink:href="#DejaVuSans-20"/>
     <use x="636.425781" xlink:href="#DejaVuSans-6f"/>
     <use x="697.607422" xlink:href="#DejaVuSans-70"/>
     <use x="761.083984" xlink:href="#DejaVuSans-69"/>
     <use x="788.867188" xlink:href="#DejaVuSans-6e"/>
     <use x="852.246094" xlink:href="#DejaVuSans-69"/>
     <use x="880.029297" xlink:href="#DejaVuSans-6f"/>
     <use x="941.210938" xlink:href="#DejaVuSans-6e"/>
     <use x="1004.589844" xlink:href="#DejaVuSans-20"/>
     <use x="1036.376953" xlink:href="#DejaVuSans-72"/>
     <use x="1077.490234" xlink:href="#DejaVuSans-61"/>
     <use x="1138.769531" xlink:href="#DejaVuSans-74"/>
     <use x="1177.978516" xlink:href="#DejaVuSans-65"/>
     <use x="1239.501953" xlink:href="#DejaVuSans-20"/>
     <use x="1271.289062" xlink:href="#DejaVuSans-5b"/>
     <use x="1310.302734" xlink:href="#DejaVuSans-34"/>
     <use x="1373.925781" xlink:href="#DejaVuSans-38"/>
     <use x="1437.548828" xlink:href="#DejaVuSans-2c"/>
     <use x="1469.335938" xlink:href="#DejaVuSans-20"/>
     <use x="1501.123047" xlink:href="#DejaVuSans-34"/>
     <use x="1564.746094" xlink:href="#DejaVuSans-37"/>
     <use x="1628.369141" xlink:href="#DejaVuSans-2c"/>
     <use x="1660.15625" xlink:href="#DejaVuSans-20"/>
     <use x="1691.943359" xlink:href="#DejaVuSans-34"/>
     <use x="1755.566406" xlink:href="#DejaVuSans-39"/>
     <use x="1819.189453" xlink:href="#DejaVuSans-2c"/>
     <use x="1850.976562" xlink:href="#DejaVuSans-20"/>
     <use x="1882.763672" xlink:href="#DejaVuSans-35"/>
     <use x="1946.386719" xlink:href="#DejaVuSans-32"/>
     <use x="2010.009766" xlink:href="#DejaVuSans-5d"/>
    </g>
   </g>
  </g>
 </g>
 <defs>
  <clipPath id="p89f7ccb626">
   <rect height="291.16" width="596.41" x="34.240625" y="22.318125"/>
  </clipPath>
 </defs>
</svg>
